acsaID=g10430	VIT_03s0088g01070.t01	27.9	591	388	9	281	860	9	572	1.9e-66	251.5	62.8	VIT_03s0088g01070.t01 pep chromosome:12X:3:9310070:9311966:-1 gene:VIT_03s0088g01070 transcript:VIT_03s0088g01070.t01 gene_biotype:protein_coding transcript_biotype:protein_coding
acsaID=g19324.2	VIT_06s0061g01010.t01	44.0	1016	389	18	30	1033	96	943	1.7e-230	797.0	79.4	VIT_06s0061g01010.t01 pep chromosome:12X:6:18617149:18631085:1 gene:VIT_06s0061g01010 transcript:VIT_06s0061g01010.t01 gene_biotype:protein_coding transcript_biotype:protein_coding
Acyan01G0306900.1	VIT_06s0004g05670.t01	39.1	465	160	7	96	559	2	344	5.9e-90	328.9	81.7	VIT_06s0004g05670.t01 pep chromosome:12X:6:6476931:6484106:1 gene:VIT_06s0004g05670 transcript:VIT_06s0004g05670.t01 gene_biotype:protein_coding transcript_biotype:protein_coding
QL09p003378	VIT_00s0487g00030.t01	39.9	1836	848	41	853	2578	1	1691	5.0e-269	926.0	66.7	VIT_00s0487g00030.t01 pep chromosome:12X:Un:30449532:30462754:1 gene:VIT_00s0487g00030 transcript:VIT_00s0487g00030.t01 gene_biotype:protein_coding transcript_biotype:protein_coding