Gb_24536	VIT_07s0031g01380.t01	50.6	474	197	5	42	480	2	473	1.7e-131	467.2	63.9	VIT_07s0031g01380.t01 pep chromosome:12X:7:17459748:17461583:1 gene:VIT_07s0031g01380 transcript:VIT_07s0031g01380.t01 gene_biotype:protein_coding transcript_biotype:protein_coding
Juhi_23128.t1	VIT_18s0122g01470.t01	57.9	458	193	0	331	788	18	475	5.4e-166	582.0	58.0	VIT_18s0122g01470.t01 pep chromosome:12X:18:1039528:1042444:-1 gene:VIT_18s0122g01470 transcript:VIT_18s0122g01470.t01 gene_biotype:protein_coding transcript_biotype:protein_coding
GWHPAAYW004916	VIT_00s0391g00010.t01	41.1	1399	460	14	43	1087	6	1394	1.3e-292	1003.0	96.1	VIT_00s0391g00010.t01 pep chromosome:12X:Un:27125911:27137865:-1 gene:VIT_00s0391g00010 transcript:VIT_00s0391g00010.t01 gene_biotype:protein_coding transcript_biotype:protein_coding
GWHPAAYW005735	VIT_18s0122g00690.t01	46.4	1150	484	13	92	1237	2	1023	2.4e-309	1058.9	91.4	VIT_18s0122g00690.t01 pep chromosome:12X:18_random:538960:552194:1 gene:VIT_18s0122g00690 transcript:VIT_18s0122g00690.t01 gene_biotype:protein_coding transcript_biotype:protein_coding description:Laccase [Source:UniProtKB/TrEMBL;Acc:F6HJA9]
GWHPAAYW017871	VIT_04s0069g00330.t01	46.3	1760	844	31	1238	2968	3	1690	0.0e+00	1443.7	57.0	VIT_04s0069g00330.t01 pep chromosome:12X:4:8256197:8269048:1 gene:VIT_04s0069g00330 transcript:VIT_04s0069g00330.t01 gene_biotype:protein_coding transcript_biotype:protein_coding
GWHPAAYW026481	VIT_06s0004g01410.t01	37.2	1564	605	33	6	1538	183	1400	1.6e-275	946.8	99.7	VIT_06s0004g01410.t01 pep chromosome:12X:6:1670470:1688130:1 gene:VIT_06s0004g01410 transcript:VIT_06s0004g01410.t01 gene_biotype:protein_coding transcript_biotype:protein_coding
GWHPAAYW015509	VIT_01s0011g01000.t01	31.6	1610	897	36	1	1561	1	1454	1.2e-179	629.0	64.5	VIT_01s0011g01000.t01 pep chromosome:12X:1:872585:888273:1 gene:VIT_01s0011g01000 transcript:VIT_01s0011g01000.t01 gene_biotype:protein_coding transcript_biotype:protein_coding
OsKitaake01g073608.1.p	VIT_12s0028g01520.t01	43.1	1361	632	26	4	1299	11	1293	1.1e-288	990.3	97.5	VIT_12s0028g01520.t01 pep chromosome:12X:12:2172268:2184432:1 gene:VIT_12s0028g01520 transcript:VIT_12s0028g01520.t01 gene_biotype:protein_coding transcript_biotype:protein_coding
Tg10g02270.t1	VIT_08s0007g04130.t01	33.4	1026	617	19	35	1043	34	1010	1.2e-157	554.7	95.8	VIT_08s0007g04130.t01 pep chromosome:12X:8:18101750:18121825:-1 gene:VIT_08s0007g04130 transcript:VIT_08s0007g04130.t01 gene_biotype:protein_coding transcript_biotype:protein_coding
VIT_216s0022g01510.1	VIT_16s0022g01510.t01	100.0	941	0	0	1	941	1	941	0.0e+00	1935.6	99.9	VIT_16s0022g01510.t01 pep chromosome:12X:16:13549389:13582228:-1 gene:VIT_16s0022g01510 transcript:VIT_16s0022g01510.t01 gene_biotype:protein_coding transcript_biotype:protein_coding
VIT_218s0089g01200.1	VIT_18s0089g01200.t01	100.0	1155	0	0	1	1155	1	1155	0.0e+00	2259.6	99.9	VIT_18s0089g01200.t01 pep chromosome:12X:18:29086420:29097009:1 gene:VIT_18s0089g01200 transcript:VIT_18s0089g01200.t01 gene_biotype:protein_coding transcript_biotype:protein_coding