#queryIndex	queryItem	stringId	identity	bitscore	preferredName	annotation
1	ID=g13966	29760.VIT_11s0052g00320.t01	78	1621.7	VIT_11s0052g00320.t01	Calcium-transporting ATPase; This magnesium-dependent enzyme catalyzes the hydrolysis of ATP coupled with the transport of calcium
2	ID=g13966	29760.VIT_09s0018g02130.t01	74	1489.9	VIT_09s0018g02130.t01	Calcium-transporting ATPase; This magnesium-dependent enzyme catalyzes the hydrolysis of ATP coupled with the transport of calcium
3	ID=g13966	29760.VIT_14s0030g02080.t01	58	1026.9	VIT_14s0030g02080.t01	Calcium-transporting ATPase; This magnesium-dependent enzyme catalyzes the hydrolysis of ATP coupled with the transport of calcium
4	ID=g13966	29760.VIT_05s0020g04300.t01	56	1021.9	VIT_05s0020g04300.t01	Calcium-transporting ATPase; This magnesium-dependent enzyme catalyzes the hydrolysis of ATP coupled with the transport of calcium
5	ID=g13966	29760.VIT_05s0020g04280.t01	57	1016.5	VIT_05s0020g04280.t01	Calcium-transporting ATPase; This magnesium-dependent enzyme catalyzes the hydrolysis of ATP coupled with the transport of calcium
6	ID=g19956	29760.VIT_05s0102g00510.t01	40	280	VIT_05s0102g00510.t01	Uncharacterized protein
7	ID=g19956	29760.VIT_13s0019g00120.t01	29	83.6	VIT_13s0019g00120.t01	Uncharacterized protein
8	ID=g19956	29760.VIT_13s0019g00090.t01	27	82	VIT_13s0019g00090.t01	Uncharacterized protein
9	ID=g19956	29760.VIT_05s0102g00540.t01	30	77	VIT_05s0102g00540.t01	Uncharacterized protein
10	ID=g19956	29760.VIT_13s0019g00080.t01	26	71.6	VIT_13s0019g00080.t01	Uncharacterized protein
11	ID=g19977	29760.VIT_06s0004g06050.t01	60	100.1	VIT_06s0004g06050.t01	Uncharacterized protein
12	ID=g20679	29760.VIT_19s0014g04900.t01	45	341.7	VIT_19s0014g04900.t01	Uncharacterized protein
13	ID=g20679	29760.VIT_19s0014g04930.t01	46	341.3	VIT_19s0014g04930.t01	(-)-germacrene D synthase; Involved in the biosynthesis of germacrene D. Can use farnesyl diphosphate as substrate, but not geranyl diphosphate or geranylgeranyl diphosphate. Produces mainly (-)-germacrene D along with gamma-cadinene
14	ID=g20679	29760.VIT_18s0001g05290.t01	41	339.3	VIT_18s0001g05290.t01	Uncharacterized protein
15	ID=g20679	29760.VIT_18s0001g04280.t01	41	339	VIT_18s0001g04280.t01	Terpene synthase 
16	ID=g20679	29760.VIT_19s0015g02070.t01	48	336.7	VIT_19s0015g02070.t01	Uncharacterized protein
17	ID=g24159	29760.VIT_02s0025g03570.t01	42	104.4	VIT_02s0025g03570.t01	Uncharacterized protein
18	ID=g24213	29760.VIT_02s0025g04490.t01	87	62	VIT_02s0025g04490.t01	Uncharacterized protein
19	ID=g24213	29760.VIT_15s0048g01060.t01	90	62	VIT_15s0048g01060.t01	Uncharacterized protein
20	ID=g24884	29760.VIT_18s0075g00520.t01	36	209.5	VIT_18s0075g00520.t01	Uncharacterized protein
21	ID=g24884	29760.VIT_18s0001g03780.t01	48	206.5	VIT_18s0001g03780.t01	Uncharacterized protein
22	ID=g24884	29760.VIT_18s0089g01150.t01	34	203.8	VIT_18s0089g01150.t01	Uncharacterized protein
23	ID=g24884	29760.VIT_18s0001g03810.t01	36	196.8	VIT_18s0001g03810.t01	Uncharacterized protein
24	ID=g24884	29760.VIT_18s0001g01370.t01	33	193.4	VIT_18s0001g01370.t01	Uncharacterized protein
25	ID=g25327	29760.VIT_09s0018g01440.t01	61	235	VIT_09s0018g01440.t01	Uncharacterized protein
26	ID=g25327	29760.VIT_12s0028g01870.t01	60	219.5	VIT_12s0028g01870.t01	Uncharacterized protein
27	ID=g25327	29760.VIT_09s0018g01450.t01	61	217.6	VIT_09s0018g01450.t01	Uncharacterized protein
28	ID=g25327	29760.VIT_00s0658g00020.t01	58	212.2	VIT_00s0658g00020.t01	Uncharacterized protein
29	ID=g25327	29760.VIT_12s0028g01960.t01	58	208	VIT_12s0028g01960.t01	Uncharacterized protein; Belongs to the protein kinase superfamily. Ser/Thr protein kinase family
30	ID=g25342.1	29760.VIT_09s0018g01460.t01	60	105.5	VIT_09s0018g01460.t01	Uncharacterized protein
31	ID=g25342.1	29760.VIT_12s0028g01960.t01	55	100.1	VIT_12s0028g01960.t01	Uncharacterized protein; Belongs to the protein kinase superfamily. Ser/Thr protein kinase family
32	ID=g25342.1	29760.VIT_12s0142g00640.t01	47	90.5	VIT_12s0142g00640.t01	Uncharacterized protein; Belongs to the protein kinase superfamily. Ser/Thr protein kinase family
33	ID=g25342.1	29760.VIT_10s0003g04830.t01	47	89	VIT_10s0003g04830.t01	Uncharacterized protein; Belongs to the protein kinase superfamily. Ser/Thr protein kinase family
34	ID=g25342.1	29760.VIT_00s0658g00010.t01	52	87.4	VIT_00s0658g00010.t01	Uncharacterized protein
35	ID=g25824	29760.VIT_01s0150g00030.t01	64	77.8	VIT_01s0150g00030.t01	Uncharacterized protein
36	ID=g28027	29760.VIT_05s0062g00010.t01	81	54.3	VIT_05s0062g00010.t01	Uncharacterized protein
37	ID=g30674	29760.VIT_16s0050g02560.t01	42	278.5	VIT_16s0050g02560.t01	Uncharacterized protein
38	ID=g30674	29760.VIT_11s0037g00230.t01	36	229.9	VIT_11s0037g00230.t01	Uncharacterized protein
39	ID=g3180	29760.VIT_09s0018g00240.t01	74	300.4	VIT_09s0018g00240.t01	Uncharacterized protein
40	ID=g3180	29760.VIT_04s0008g05760.t01	57	252.3	VIT_04s0008g05760.t01	Uncharacterized protein
41	ID=g3180	29760.VIT_04s0008g05750.t01	45	145.2	VIT_04s0008g05750.t01	Uncharacterized protein
42	ID=g3180	29760.VIT_14s0108g00120.t01	41	106.7	VIT_14s0108g00120.t01	Uncharacterized protein
43	ID=g3180	29760.VIT_12s0059g00880.t01	39	105.5	VIT_12s0059g00880.t01	Uncharacterized protein
44	ID=g34920	29760.VIT_13s0047g01200.t01	90	627.1	VIT_13s0047g01200.t01	Uncharacterized protein; Belongs to the cytochrome P450 family
45	ID=g34920	29760.VIT_01s0150g00210.t01	88	617.8	VIT_01s0150g00210.t01	Uncharacterized protein; Belongs to the cytochrome P450 family
46	ID=g34920	29760.VIT_08s0007g04060.t01	27	96.7	VIT_08s0007g04060.t01	Uncharacterized protein; Belongs to the cytochrome P450 family
47	ID=g34920	29760.VIT_08s0007g04070.t01	27	95.9	VIT_08s0007g04070.t01	Uncharacterized protein
48	ID=g34920	29760.VIT_19s0015g00110.t01	27	95.1	CYP71BE5	Alpha-guaine 2-oxidase; Belongs to the cytochrome P450 family
49	ID=g36182	29760.VIT_09s0018g01440.t01	69	181.4	VIT_09s0018g01440.t01	Uncharacterized protein
50	ID=g36182	29760.VIT_11s0052g00340.t01	50	179.1	VIT_11s0052g00340.t01	Uncharacterized protein; Belongs to the protein kinase superfamily. Ser/Thr protein kinase family
51	ID=g36182	29760.VIT_11s0052g00350.t01	64	174.5	VIT_11s0052g00350.t01	Uncharacterized protein
52	ID=g36182	29760.VIT_12s0028g01850.t01	68	173.3	VIT_12s0028g01850.t01	Uncharacterized protein; Belongs to the protein kinase superfamily. Ser/Thr protein kinase family
53	ID=g36182	29760.VIT_09s0018g01450.t01	66	172.2	VIT_09s0018g01450.t01	Uncharacterized protein
54	ID=g36533	29760.VIT_01s0011g01350.t01	68	87	VIT_01s0011g01350.t01	Uncharacterized protein
55	ID=g37274	29760.VIT_17s0119g00240.t01	38	116.3	VIT_17s0119g00240.t01	Uncharacterized protein
56	ID=g39459	29760.VIT_12s0057g00420.t01	52	178.7	VIT_12s0057g00420.t01	Uncharacterized protein
57	ID=g39459	29760.VIT_12s0057g00430.t01	43	137.5	VIT_12s0057g00430.t01	Uncharacterized protein
58	ID=g42841	29760.VIT_14s0108g01320.t01	72	249.6	VIT_14s0108g01320.t01	Uncharacterized protein
59	ID=g42841	29760.VIT_14s0108g01310.t01	52	124	VIT_14s0108g01310.t01	Uncharacterized protein
60	ID=g4993	29760.VIT_09s0018g01460.t01	48	83.2	VIT_09s0018g01460.t01	Uncharacterized protein
61	ID=g4993	29760.VIT_10s0003g04830.t01	43	80.9	VIT_10s0003g04830.t01	Uncharacterized protein; Belongs to the protein kinase superfamily. Ser/Thr protein kinase family
62	ID=g4993	29760.VIT_12s0028g01850.t01	52	75.1	VIT_12s0028g01850.t01	Uncharacterized protein; Belongs to the protein kinase superfamily. Ser/Thr protein kinase family
63	ID=g4993	29760.VIT_12s0142g00640.t01	40	70.9	VIT_12s0142g00640.t01	Uncharacterized protein; Belongs to the protein kinase superfamily. Ser/Thr protein kinase family
64	ID=g4993	29760.VIT_10s0003g04760.t01	53	64.7	VIT_10s0003g04760.t01	Uncharacterized protein
65	ID=g4994	29760.VIT_09s0018g01440.t01	41	252.7	VIT_09s0018g01440.t01	Uncharacterized protein
66	ID=g4994	29760.VIT_09s0018g01450.t01	40	241.1	VIT_09s0018g01450.t01	Uncharacterized protein
67	ID=g4994	29760.VIT_12s0028g01850.t01	35	204.5	VIT_12s0028g01850.t01	Uncharacterized protein; Belongs to the protein kinase superfamily. Ser/Thr protein kinase family
68	ID=g4994	29760.VIT_12s0028g01950.t01	35	201.1	VIT_12s0028g01950.t01	Uncharacterized protein
69	ID=g4994	29760.VIT_12s0028g01960.t01	36	200.7	VIT_12s0028g01960.t01	Uncharacterized protein; Belongs to the protein kinase superfamily. Ser/Thr protein kinase family
70	ID=g9373.1	29760.VIT_06s0004g01430.t01	32	398.3	VIT_06s0004g01430.t01	Uncharacterized protein
71	ID=g9373.1	29760.VIT_13s0064g01580.t01	32	397.9	VIT_13s0064g01580.t01	Uncharacterized protein
72	ID=g9373.1	29760.VIT_06s0004g01420.t01	40	354.8	VIT_06s0004g01420.t01	Uncharacterized protein; Belongs to the glycosyl hydrolase 1 family
73	ID=g9373.1	29760.VIT_13s0064g01720.t01	39	340.1	VIT_13s0064g01720.t01	Uncharacterized protein; Belongs to the glycosyl hydrolase 1 family
74	ID=g9373.1	29760.VIT_13s0064g01540.t01	35	326.2	VIT_13s0064g01540.t01	Uncharacterized protein; Belongs to the glycosyl hydrolase 1 family
75	ID=g9724.2	29760.VIT_17s0000g00830.t01	52	181	VIT_17s0000g00830.t01	Bidirectional sugar transporter SWEET; Mediates both low-affinity uptake and efflux of sugar across the membrane
76	ID=g9724.2	29760.VIT_07s0104g01340.t01	50	163.3	VIT_07s0104g01340.t01	Bidirectional sugar transporter SWEET; Mediates both low-affinity uptake and efflux of sugar across the membrane
77	ID=g9724.2	29760.VIT_01s0146g00260.t01	40	142.1	VIT_01s0146g00260.t01	Bidirectional sugar transporter SWEET; Mediates both low-affinity uptake and efflux of sugar across the membrane
78	ID=g9724.2	29760.VIT_14s0060g01890.t01	37	129	VIT_14s0060g01890.t01	Uncharacterized protein; Belongs to the SWEET sugar transporter family
79	ID=g9724.2	29760.VIT_05s0077g02260.t01	36	124.4	VIT_05s0077g02260.t01	Bidirectional sugar transporter SWEET; Mediates both low-affinity uptake and efflux of sugar across the membrane
