acsaID=g49223	VIT_16s0050g02220.t01	65.9	290	97	2	12	301	89	376	8.5e-112	400.6	96.0	VIT_16s0050g02220.t01 pep chromosome:12X:16:19180654:19188753:-1 gene:VIT_16s0050g02220 transcript:VIT_16s0050g02220.t01 gene_biotype:protein_coding transcript_biotype:protein_coding
acsaID=g26018	VIT_05s0020g04300.t01	75.3	970	220	4	6	957	81	1048	0.0e+00	1420.2	96.8	VIT_05s0020g04300.t01 pep chromosome:12X:5:6026551:6039177:-1 gene:VIT_05s0020g04300 transcript:VIT_05s0020g04300.t01 gene_biotype:protein_coding transcript_biotype:protein_coding description:Calcium-transporting ATPase [Source:UniProtKB/TrEMBL;Acc:F6HDV0]
acsaID=g26018	VIT_05s0020g04380.t01	77.6	940	202	4	25	957	75	1012	0.0e+00	1411.7	94.9	VIT_05s0020g04380.t01 pep chromosome:12X:5:6140681:6143903:-1 gene:VIT_05s0020g04380 transcript:VIT_05s0020g04380.t01 gene_biotype:protein_coding transcript_biotype:protein_coding description:Calcium-transporting ATPase [Source:UniProtKB/TrEMBL;Acc:F6HDV5]
acsaID=g26018	VIT_05s0020g04280.t01	74.4	971	229	4	6	958	62	1030	0.0e+00	1403.3	96.9	VIT_05s0020g04280.t01 pep chromosome:12X:5:5997101:6009831:-1 gene:VIT_05s0020g04280 transcript:VIT_05s0020g04280.t01 gene_biotype:protein_coding transcript_biotype:protein_coding description:Calcium-transporting ATPase [Source:UniProtKB/TrEMBL;Acc:F6HDU9]
acsaID=g26018	VIT_05s0020g04390.t01	77.2	940	205	3	25	957	75	1012	0.0e+00	1388.2	94.9	VIT_05s0020g04390.t01 pep chromosome:12X:5:6153306:6156571:-1 gene:VIT_05s0020g04390 transcript:VIT_05s0020g04390.t01 gene_biotype:protein_coding transcript_biotype:protein_coding description:Calcium-transporting ATPase [Source:UniProtKB/TrEMBL;Acc:F6HDV6]
acsaID=g26018	VIT_05s0020g04260.t01	75.5	932	222	2	26	951	108	1039	0.0e+00	1381.3	94.2	VIT_05s0020g04260.t01 pep chromosome:12X:5:5954823:5960787:-1 gene:VIT_05s0020g04260 transcript:VIT_05s0020g04260.t01 gene_biotype:protein_coding transcript_biotype:protein_coding description:Calcium-transporting ATPase [Source:UniProtKB/TrEMBL;Acc:F6HDU7]
acsaID=g47014	VIT_03s0063g00040.t01	59.4	466	183	3	1	464	16	477	1.9e-166	582.8	99.1	VIT_03s0063g00040.t01 pep chromosome:12X:3:3587098:3588547:-1 gene:VIT_03s0063g00040 transcript:VIT_03s0063g00040.t01 gene_biotype:protein_coding transcript_biotype:protein_coding description:Glycosyltransferase [Source:UniProtKB/TrEMBL;Acc:F6HQ86]
acsaID=g21568	VIT_18s0041g00740.t01	33.3	481	276	16	4	449	5	475	3.6e-58	223.0	98.0	VIT_18s0041g00740.t01 pep chromosome:12X:18:25261198:25262924:-1 gene:VIT_18s0041g00740 transcript:VIT_18s0041g00740.t01 gene_biotype:protein_coding transcript_biotype:protein_coding description:Glycosyltransferase [Source:UniProtKB/TrEMBL;Acc:A5BFH4]
acsaID=g21568	VIT_16s0050g01610.t01	35.3	479	267	16	2	449	3	469	9.0e-57	218.4	98.5	VIT_16s0050g01610.t01 pep chromosome:12X:16:18525648:18527276:1 gene:VIT_16s0050g01610 transcript:VIT_16s0050g01610.t01 gene_biotype:protein_coding transcript_biotype:protein_coding description:Glycosyltransferase [Source:UniProtKB/TrEMBL;Acc:F6H6M2]
acsaID=g21568	VIT_16s0050g01580.t01	33.4	488	274	17	1	449	1	476	3.4e-56	216.5	98.7	VIT_16s0050g01580.t01 pep chromosome:12X:16:18494100:18495739:1 gene:VIT_16s0050g01580 transcript:VIT_16s0050g01580.t01 gene_biotype:protein_coding transcript_biotype:protein_coding description:Glycosyltransferase [Source:UniProtKB/TrEMBL;Acc:F6H6Q6]
acsaID=g21568	VIT_18s0041g00910.t01	34.4	491	268	19	4	452	5	483	3.4e-56	216.5	98.7	VIT_18s0041g00910.t01 pep chromosome:12X:18:25406239:25407741:-1 gene:VIT_18s0041g00910 transcript:VIT_18s0041g00910.t01 gene_biotype:protein_coding transcript_biotype:protein_coding description:Glycosyltransferase [Source:UniProtKB/TrEMBL;Acc:F6I3X4]
acsaID=g9724.2	VIT_17s0000g00830.t01	52.4	191	88	1	16	206	51	238	9.4e-46	181.0	71.0	VIT_17s0000g00830.t01 pep chromosome:12X:17:551030:552885:1 gene:VIT_17s0000g00830 transcript:VIT_17s0000g00830.t01 gene_biotype:protein_coding transcript_biotype:protein_coding description:Bidirectional sugar transporter SWEET [Source:UniProtKB/TrEMBL;Acc:D7SH34]
acsaID=g24711	VIT_14s0128g00320.t01	71.1	388	72	3	1	353	1	383	4.3e-155	545.0	74.6	VIT_14s0128g00320.t01 pep chromosome:12X:14:2963279:2966189:1 gene:VIT_14s0128g00320 transcript:VIT_14s0128g00320.t01 gene_biotype:protein_coding transcript_biotype:protein_coding
acsaID=g21825	VIT_19s0014g04050.t01	37.2	390	147	7	3	324	342	701	6.6e-55	211.8	90.2	VIT_19s0014g04050.t01 pep chromosome:12X:19:4296793:4304803:1 gene:VIT_19s0014g04050 transcript:VIT_19s0014g04050.t01 gene_biotype:protein_coding transcript_biotype:protein_coding
acsaID=g21825	VIT_10s0071g00450.t01	40.5	353	164	10	3	346	153	468	2.1e-53	206.8	96.4	VIT_10s0071g00450.t01 pep chromosome:12X:10:16817906:16820444:-1 gene:VIT_10s0071g00450 transcript:VIT_10s0071g00450.t01 gene_biotype:protein_coding transcript_biotype:protein_coding
acsaID=g21825	VIT_19s0014g04090.t01	32.9	505	172	12	3	356	308	796	3.6e-53	206.1	99.2	VIT_19s0014g04090.t01 pep chromosome:12X:19:4330206:4333951:1 gene:VIT_19s0014g04090 transcript:VIT_19s0014g04090.t01 gene_biotype:protein_coding transcript_biotype:protein_coding
