OG0000000	2.19983e-11	GWHPAAYW011443	XP_027337230.1 uncharacterized protein LOC113850911 [Abrus precatorius]	Acyan08G0071100.1	XP_020541069.1 uncharacterized protein LOC105650193 [Jatropha curcas]
OG0000002	0.000634941	Bpev01.c1458.g0005.m0001		Acyan03G0232500.1	XP_006448369.2 rust resistance kinase Lr10 isoform X1 [Citrus clementina]
OG0000009	4.42852e-15	GWHPAAYW001806		acsaID=g26779	XP_015950848.2 MDIS1-interacting receptor like kinase 2-like [Arachis duranensis]
OG0000010	7.55244e-05	GWHPAAYW002767	XP_019052010.1 PREDICTED: LOW QUALITY PROTEIN: uncharacterized protein LOC104590182 [Nelumbo nucifera]	acsaID=g3688	XP_022720838.1 LOW QUALITY PROTEIN: uncharacterized protein LOC111278497 [Durio zibethinus]
OG0000011	0	GWHPAAYW022553	XP_017233167.1 PREDICTED: uncharacterized protein LOC108207215, partial [Daucus carota subsp. sativus]	Acyan05G0105400.1	
OG0000013	6.74833e-06	Tg16g10160.t1	sp|Q9FMA8|GL111_ARATH Germin-like protein subfamily 1 member 11 OS=Arabidopsis thaliana GN=At5g38940 PE=2 SV=1	acneID=g23559	XP_021282058.1 germin-like protein subfamily 1 member 13 [Herrania umbratica]
OG0000014	3.33195e-27	GWHPAAYW021827		Acyan04G0035200.1	XP_025979678.1 uncharacterized protein LOC112997809 [Glycine max]
OG0000017	0.0197265	GWHPAAYW005708	XP_023884508.1 LOW QUALITY PROTEIN: pleiotropic drug resistance protein 2-like, partial [Quercus suber]	acneID=g14708	XP_006488514.1 ABC transporter G family member 31 [Citrus sinensis]
OG0000019	0.000100362	GWHPAAYW016519	XP_025822282.1 uncharacterized protein LOC112898101 [Panicum hallii]	acneID=g13474	
OG0000021	1.53257e-23	GWHPAAYW021412		acsaID=g26535	XP_018687005.1 PREDICTED: LOW QUALITY PROTEIN: uncharacterized protein LOC103997281 [Musa acuminata subsp. malaccensis]
OG0000022	2.83317e-10	Acyan01G0079800.1	XP_021691973.1 uncharacterized protein LOC110673220 [Hevea brasiliensis]
OG0000025	5.75234e-05	acsaID=g36479	XP_021824848.1 wall-associated receptor kinase-like 22 [Prunus avium]
OG0000028	1.31446e-12	VIT_218s0001g01370.1	XP_019071850.1 PREDICTED: uncharacterized protein LOC100262500 [Vitis vinifera]	acsaID=g22503	XP_021645191.1 wall-associated receptor kinase 2-like [Hevea brasiliensis]
OG0000029	2.91441e-21	QL03p055550	XP_020411599.1 uncharacterized protein LOC109946873 [Prunus persica]	acsaID=g9182.3	XP_021283945.1 vinorine synthase-like [Herrania umbratica]
OG0000030	4.24576e-05	acsaID=g3838	XP_023513202.1 terpene synthase 10-like [Cucurbita pepo subsp. pepo]
OG0000031	1.79384e-05	evm_27.model.AmTr_v1.0_scaffold00010.351	XP_010255710.1 PREDICTED: disease resistance protein TAO1-like isoform X1 [Nelumbo nucifera]	acneID=g8526.1	XP_027082361.1 disease resistance-like protein DSC1 [Coffea arabica]
OG0000032	0.000129314	QL11p048657	XP_023923580.1 L-type lectin-domain containing receptor kinase IX.1-like [Quercus suber]	Acyan06G0087900.1	XP_023894302.1 L-type lectin-domain containing receptor kinase IX.1-like [Quercus suber]
OG0000034	7.4005e-09	QL02p026579		acsaID=g48839	XP_010674186.1 PREDICTED: uncharacterized protein LOC104890406 [Beta vulgaris subsp. vulgaris]
OG0000037	1.12302e-05	acneID=g12261.1	sp|P22195|PER1_ARAHY Cationic peroxidase 1 OS=Arachis hypogaea GN=PNC1 PE=1 SV=2
OG0000039	5.86461e-30	GWHPAAYW016634		Acyan03G0288600.1	XP_024953098.1 uncharacterized protein LOC102622255 isoform X7 [Citrus sinensis]
OG0000041	0.00205811	GWHPAAYW000412	XP_019069222.2 LOW QUALITY PROTEIN: uncharacterized protein LOC101268390 [Solanum lycopersicum]	Acyan06G0032400.1	sp|Q9SZ46|C82C4_ARATH Cytochrome P450 82C4 OS=Arabidopsis thaliana GN=CYP82C4 PE=2 SV=1
OG0000043	1.17149e-16	GWHPAAYW016246		acsaID=g26050	XP_010665060.1 PREDICTED: uncharacterized protein LOC104882664 [Vitis vinifera]
OG0000044	0.000634941	Qrob_P0070870.2	sp|Q8RWW1|TMN10_ARATH Transmembrane 9 superfamily member 10 OS=Arabidopsis thaliana GN=TMN10 PE=2 SV=1	Acyan08G0011800.1	XP_015072812.1 PREDICTED: uncharacterized protein LOC107017045 [Solanum pennellii]
OG0000047	0.000614322	Ciclev10014011m	XP_025887149.1 uncharacterized protein LOC101259341 [Solanum lycopersicum]	acsaID=g27550	XP_006448720.1 receptor kinase-like protein Xa21 [Citrus clementina]
OG0000048	0.00267092	acsaID=g9049	XP_019420883.1 PREDICTED: uncharacterized protein LOC109331061 isoform X1 [Lupinus angustifolius]
OG0000049	0.000409602	acsaID=g20753	
OG0000055	0.0342721	Acyan11G0127500.1	sp|Q6VAA6|U74G1_STERE UDP-glycosyltransferase 74G1 OS=Stevia rebaudiana GN=UGT74G1 PE=1 SV=1
OG0000058	6.28873e-06	acneID=g18291	XP_014499166.2 MLP-like protein 34 [Vigna radiata var. radiata]
OG0000062	8.35762e-14	Acyan01G0008100.1	XP_015900101.1 uncharacterized protein LOC107433329 [Ziziphus jujuba]
OG0000063	2.51666e-11	GWHPAAYW026028	XP_009370195.1 PREDICTED: patatin-like protein 2 [Pyrus x bretschneideri]	acsaID=g8584	
OG0000065	0.0139792	Jure_10418.t1	sp|Q8VWZ7|C76B6_CATRO Geraniol 8-hydroxylase OS=Catharanthus roseus GN=CYP76B6 PE=1 SV=1	acneID=g19514	XP_022731118.1 7-ethoxycoumarin O-deethylase-like [Durio zibethinus]
OG0000071	0.0267472	Gb_06056	XP_006857784.1 salicylate carboxymethyltransferase [Amborella trichopoda]	acneID=g12246	sp|Q9AR07|JMT_ARATH Jasmonate O-methyltransferase OS=Arabidopsis thaliana GN=JMT PE=1 SV=3
OG0000073	4.68879e-09	acsaID=g24389	XP_021290701.1 uncharacterized protein LOC110421425 [Herrania umbratica]
OG0000074	6.28873e-06	acneID=g2856	
OG0000075	3.66727e-09	GWHPAAYW009196	XP_006846404.3 uncharacterized protein LOC18436320 [Amborella trichopoda]	acsaID=g45157.2	XP_006429199.1 putative receptor protein kinase ZmPK1 [Citrus clementina]
OG0000076	8.40361e-63	Acyan08G0020400.1	XP_022549646.1 uncharacterized protein LOC111201676, partial [Brassica napus]
OG0000078	0.0139792	GWHPAAYW018654	XP_025674899.1 2-alkenal reductase (NADP(+)-dependent)-like isoform X1 [Arachis hypogaea]	acsaID=g35802.2	
OG0000083	1.60432e-09	Bpev01.c1113.g0001.m0001		acneID=g13462	XP_020551353.1 uncharacterized protein LOC105167325 [Sesamum indicum]
OG0000087	0.0139792	Bpev01.c1099.g0003.m0001		Acyan08G0046500.1	XP_006438201.1 protein SIEVE ELEMENT OCCLUSION B [Citrus clementina]
OG0000096	0.0232444	acsaID=g21959	XP_012441388.1 PREDICTED: disease resistance protein At4g27190-like [Gossypium raimondii]
OG0000098	1.05732e-11	Acyan03G0008000.1	
OG0000101	0.00691895	acneID=g29185	
OG0000102	0.00240181	GWHPAAYW003889	XP_021284255.1 LOW QUALITY PROTEIN: tuliposide A-converting enzyme 1, chloroplastic [Herrania umbratica]	Acyan04G0209000.1	
OG0000103	0.000652039	Acyan04G0042200.1	XP_007220894.2 uncharacterized protein LOC18787733 [Prunus persica]
OG0000107	2.32886e-15	acneID=g29860	XP_012857659.1 PREDICTED: uncharacterized protein LOC105976934 [Erythranthe guttata]
OG0000109	4.43352e-33	Bpev01.c0516.g0018.m0001	XP_018816058.1 PREDICTED: uncharacterized protein LOC108987582 [Juglans regia]	acsaID=g45450	XP_023920731.1 uncharacterized protein LOC112032201 [Quercus suber]
OG0000111	5.54855e-22	acsaID=g39483	XP_006447759.1 calcium-transporting ATPase 12, plasma membrane-type [Citrus clementina]
OG0000112	0.00511815	GWHPAAYW020832	XP_010669896.1 PREDICTED: LOW QUALITY PROTEIN: uncharacterized protein LOC104887018 [Beta vulgaris subsp. vulgaris]	acsaID=g33266	XP_015876923.1 heat shock cognate 70 kDa protein 2-like isoform X1 [Ziziphus jujuba]
OG0000121	3.91129e-08	Acyan09G0184100.1	
OG0000125	0.000614322	GWHPAAYW024850	XP_010923596.2 PREDICTED: uncharacterized protein LOC105046642 [Elaeis guineensis]	acneID=g5967	XP_015579013.1 UDP-glycosyltransferase 83A1 [Ricinus communis]
OG0000127	2.76234e-141	GWHPAAYW023396		acsaID=g34649	XP_021827212.1 uncharacterized protein LOC110767855 [Prunus avium]
OG0000129	0.0139792	GWHPAAYW015976	XP_022924286.1 uncharacterized protein LOC111431815 [Cucurbita moschata]	acneID=g27459	sp|Q94JQ3|GLYP3_ARATH Serine hydroxymethyltransferase 3, chloroplastic OS=Arabidopsis thaliana GN=SHM3 PE=1 SV=2
OG0000140	0.00691895	Acyan02G0334700.1	XP_019450589.1 PREDICTED: uncharacterized protein LOC109352863 [Lupinus angustifolius]
OG0000145	6.36733e-05	acsaID=g31108	XP_012850949.1 PREDICTED: uncharacterized protein LOC105970659 [Erythranthe guttata]
OG0000149	9.13551e-104	acsaID=g6596.1	XP_023874613.1 uncharacterized protein LOC111987139 [Quercus suber]
OG0000159	0.000614322	VIT_214s0066g02030.1	XP_010660980.1 PREDICTED: zinc transporter 5 [Vitis vinifera]	Acyan07G0168000.1	XP_008441126.1 PREDICTED: LOW QUALITY PROTEIN: protein HYPER-SENSITIVITY-RELATED 4-like [Cucumis melo]
OG0000161	0.00319323	QL05p031161	XP_023876247.1 protein ALP1-like isoform X1 [Quercus suber]	Acyan11G0075600.1	XP_024034429.1 uncharacterized protein LOC112095909 isoform X1 [Citrus clementina]
OG0000167	0.0315408	GWHPAAYW006329		Acyan03G0126800.1	
OG0000172	1.2417e-09	QL11p054864	XP_023875588.1 uncharacterized protein LOC111988064 [Quercus suber]	acsaID=g12803.1	XP_021803308.1 uncharacterized protein LOC110747440 [Prunus avium]
OG0000176	1.4698e-05	AT1G66880.1	NP_176860.2 Protein kinase superfamily protein [Arabidopsis thaliana]	acsaID=g12498	sp|Q9C6K9|LRL11_ARATH LEAF RUST 10 DISEASE-RESISTANCE LOCUS RECEPTOR-LIKE PROTEIN KINASE-like 1.1 OS=Arabidopsis thaliana GN=LRK10L-1.1 PE=2 SV=1
OG0000177	6.28873e-06	QL09p003378	XP_021809440.1 LOW QUALITY PROTEIN: uncharacterized protein LOC110752967 [Prunus avium]	acneID=g3907	XP_006425826.1 probable disease resistance protein At5g66900 [Citrus clementina]
OG0000183	1.71256e-12	Bpev01.c0401.g0040.m0001	XP_018859962.1 PREDICTED: receptor-like protein kinase 5 [Juglans regia]	acneID=g19771	
OG0000185	1.4698e-05	Acyan01G0073900.1	XP_002517065.2 perakine reductase isoform X2 [Ricinus communis]
OG0000192	4.91497e-11	GWHPAAYW008466	XP_015086563.1 PREDICTED: LOW QUALITY PROTEIN: endochitinase 2-like [Solanum pennellii]	Acyan04G0057900.1	XP_015086563.1 PREDICTED: LOW QUALITY PROTEIN: endochitinase 2-like [Solanum pennellii]
OG0000198	0.000879854	Acyan04G0267700.1	
OG0000200	0.00511815	evm.model.supercontig_11.27	XP_021906299.1 G-type lectin S-receptor-like serine/threonine-protein kinase SD2-2 [Carica papaya]	Acyan09G0195400.1	XP_020095136.1 uncharacterized protein LOC109714840 [Ananas comosus]
OG0000207	0.0152902	GWHPAAYW004326	XP_010244668.1 PREDICTED: uncharacterized protein LOC104588433 [Nelumbo nucifera]	acneID=g13608	XP_021654839.1 peroxidase 5-like [Hevea brasiliensis]
OG0000218	0.00161932	Acyan04G0005100.1	
OG0000219	6.28873e-06	GWHPAAYW020747	XP_021279456.1 LOW QUALITY PROTEIN: uncharacterized protein LOC110413059 [Herrania umbratica]	acsaID=g20235	XP_021279456.1 LOW QUALITY PROTEIN: uncharacterized protein LOC110413059 [Herrania umbratica]
OG0000224	0.0113609	acsaID=g36064	sp|Q9SAI1|FDM5_ARATH Factor of DNA methylation 5 OS=Arabidopsis thaliana GN=FDM5 PE=2 SV=1
OG0000230	1.38171e-29	GWHPAAYW026078	XP_009796879.1 PREDICTED: uncharacterized protein LOC104243397 [Nicotiana sylvestris]	acsaID=g33156	sp|P10978|POLX_TOBAC Retrovirus-related Pol polyprotein from transposon TNT 1-94 OS=Nicotiana tabacum PE=2 SV=1
OG0000235	1.59855e-09	Acyan08G0088900.1	sp|Q6R8G7|PHO13_ARATH Phosphate transporter PHO1 homolog 3 OS=Arabidopsis thaliana GN=PHO1;H3 PE=2 SV=2
OG0000251	0.00691895	acsaID=g36676.2	XP_012844427.1 PREDICTED: uncharacterized protein K02A2.6-like [Erythranthe guttata]
OG0000267	0.00360674	Jure_29113.t1		acsaID=g46950.1	
OG0000276	8.39696e-06	acneID=g30303	
OG0000359	0.00121291	GWHPAAYW003131	XP_021685034.1 O-acyltransferase WSD1-like [Hevea brasiliensis]	acsaID=g38974	XP_006468957.1 O-acyltransferase WSD1-like [Citrus sinensis]
OG0000398	2.37576e-48	acsaID=g11880	XP_021827212.1 uncharacterized protein LOC110767855 [Prunus avium]
OG0000426	0.00238536	Tg08g01370.t1	XP_011071477.1 beta-D-glucosyl crocetin beta-1,6-glucosyltransferase-like [Sesamum indicum]	acsaID=g18934	
OG0000442	1.10313e-48	QL04p056324		Acyan03G0228100.1	
OG0000491	8.72697e-56	acsaID=g37430	XP_021827212.1 uncharacterized protein LOC110767855 [Prunus avium]
OG0000493	2.30894e-06	QL08p013415	sp|Q9T048|DRL27_ARATH Disease resistance protein At4g27190 OS=Arabidopsis thaliana GN=At4g27190 PE=2 SV=1	acsaID=g21457	XP_024034402.1 disease resistance protein At4g27190 [Citrus clementina]
OG0000494	0.000778144	Juhi_25089.t1	XP_018811562.1 PREDICTED: DELLA protein RGL1-like [Juglans regia]	acneID=g18383	XP_006488851.1 DELLA protein RGL1-like [Citrus sinensis]
OG0000509	3.37978e-36	QL06p039494	sp|Q2QMX9|ACA10_ORYSJ Calcium-transporting ATPase 10, plasma membrane-type OS=Oryza sativa subsp. japonica GN=ACA10 PE=2 SV=1	acneID=g27207	XP_026378460.1 uncharacterized protein LOC113272884 [Papaver somniferum]
OG0000538	2.80442e-47	Gb_40641		acsaID=g7687	sp|Q91DM0|POLG_PVCV1 Genome polyprotein OS=Petunia vein clearing virus (isolate Shepherd) PE=3 SV=1
OG0000568	0.0152902	acneID=g30440	XP_017970315.1 PREDICTED: uncharacterized protein LOC18607379 [Theobroma cacao]
OG0000570	0.0152902	acsaID=g6816	
OG0000580	9.89477e-64	Gb_13147		acneID=g30968	XP_017609266.1 PREDICTED: uncharacterized protein LOC108455178 [Gossypium arboreum]
OG0000632	6.19973e-39	acsaID=g6033	XP_021827212.1 uncharacterized protein LOC110767855 [Prunus avium]
OG0000640	1.52216e-32	Gb_16133		acsaID=g31631	XP_027223610.1 uncharacterized protein LOC113815793 [Penaeus vannamei]
OG0000704	0.00900317	Ciclev10027850m	XP_006422997.1 subtilisin-like protease SBT1.7 [Citrus clementina]	acsaID=g46914	XP_006487072.1 subtilisin-like protease SBT1.7 [Citrus sinensis]
OG0000716	4.13872e-15	acsaID=g10430	XP_024199187.1 uncharacterized protein LOC112202408 [Rosa chinensis]
OG0000734	2.37603e-17	acsaID=g36668	XP_019431188.1 PREDICTED: uncharacterized protein LOC109338411 [Lupinus angustifolius]
OG0000922	5.80671e-71	acsaID=g11840	XP_021827212.1 uncharacterized protein LOC110767855 [Prunus avium]
OG0001031	2.89552e-12	acneID=g12821	XP_019431188.1 PREDICTED: uncharacterized protein LOC109338411 [Lupinus angustifolius]
OG0001129	0.000349887	Gb_15254		AcyanUnG0048700.1	XP_015166023.1 PREDICTED: ribosomal protein S12, mitochondrial [Solanum tuberosum]
OG0001573	0.0229416	QL02p054759	XP_019198971.1 PREDICTED: uncharacterized protein LOC109192724 [Ipomoea nil]	acsaID=g42393	XP_022003022.1 uncharacterized protein LOC110900441 [Helianthus annuus]
OG0001916	1.66007e-23	QL10p046058	sp|P10978|POLX_TOBAC Retrovirus-related Pol polyprotein from transposon TNT 1-94 OS=Nicotiana tabacum PE=2 SV=1	acsaID=g47363.2	sp|P10978|POLX_TOBAC Retrovirus-related Pol polyprotein from transposon TNT 1-94 OS=Nicotiana tabacum PE=2 SV=1
OG0002338	1.2417e-09	acsaID=g37000.2	XP_026657612.1 uncharacterized protein LOC113461736 [Phoenix dactylifera]
OG0003405	3.47527e-19	acsaID=g13465	XP_021827603.1 uncharacterized protein LOC110768210 [Prunus avium]
