acsaID=g39483	85681.XP_006447759.1	2.10E-283	982.6	Streptophyta		"GO:0003674,GO:0003824,GO:0005215,GO:0005388,GO:0005575,GO:0005622,GO:0005623,GO:0005886,GO:0005887,GO:0006810,GO:0006811,GO:0006812,GO:0006816,GO:0008150,GO:0008324,GO:0015075,GO:0015085,GO:0015318,GO:0015399,GO:0015405,GO:0015662,GO:0016020,GO:0016021,GO:0016462,GO:0016787,GO:0016817,GO:0016818,GO:0016887,GO:0017111,GO:0019829,GO:0022804,GO:0022853,GO:0022857,GO:0022890,GO:0030001,GO:0031224,GO:0031226,GO:0034220,GO:0042623,GO:0042625,GO:0042626,GO:0043226,GO:0043227,GO:0043229,GO:0043231,GO:0043492,GO:0044424,GO:0044425,GO:0044459,GO:0044464,GO:0046873,GO:0051179,GO:0051234,GO:0055085,GO:0070588,GO:0070838,GO:0071944,GO:0072511,GO:0090662,GO:0098655,GO:0098660,GO:0098662,GO:0099131,GO:0099132"	3.6.3.8	ko:K01537					"ko00000,ko01000"	3.A.3.2			Viridiplantae	"37TH1@33090,3GG81@35493,COG0474@1,KOG0204@2759"	NA|NA|NA	P	"Calcium-transporting ATPase 12, plasma membrane-type-like"
acsaID=g9049	77586.LPERR09G13640.1	9.20E-145	520.4	Poales		"GO:0008150,GO:0009605,GO:0009607,GO:0009617,GO:0009719,GO:0009723,GO:0009725,GO:0010033,GO:0042221,GO:0043207,GO:0050896,GO:0051704,GO:0051707"											Viridiplantae	"2CM7G@1,2QPIR@2759,37NTM@33090,3GE14@35493,3ITYN@38820,3KY98@4447"	NA|NA|NA	O	Thaumatin family
acsaID=g20753	2711.XP_006484622.1	8.10E-244	851.3	Streptophyta		"GO:0003674,GO:0003824,GO:0005575,GO:0005622,GO:0005623,GO:0005634,GO:0005730,GO:0005911,GO:0006325,GO:0006464,GO:0006479,GO:0006807,GO:0006996,GO:0008150,GO:0008152,GO:0008168,GO:0008170,GO:0008213,GO:0008276,GO:0008757,GO:0009506,GO:0009987,GO:0016043,GO:0016278,GO:0016279,GO:0016569,GO:0016570,GO:0016571,GO:0016740,GO:0016741,GO:0018022,GO:0018024,GO:0018193,GO:0018205,GO:0019538,GO:0030054,GO:0031974,GO:0031981,GO:0032259,GO:0034968,GO:0036211,GO:0042054,GO:0043170,GO:0043226,GO:0043227,GO:0043228,GO:0043229,GO:0043231,GO:0043232,GO:0043233,GO:0043412,GO:0043414,GO:0044237,GO:0044238,GO:0044260,GO:0044267,GO:0044422,GO:0044424,GO:0044428,GO:0044446,GO:0044464,GO:0051276,GO:0055044,GO:0070013,GO:0071704,GO:0071840,GO:0140096,GO:1901564"											Viridiplantae	"37KGT@33090,3G8YP@35493,COG2940@1,KOG1082@2759"	NA|NA|NA	B	Histone-lysine n-methyltransferase
acsaID=g6596.1	225117.XP_009350425.1	0	1870.9	Streptophyta				ko:K03124	"ko03022,ko05169,ko05203,map03022,map05169,map05203"				"ko00000,ko00001,ko03021"				Viridiplantae	"37RKH@33090,3GP4Z@35493,COG2801@1,KOG0017@2759"	NA|NA|NA	L	"transposition, RNA-mediated"
acsaID=g8835.2	161934.XP_010674585.1	2.60E-78	302	Streptophyta													Viridiplantae	"37J7G@33090,3G7UZ@35493,KOG4197@1,KOG4197@2759"	NA|NA|NA	O	Pentatricopeptide repeat-containing protein
acsaID=g36479	102107.XP_008229606.1	2.80E-204	719.5	fabids		"GO:0003674,GO:0003824,GO:0004672,GO:0004674,GO:0005575,GO:0005618,GO:0005623,GO:0005886,GO:0006464,GO:0006468,GO:0006793,GO:0006796,GO:0006807,GO:0007154,GO:0007165,GO:0007166,GO:0008150,GO:0008152,GO:0009505,GO:0009987,GO:0016020,GO:0016301,GO:0016310,GO:0016740,GO:0016772,GO:0016773,GO:0019538,GO:0023052,GO:0030312,GO:0036211,GO:0043170,GO:0043412,GO:0044237,GO:0044238,GO:0044260,GO:0044267,GO:0044464,GO:0050789,GO:0050794,GO:0050896,GO:0051716,GO:0065007,GO:0071704,GO:0071944,GO:0140096,GO:1901564"											Viridiplantae	"2RMXX@2759,37NC8@33090,3GDVX@35493,4JSI7@91835,COG0515@1"	NA|NA|NA	T	wall-associated receptor kinase-like
acsaID=g24389	85681.XP_006446057.1	8.90E-107	395.2	Streptophyta													Viridiplantae	"2CXK1@1,2RY48@2759,37TVD@33090,3GAE2@35493"	NA|NA|NA	S	UPF0481 protein
acsaID=g6816	29760.VIT_18s0041g01860.t01	4.20E-133	482.6	Streptophyta													Viridiplantae	"290TZ@1,2R7PE@2759,37K33@33090,3GE4W@35493"	NA|NA|NA	S	BEST Arabidopsis thaliana protein match is P-loop containing nucleoside triphosphate hydrolases superfamily protein (TAIR
Acyan02G0334700.1	29760.VIT_12s0055g00590.t01	0	1677.5	Streptophyta													Viridiplantae	"2QUW9@2759,37KJP@33090,3G96G@35493,COG0515@1"	NA|NA|NA	T	LRR receptor-like serine threonine-protein kinase
Acyan01G0073900.1	40149.OMERI04G06500.2	1.60E-220	773.1	Poales													Viridiplantae	"37HWG@33090,3GH58@35493,3IEN0@38820,3KQTC@4447,COG0667@1,KOG1575@2759"	NA|NA|NA	C	oxidoreductase activity
Acyan07G0128700.1	65489.OBART03G11990.1	1.80E-158	566.2	Poales			1.1.1.206	ko:K08081	"ko00960,ko01100,ko01110,map00960,map01100,map01110"		R02832	RC00144	"ko00000,ko00001,ko01000"				Viridiplantae	"37IWV@33090,3GBIS@35493,3I4X5@38820,3KYQH@4447,COG1028@1,KOG0725@2759"	NA|NA|NA	Q	Enoyl-(Acyl carrier protein) reductase
Acyan01G0079800.1	2711.XP_006492168.1	2.80E-142	513.5	Streptophyta				"ko:K15502,ko:K15503"					"ko00000,ko01009,ko03400"				Viridiplantae	"37RBK@33090,3GGQ6@35493,COG0666@1,KOG0504@2759"	NA|NA|NA	L	ankyrin repeat-containing protein
Acyan12G0081700.1	3694.POPTR_0008s01390.1	1.90E-173	617.1	fabids			3.1.3.24	ko:K07024	"ko00500,map00500"		"R00805,R06211"	RC00017	"ko00000,ko00001,ko01000"				Viridiplantae	"2S2R4@2759,37TJ8@33090,3GX7V@35493,4JEZ3@91835,COG0561@1"	NA|NA|NA	S	Sucrose-6-phosphate phosphohydrolase C-terminal
Acyan01G0114100.1	2711.XP_006487605.1	1.60E-134	487.3	Streptophyta													Viridiplantae	"2CXK1@1,2RY48@2759,37TVD@33090,3GAE2@35493"	NA|NA|NA	S	UPF0481 protein
Acyan05G0101000.1	225117.XP_009337238.1	1.40E-193	683.3	fabids		"GO:0001871,GO:0003674,GO:0003824,GO:0004338,GO:0004553,GO:0005488,GO:0005575,GO:0005623,GO:0005886,GO:0008422,GO:0015926,GO:0016020,GO:0016787,GO:0016798,GO:0030246,GO:0030247,GO:0031224,GO:0031225,GO:0031226,GO:0044425,GO:0044459,GO:0044464,GO:0046658,GO:0071944"											Viridiplantae	"28P0A@1,2QVKW@2759,37K2Z@33090,3G8S1@35493,4JIJ4@91835"	NA|NA|NA	G	Belongs to the glycosyl hydrolase 17 family
Acyan03G0008000.1	85681.XP_006433474.1	2.40E-85	323.6	Streptophyta													Viridiplantae	"28IYG@1,2QRA4@2759,37JF5@33090,3G8RG@35493"	NA|NA|NA	S	F-Box protein
Acyan10G0030000.1	3656.XP_008446152.1	1.80E-200	706.4	fabids		"GO:0005575,GO:0005622,GO:0005623,GO:0005737,GO:0005783,GO:0005789,GO:0012505,GO:0016020,GO:0031090,GO:0031984,GO:0042175,GO:0043226,GO:0043227,GO:0043229,GO:0043231,GO:0044422,GO:0044424,GO:0044425,GO:0044432,GO:0044444,GO:0044446,GO:0044464,GO:0098827"		ko:K20617					"ko00000,ko00199"				Viridiplantae	"37JZ1@33090,3GDBY@35493,4JKWY@91835,COG2124@1,KOG0156@2759"	NA|NA|NA	Q	Cytochrome p450
Acyan11G0127500.1	3641.EOX93691	5.20E-163	581.3	Streptophyta			2.4.1.195	"ko:K11820,ko:K13691"	"ko00380,ko00966,ko01110,ko01210,map00380,map00966,map01110,map01210"	M00370	"R03213,R08164,R08668"	"RC00005,RC00882"	"ko00000,ko00001,ko00002,ko01000,ko01003"		GT1		Viridiplantae	"37IVJ@33090,3G9WC@35493,KOG1192@1,KOG1192@2759"	NA|NA|NA	CG	Belongs to the UDP-glycosyltransferase family
evm_27.model.AmTr_v1.0_scaffold00010.351	13333.ERM94375	0	2526.5	Streptophyta													Viridiplantae	"2D1DR@1,2SHRJ@2759,37YJS@33090,3GNXI@35493"	NA|NA|NA	S	NB-ARC domain
Bpev01.c1113.g0001.m0001	3983.cassava4.1_010229m	5.10E-158	565.8	fabids													Viridiplantae	"37PNR@33090,3GG9E@35493,4JIM5@91835,COG3491@1,KOG0143@2759"	NA|NA|NA	Q	Belongs to the iron ascorbate-dependent oxidoreductase family
Bpev01.c1458.g0005.m0001	2711.XP_006468744.1	2.00E-191	677.2	Streptophyta													Viridiplantae	"37MEY@33090,3G7FA@35493,COG0515@1,KOG1187@2759"	NA|NA|NA	T	receptor-like protein kinase
Ciclev10027850m	85681.XP_006422997.1	0	1586.2	Streptophyta													Viridiplantae	"2QTDB@2759,37S7D@33090,3GG6C@35493,COG1404@1"	NA|NA|NA	O	subtilisin-like
Jure_10418.t1	3760.EMJ11131	2.50E-182	646	fabids		"GO:0003674,GO:0003824,GO:0004497,GO:0005575,GO:0006629,GO:0006720,GO:0006721,GO:0008150,GO:0008152,GO:0008299,GO:0008610,GO:0009058,GO:0009403,GO:0009404,GO:0009987,GO:0016020,GO:0016101,GO:0016102,GO:0016114,GO:0016491,GO:0016705,GO:0016709,GO:0019748,GO:0036202,GO:0044237,GO:0044238,GO:0044249,GO:0044255,GO:0044550,GO:0051501,GO:0051502,GO:0052314,GO:0052315,GO:0055114,GO:0071704,GO:1901576"	"1.14.13.145,1.14.13.192,1.14.13.193"	"ko:K16084,ko:K20556,ko:K21718"	"ko00904,ko01110,map00904,map01110"		R09866	RC00524	"ko00000,ko00001,ko00199,ko01000"				Viridiplantae	"37QSJ@33090,3G8WW@35493,4JH5R@91835,COG2124@1,KOG0156@2759"	NA|NA|NA	Q	Belongs to the cytochrome P450 family
Jure_05044.t1	57918.XP_004289513.1	1.10E-247	862.8	fabids			1.1.1.195	ko:K00083	"ko00940,ko01100,ko01110,map00940,map01100,map01110"	M00039	"R02593,R03918,R06570,R06571,R07437"	RC00649	"ko00000,ko00001,ko00002,ko01000"				Viridiplantae	"37KEI@33090,3G8HT@35493,4JT1Q@91835,COG1064@1,KOG0023@2759"	NA|NA|NA	Q	Alcohol dehydrogenase GroES-like domain
GWHPAAYW004916	77586.LPERR02G17610.1	4.90E-300	1037.3	Poales			2.4.1.324	ko:K21374					"ko00000,ko01000,ko01003"		GT1		Viridiplantae	"37HZV@33090,3GFQH@35493,3IBT5@38820,3KNYJ@4447,KOG1192@1,KOG1192@2759"	NA|NA|NA	CG	Belongs to the UDP-glycosyltransferase family
GWHPAAYW025621	13333.ERN11375	0	1354.3	Streptophyta	RDR1	"GO:0001101,GO:0006139,GO:0006396,GO:0006725,GO:0006807,GO:0008150,GO:0008152,GO:0009058,GO:0009605,GO:0009607,GO:0009615,GO:0009719,GO:0009725,GO:0009751,GO:0009892,GO:0009987,GO:0010025,GO:0010033,GO:0010166,GO:0010467,GO:0010468,GO:0010605,GO:0010608,GO:0010629,GO:0014070,GO:0016070,GO:0016246,GO:0016441,GO:0016458,GO:0019222,GO:0030422,GO:0031047,GO:0031050,GO:0034641,GO:0035194,GO:0040029,GO:0042221,GO:0042493,GO:0043170,GO:0043207,GO:0043331,GO:0044237,GO:0044238,GO:0046483,GO:0046677,GO:0048518,GO:0048519,GO:0048522,GO:0050789,GO:0050794,GO:0050896,GO:0051704,GO:0051707,GO:0051716,GO:0060147,GO:0060148,GO:0060255,GO:0060968,GO:0065007,GO:0070887,GO:0070918,GO:0071310,GO:0071359,GO:0071407,GO:0071704,GO:0090304,GO:1901360,GO:1901568,GO:1901570,GO:1901576,GO:1901698,GO:1901699,GO:1901700"	2.7.7.48	ko:K11699					"ko00000,ko01000,ko03036"				Viridiplantae	"37MAM@33090,3G8RS@35493,KOG0988@1,KOG0988@2759"	NA|NA|NA	A	Probably involved in the RNA silencing pathway and required for the generation of small interfering RNAs (siRNAs)
GWHPAAYW008466	71139.XP_010055072.1	2.90E-215	755	Streptophyta			3.2.1.14	ko:K01183	"ko00520,ko01100,map00520,map01100"		"R01206,R02334"	RC00467	"ko00000,ko00001,ko01000"		GH18		Viridiplantae	"37M9X@33090,3GH22@35493,KOG4701@1,KOG4701@2759"	NA|NA|NA	G	Belongs to the glycosyl hydrolase 18 family
GWHPAAYW023268	29730.Gorai.009G447900.1	9.30E-30	141.4	Streptophyta													Viridiplantae	"37RSV@33090,3GF8S@35493,COG4886@1,KOG0619@2759"	NA|NA|NA	V	RECEPTOR-LIKE protein
GWHPAAYW005735	4432.XP_010261309.1	0	1206.4	Streptophyta		"GO:0003674,GO:0003824,GO:0008150,GO:0008152,GO:0016491,GO:0016722,GO:0055114"	1.10.3.2	ko:K05909					"ko00000,ko01000"				Viridiplantae	"37HHC@33090,3G91M@35493,COG2132@1,KOG1263@2759"	NA|NA|NA	Q	Belongs to the multicopper oxidase family
GWHPAAYW006808	264402.Cagra.1398s0018.1.p	7.10E-147	528.9	Brassicales		"GO:0003674,GO:0003824,GO:0004175,GO:0004190,GO:0006508,GO:0006807,GO:0008150,GO:0008152,GO:0008233,GO:0009056,GO:0009057,GO:0016787,GO:0019538,GO:0030163,GO:0043170,GO:0044238,GO:0070001,GO:0070011,GO:0071704,GO:0140096,GO:1901564,GO:1901565,GO:1901575"											Viridiplantae	"37HRA@33090,3GC6U@35493,3HSU6@3699,KOG1339@1,KOG1339@2759"	NA|NA|NA	O	Belongs to the peptidase A1 family
GWHPAAYW005708	218851.Aquca_001_00683.1	0	3378.6	Streptophyta													Viridiplantae	"37P62@33090,3GB0P@35493,COG1131@1,KOG0065@2759"	NA|NA|NA	Q	Belongs to the ABC transporter superfamily. ABCG family. PDR (TC 3.A.1.205) subfamily
GWHPAAYW020832	161934.XP_010669896.1	0	1677.1	Streptophyta				ko:K03283	"ko03040,ko04010,ko04141,ko04144,ko04213,ko04612,ko04915,ko05134,ko05145,ko05162,ko05164,ko05169,map03040,map04010,map04141,map04144,map04213,map04612,map04915,map05134,map05145,map05162,map05164,map05169"	"M00353,M00355"			"ko00000,ko00001,ko00002,ko01009,ko03009,ko03029,ko03041,ko03051,ko03110,ko04131,ko04147,ko04516"	1.A.33.1			Viridiplantae	"37K68@33090,3GN15@35493,COG0443@1,COG2801@1,KOG0017@2759,KOG0101@2759"	NA|NA|NA	O	mediator of RNA polymerase II transcription subunit
GWHPAAYW009196	77586.LPERR01G22220.2	0	1215.3	Poales		"GO:0005575,GO:0016020"	2.7.11.1	ko:K04733	"ko04010,ko04064,ko04620,ko04621,ko04624,ko04722,ko05133,ko05140,ko05142,ko05145,ko05152,ko05162,ko05164,map04010,map04064,map04620,map04621,map04624,map04722,map05133,map05140,map05142,map05145,map05152,map05162,map05164"	M00686			"ko00000,ko00001,ko00002,ko01000,ko01001"				Viridiplantae	"2QRH4@2759,37IK7@33090,3G8UE@35493,3INTV@38820,3M56W@4447,COG0515@1"	NA|NA|NA	G	PAN-like domain
GWHPAAYW017871	4529.ORUFI09G11840.1	0	1903.6	Poales				ko:K05387					"ko00000,ko04040"	"1.A.10.1.10,1.A.10.1.18,1.A.10.1.7"			Viridiplantae	"37K5G@33090,3GEFA@35493,3I529@38820,3KRN5@4447,KOG1052@1,KOG1052@2759"	NA|NA|NA	EPT	Glutamate-gated receptor that probably acts as non- selective cation channel
GWHPAAYW026481	4537.OPUNC04G13790.1	0	1140.2	Poales													Viridiplantae	"2QQEW@2759,37HW6@33090,3G7JQ@35493,3I6YB@38820,3KMDR@4447,COG0515@1"	NA|NA|NA	G	Serine threonine-protein kinase
GWHPAAYW003889	57918.XP_004298163.1	4.80E-198	698.4	fabids		"GO:0003674,GO:0003824,GO:0006725,GO:0008150,GO:0008152,GO:0009056,GO:0009058,GO:0009698,GO:0009699,GO:0009717,GO:0009987,GO:0016787,GO:0016788,GO:0016829,GO:0016835,GO:0016836,GO:0018130,GO:0019438,GO:0019748,GO:0033987,GO:0044237,GO:0044249,GO:0044550,GO:0046287,GO:0046483,GO:0052689,GO:0071704,GO:1901360,GO:1901362,GO:1901576"	4.2.1.105	ko:K13258	"ko00943,ko01110,map00943,map01110"		"R06793,R07317,R07723"	RC01632	"ko00000,ko00001,ko01000"				Viridiplantae	"37R02@33090,3G9R7@35493,4JS74@91835,COG0657@1,KOG1515@2759"	NA|NA|NA	V	Carboxylesterase family
GWHPAAYW015509	29760.VIT_01s0011g01000.t01	9.00E-177	629	Streptophyta				ko:K13457	"ko04626,map04626"				"ko00000,ko00001"				Viridiplantae	"37TDT@33090,3G9FV@35493,KOG4658@1,KOG4658@2759"	NA|NA|NA	T	Belongs to the disease resistance NB-LRR family
GWHPAAYW018654	77586.LPERR12G05680.1	0	1110.5	Poales													Viridiplantae	"37RGX@33090,3G9DY@35493,3IA0G@38820,3KP8I@4447,COG2130@1,KOG1196@2759"	NA|NA|NA	S	NADP-dependent oxidoreductase P1
GWHPAAYW020747	4537.OPUNC01G33340.1	1.70E-175	623.6	Poales		"GO:0003674,GO:0003824,GO:0005575,GO:0005622,GO:0005623,GO:0005634,GO:0005737,GO:0005829,GO:0008150,GO:0008194,GO:0009909,GO:0016740,GO:0016757,GO:0016758,GO:0035251,GO:0043226,GO:0043227,GO:0043229,GO:0043231,GO:0044424,GO:0044444,GO:0044464,GO:0046527,GO:0048580,GO:0048831,GO:0050789,GO:0050793,GO:0051239,GO:0065007,GO:0080043,GO:0080044,GO:2000026,GO:2000241"	2.4.1.324	ko:K21374					"ko00000,ko01000,ko01003"		GT1		Viridiplantae	"37M7J@33090,3GEXZ@35493,3ICIP@38820,3KPGM@4447,KOG1192@1,KOG1192@2759"	NA|NA|NA	CG	Belongs to the UDP-glycosyltransferase family
GWHPAAYW024850	4155.Migut.H00633.1.p	5.00E-211	741.5	asterids		"GO:0003674,GO:0003824,GO:0005575,GO:0005622,GO:0005623,GO:0008194,GO:0016740,GO:0016757,GO:0016758,GO:0035251,GO:0043226,GO:0043227,GO:0043229,GO:0043231,GO:0044424,GO:0044464,GO:0046527,GO:0080043,GO:0080044"											Viridiplantae	"37KEN@33090,3GARH@35493,44IN7@71274,KOG1192@1,KOG1192@2759"	NA|NA|NA	CG	UDP-glycosyltransferase 83A1-like
GWHPAAYW011443	4432.XP_010263405.1	6.00E-189	670.2	Streptophyta				ko:K22038					"ko00000,ko02000"	1.A.25.3			Viridiplantae	"2R41B@2759,37TDP@33090,3GCY2@35493,COG4886@1"	NA|NA|NA	S	TMV resistance protein N-like
GWHPAAYW021412	4536.ONIVA05G24020.1	0	1953.3	Streptophyta		"GO:0006950,GO:0006952,GO:0008150,GO:0009605,GO:0009607,GO:0009617,GO:0042742,GO:0043207,GO:0050896,GO:0051704,GO:0051707,GO:0098542"											Viridiplantae	"37YD1@33090,3GN6G@35493,COG0515@1,KOG1187@2759"	NA|NA|NA	T	leucine-rich repeat protein kinase
GWHPAAYW002767	4529.ORUFI07G17960.1	0	1182.9	Liliopsida													Viridiplantae	"2QWDY@2759,37QJ4@33090,3G71R@35493,3M2KH@4447,COG0515@1"	NA|NA|NA	T	Salt stress response/antifungal
QL08p042445	3656.XP_008457963.1	2.90E-139	503.1	fabids		"GO:0003674,GO:0003824,GO:0016298,GO:0016787,GO:0016788"											Viridiplantae	"28K72@1,2RBN6@2759,37K1I@33090,3GBWU@35493,4JSYM@91835"	NA|NA|NA	S	GDSL esterase lipase
QL11p048657	2711.XP_006487682.1	7.10E-203	714.5	Streptophyta													Viridiplantae	"2QTX3@2759,37QMV@33090,3G7RI@35493,COG0515@1"	NA|NA|NA	T	Lectin-domain containing receptor kinase
QL02p096422	3694.POPTR_0018s10550.1	6.70E-296	1023.8	fabids				ko:K05387					"ko00000,ko04040"	"1.A.10.1.10,1.A.10.1.18,1.A.10.1.7"			Viridiplantae	"37PKD@33090,3GDRH@35493,4JNED@91835,KOG1052@1,KOG1052@2759"	NA|NA|NA	P	Glutamate-gated receptor that probably acts as non- selective cation channel
QL04p056324	3880.AES97352	2.80E-140	505.8	Streptophyta													Viridiplantae	"37UN2@33090,3GJA7@35493,KOG4853@1,KOG4853@2759"	NA|NA|NA	S	mitotic sister chromatid biorientation
Qrob_P0070870.2	102107.XP_008242992.1	0	1112.8	fabids		"GO:0005575,GO:0005622,GO:0005623,GO:0005737,GO:0005768,GO:0005769,GO:0005794,GO:0008150,GO:0012505,GO:0016020,GO:0016021,GO:0031224,GO:0031410,GO:0031982,GO:0032386,GO:0032388,GO:0032879,GO:0032880,GO:0033157,GO:0043226,GO:0043227,GO:0043229,GO:0043231,GO:0044424,GO:0044425,GO:0044444,GO:0044464,GO:0048518,GO:0050789,GO:0051049,GO:0051050,GO:0051222,GO:0051223,GO:0060341,GO:0065007,GO:0070201,GO:0070861,GO:0070863,GO:0090087,GO:0090316,GO:0097708,GO:1903827,GO:1903829,GO:1904951,GO:2000008,GO:2000010"		ko:K17086					"ko00000,ko04147"				Viridiplantae	"37HDR@33090,3GB1I@35493,4JKZK@91835,KOG1278@1,KOG1278@2759"	NA|NA|NA	U	Belongs to the nonaspanin (TM9SF) (TC 9.A.2) family
Qrob_P0042470.2	3641.EOY13144	4.10E-142	511.9	Streptophyta			2.4.2.51	ko:K17193	"ko00942,map00942"		"R10290,R10291,R10292"	"RC00005,RC00049"	"ko00000,ko00001,ko01000"				Viridiplantae	"37K45@33090,3G74X@35493,KOG1192@1,KOG1192@2759"	NA|NA|NA	CG	Belongs to the UDP-glycosyltransferase family
VIT_216s0022g01510.1	29760.VIT_16s0022g01510.t01	0	1934.8	Streptophyta			"1.14.14.19,1.14.14.32"	ko:K00512	"ko00140,ko01100,ko04913,ko04917,ko04927,ko04934,map00140,map01100,map04913,map04917,map04927,map04934"	"M00109,M00110"	"R02211,R03783,R04852,R04853,R08517,R08518"	"RC00607,RC00660,RC00923,RC01222"	"ko00000,ko00001,ko00002,ko00199,ko01000"				Viridiplantae	"37THY@33090,3GGKH@35493,COG2124@1,KOG0156@2759,KOG1075@1,KOG1075@2759"	NA|NA|NA	Q	Belongs to the cytochrome P450 family