V1	V2	V3	V4	V5	V6	V7	V8	V9	V10	V11	V12	V13	V14	V15	V16	V17	V18	V19	V20	V21	V22.x	V23	V24	V25	V26	V27	V28	V29	V30	V31	V32	V33	V34	V35	V36	V37	V38	V39	V40	V41	V42	V43	V44	V45	V46	V47	V48	V49	V50	V51	V52	V53	V54	V55	V56	V57	V58	V59	V60	V22.y
g10417	7	78.16828872	6.828090121	1.39446518	4.89656552	9.75e-07	0.002902099	96.02403227	3.604188127	2.483787988	1.818682077	2.80211624	2.352757489	0	0	0	1121.020267	4.009684556	1.338865929	2.562390116	1.933326556	4.884667044	5.857854403	NA	XP_024042308.1	81	121	20	2	1	119	60	179	1e-48	99.2	XP_024042308.1 HVA22-like protein c [Citrus clementina]	citrus clementina	citrus clementina;citrus;aurantioideae;rutaceae;sapindales;malvids;rosids;pentapetalae;gunneridae;eudicotyledons;mesangiospermae;magnoliophyta;spermatophyta;euphyllophyta;tracheophyta;embryophyta;streptophytina;streptophyta;viridiplantae;eukaryota;cellular organisms;root	/home/CAM/smcevoy/acsa/analysis/annotation/entap//similarity_search/DIAMOND/blastp_acsa_structural_annotation_final_complete.out	No	Yes				NA			3847.GLYMA02G11770.1	2.3e-42	176.8		Viridiplantae	virNOG[6]	1BRH0@strNOG,1E3BH@virNOG,COG5052@NOG,KOG1725@euNOG		GO:0006950-response to stress(L=2),GO:0006970-response to osmotic stress(L=3),GO:0006972-hyperosmotic response(L=4),GO:0008150-biological_process(L=0),GO:0009414-response to water deprivation(L=3),GO:0009415-response to water(L=3),GO:0009628-response to abiotic stimulus(L=2),GO:0009651-response to salt stress(L=4),GO:0009719-response to endogenous stimulus(L=2),GO:0009725-response to hormone(L=3),GO:0009737-response to abscisic acid(L=4),GO:0010033-response to organic substance(L=3),GO:0010035-response to inorganic substance(L=3),GO:0033993-response to lipid(L=4),GO:0042221-response to chemical(L=2),GO:0042538-hyperosmotic salinity response(L=5),GO:0050896-response to stimulus(L=1),GO:0097305-response to alcohol(L=4),GO:1901700-response to oxygen-containing compound(L=3),	GO:0005575-cellular_component(L=0),GO:0005911-cell-cell junction(L=2),GO:0009506-plasmodesma(L=3),GO:0016020-membrane(L=1),GO:0016021-integral component of membrane(L=4),GO:0030054-cell junction(L=1),GO:0031224-intrinsic component of membrane(L=3),GO:0044425-membrane part(L=2),GO:0055044-symplast(L=1),		NA	HVA22-like protein
g10523	11	11.28263349	-4.149929886	0.944449754	-4.394018703	1.11e-05	0.021071294	0	3.604188127	0	10.00275142	18.68077494	55.28980099	12.74569054	8.212916828	4.313677606	1.047682492	0.801936911	8.702628541	10.24956046	7.733306224	30.93622461	8.200996164	NA	sp|Q6R8G7|PHO13_ARATH	63.9	638	204	9	1	624	1	626	4.2e-206	96.6	sp|Q6R8G7|PHO13_ARATH Phosphate transporter PHO1 homolog 3 OS=Arabidopsis thaliana GN=PHO1;H3 PE=2 SV=2	arabidopsis thaliana	arabidopsis thaliana;arabidopsis;camelineae;brassicaceae;brassicales;malvids;rosids;pentapetalae;gunneridae;eudicotyledons;mesangiospermae;magnoliophyta;spermatophyta;euphyllophyta;tracheophyta;embryophyta;streptophytina;streptophyta;viridiplantae;eukaryota;cellular organisms;root	/home/CAM/smcevoy/acsa/analysis/annotation/entap//similarity_search/DIAMOND/blastp_acsa_structural_annotation_final_uniprot_sprot.out	No	Yes	GO:0016036-cellular response to phosphate starvation(L=5),GO:0055062-phosphate ion homeostasis(L=8),GO:0006817-phosphate ion transport(L=7),GO:0055069-zinc ion homeostasis(L=8),	GO:0005794-Golgi apparatus(L=4),GO:0016021-integral component of membrane(L=4),GO:0005886-plasma membrane(L=3),GO:0005802-trans-Golgi network(L=5),	GO:0015114-phosphate ion transmembrane transporter activity(L=7),	NA	|EMBL; AY507955; AAR99485.1; -; mRNA.|EMBL; AC007576; AAD39290.1; ALT_SEQ; Genomic_DNA.|EMBL; AC068197; AAF79407.1; ALT_SEQ; Genomic_DNA.|EMBL; CP002684; AEE29101.1; -; Genomic_DNA.|PIR; G86273; G86273.|RefSeq; NP_172857.2; NM_101270.3.|SMR; Q6R8G7; -.|STRING; 3702.AT1G14040.1; -.|iPTMnet; Q6R8G7; -.|PaxDb; Q6R8G7; -.|PRIDE; Q6R8G7; -.|EnsemblPlants; AT1G14040.1; AT1G14040.1; AT1G14040.|GeneID; 837965; -.|Gramene; AT1G14040.1; AT1G14040.1; AT1G14040.|Araport; AT1G14040; -.|TAIR; locus:2014779; AT1G14040.|eggNOG; KOG1162; Eukaryota.|eggNOG; COG5409; LUCA.|HOGENOM; HOG000241861; -.|InParanoid; Q6R8G7; -.|OMA; WGREERT; -.|OrthoDB; 536327at2759; -.|PhylomeDB; Q6R8G7; -.|PRO; PR:Q6R8G7; -.|Proteomes; UP000006548; Chromosome 1.|Genevisible; Q6R8G7; AT.|CDD; cd14476; SPX_PHO1_like; 1.|InterPro; IPR004342; EXS_C.|InterPro; IPR034092; PHO1_SPX.|InterPro; IPR004331; SPX_dom.|Pfam; PF03124; EXS; 1.|Pfam; PF03105; SPX; 1.|PROSITE; PS51380; EXS; 1.|PROSITE; PS51382; SPX; 1.	|-!- FUNCTION: May transport inorganic phosphate (Pi). {ECO:0000250}.|-!- SUBCELLULAR LOCATION: Cell membrane {ECO:0000305}; Multi-pass|    membrane protein {ECO:0000305}.|-!- TISSUE SPECIFICITY: Expressed in vascular cylinder of roots,|    leaves and filaments. Expressed in receptacle and stigma apex.|    {ECO:0000269|PubMed:15122012}.|-!- INDUCTION: Not induced by Pi deficiency.|    {ECO:0000269|PubMed:15122012}.|-!- SIMILARITY: Belongs to the SYG1 (TC 2.A.94) family. {ECO:0000305}.|-!- SEQUENCE CAUTION:|    Sequence=AAD39290.1; Type=Erroneous gene model prediction; Evidence={ECO:0000305};|    Sequence=AAF79407.1; Type=Erroneous gene model prediction; Evidence={ECO:0000305};	3694.POPTR_0008s08990.1	7.8e-214	748.8		Viridiplantae	virNOG[6]	1BEXI@strNOG,1DTZ6@virNOG,COG5409@NOG,KOG1162@euNOG		GO:0000003-reproduction(L=1),GO:0003006-developmental process involved in reproduction(L=2),GO:0006810-transport(L=3),GO:0006811-ion transport(L=4),GO:0006817-phosphate ion transport(L=7),GO:0006820-anion transport(L=5),GO:0007154-cell communication(L=2),GO:0007165-signal transduction(L=3),GO:0007275-multicellular organism development(L=3),GO:0008150-biological_process(L=0),GO:0008361-regulation of cell size(L=4),GO:0009314-response to radiation(L=3),GO:0009416-response to light stimulus(L=4),GO:0009628-response to abiotic stimulus(L=2),GO:0009639-response to red or far red light(L=5),GO:0009791-post-embryonic development(L=4),GO:0009888-tissue development(L=3),GO:0009960-endosperm development(L=5),GO:0009987-cellular process(L=1),GO:0010017-red or far-red light signaling pathway(L=4),GO:0010154-fruit development(L=7),GO:0010468-regulation of gene expression(L=5),GO:0015698-inorganic anion transport(L=6),GO:0016043-cellular component organization(L=2),GO:0019222-regulation of metabolic process(L=3),GO:0022414-reproductive process(L=2),GO:0023052-signaling(L=1),GO:0032501-multicellular organismal process(L=1),GO:0032502-developmental process(L=1),GO:0032535-regulation of cellular component size(L=3),GO:0040008-regulation of growth(L=3),GO:0044699-single-organism process(L=1),GO:0044700-single organism signaling(L=2),GO:0044707-single-multicellular organism process(L=2),GO:0044763-single-organism cellular process(L=2),GO:0044765-single-organism transport(L=3),GO:0045793-positive regulation of cell size(L=5),GO:0048316-seed development(L=5),GO:0048513-animal organ development(L=4),GO:0048580-regulation of post-embryonic development(L=5),GO:0048608-reproductive structure development(L=5),GO:0048638-regulation of developmental growth(L=4),GO:0048731-system development(L=4),GO:0048856-anatomical structure development(L=2),GO:0050789-regulation of biological process(L=2),GO:0050793-regulation of developmental process(L=3),GO:0050794-regulation of cellular process(L=3),GO:0050896-response to stimulus(L=1),GO:0051179-localization(L=1),GO:0051234-establishment of localization(L=2),GO:0051239-regulation of multicellular organismal process(L=3),GO:0051716-cellular response to stimulus(L=2),GO:0060255-regulation of macromolecule metabolic process(L=4),GO:0061458-reproductive system development(L=5),GO:0065007-biological regulation(L=1),GO:0065008-regulation of biological quality(L=2),GO:0071214-cellular response to abiotic stimulus(L=3),GO:0071478-cellular response to radiation(L=4),GO:0071482-cellular response to light stimulus(L=5),GO:0071489-cellular response to red or far red light(L=6),GO:0071840-cellular component organization or biogenesis(L=1),GO:0080050-regulation of seed development(L=5),GO:0080113-regulation of seed growth(L=5),GO:0090066-regulation of anatomical structure size(L=3),GO:2000026-regulation of multicellular organismal development(L=4),GO:2000241-regulation of reproductive process(L=3),	GO:0005575-cellular_component(L=0),GO:0005622-intracellular(L=3),GO:0005623-cell(L=1),GO:0005634-nucleus(L=5),GO:0005737-cytoplasm(L=4),GO:0005768-endosome(L=5),GO:0005794-Golgi apparatus(L=4),GO:0005802-trans-Golgi network(L=5),GO:0005829-cytosol(L=4),GO:0005886-plasma membrane(L=3),GO:0016020-membrane(L=1),GO:0016021-integral component of membrane(L=4),GO:0031224-intrinsic component of membrane(L=3),GO:0043226-organelle(L=1),GO:0043227-membrane-bounded organelle(L=2),GO:0043229-intracellular organelle(L=3),GO:0043231-intracellular membrane-bounded organelle(L=4),GO:0044424-intracellular part(L=3),GO:0044425-membrane part(L=2),GO:0044444-cytoplasmic part(L=4),GO:0044464-cell part(L=2),GO:0071944-cell periphery(L=3),		NA	phosphate transporter PHO1 homolog
g11456	5	64.41224599	3.272398753	0.620049351	5.277642416	1.31e-07	0.000545148	92.75048571	171.198936	113.0123534	9.093410383	25.21904616	10.5874087	112.8904019	31.82505271	11.86261342	138.294089	167.6048144	18.74412301	6.405975289	87.9663583	17.91044583	15.23042145	NA	XP_006469242.1	68.5	365	114	1	4	368	22	385	9.1e-144	98.9	XP_006469242.1 1-aminocyclopropane-1-carboxylate oxidase homolog 4-like [Citrus sinensis]	citrus sinensis	citrus sinensis;citrus;aurantioideae;rutaceae;sapindales;malvids;rosids;pentapetalae;gunneridae;eudicotyledons;mesangiospermae;magnoliophyta;spermatophyta;euphyllophyta;tracheophyta;embryophyta;streptophytina;streptophyta;viridiplantae;eukaryota;cellular organisms;root	/home/CAM/smcevoy/acsa/analysis/annotation/entap//similarity_search/DIAMOND/blastp_acsa_structural_annotation_final_complete.out	No	Yes				NA			3694.POPTR_0010s11780.1	3.1e-138	496.9		Viridiplantae	virNOG[6]	1BM4Z@strNOG,1DZ00@virNOG,COG3491@NOG,KOG0143@euNOG		GO:0008150-biological_process(L=0),GO:0008152-metabolic process(L=1),GO:0044710-single-organism metabolic process(L=2),GO:0055114-oxidation-reduction process(L=3),		GO:0003674-molecular_function(L=0),GO:0003824-catalytic activity(L=1),GO:0016491-oxidoreductase activity(L=2),GO:0016705-oxidoreductase activity, acting on paired donors, with incorporation or reduction of molecular oxygen(L=3),GO:0016706-oxidoreductase activity, acting on paired donors, with incorporation or reduction of molecular oxygen, 2-oxoglutarate as one donor, and incorporation of one atom each of oxygen into both donors(L=4),GO:0051213-dioxygenase activity(L=3),	NA	Belongs to the iron ascorbate-dependent oxidoreductase family
g22247.4	9	492.0660012	5.831835615	1.215540287	4.797731246	1.6e-06	0.003714056	804.2012702	43.25025752	9.935151952	54.5604623	2.80211624	9.411029955	8.193658205	17.45244826	1.078419401	6712.501728	29.67166571	40.83541084	25.62390116	36.73320456	54.54544866	22.25984673	NA	sp|Q96386|MT3_CARPA	75.4	65	15	1	1	65	1	64	1.4e-22	95.6	sp|Q96386|MT3_CARPA Metallothionein-like protein type 3 OS=Carica papaya PE=3 SV=1	carica papaya	carica papaya;carica;caricaceae;brassicales;malvids;rosids;pentapetalae;gunneridae;eudicotyledons;mesangiospermae;magnoliophyta;spermatophyta;euphyllophyta;tracheophyta;embryophyta;streptophytina;streptophyta;viridiplantae;eukaryota;cellular organisms;root	/home/CAM/smcevoy/acsa/analysis/annotation/entap//similarity_search/DIAMOND/blastp_acsa_structural_annotation_final_uniprot_sprot.out	No	Yes	GO:0006878-cellular copper ion homeostasis(L=9),	GO:0005623-cell(L=1),	GO:0046872-metal ion binding(L=4),	NA	|EMBL; Y08322; CAA69624.1; -; mRNA.|PIR; T09787; T09787.|UniGene; Cpp.22824; -.|InterPro; IPR038918; MT3.|PANTHER; PTHR33357; PTHR33357; 1.	|-!- FUNCTION: Metallothioneins have a high content of cysteine|    residues that bind various heavy metals.|-!- SIMILARITY: Belongs to the metallothionein superfamily. Type 15|    family. {ECO:0000305}.	29760.VIT_19s0014g02740.t01	1.9e-17	93.2		Viridiplantae	virNOG[6]	0J4WG@euNOG,0YZRT@NOG,1BWEC@strNOG,1E8KG@virNOG		GO:0006873-cellular ion homeostasis(L=5),GO:0006875-cellular metal ion homeostasis(L=7),GO:0006878-cellular copper ion homeostasis(L=9),GO:0008150-biological_process(L=0),GO:0009987-cellular process(L=1),GO:0019725-cellular homeostasis(L=3),GO:0030003-cellular cation homeostasis(L=6),GO:0042592-homeostatic process(L=3),GO:0044699-single-organism process(L=1),GO:0044763-single-organism cellular process(L=2),GO:0046916-cellular transition metal ion homeostasis(L=8),GO:0048878-chemical homeostasis(L=4),GO:0050801-ion homeostasis(L=5),GO:0055065-metal ion homeostasis(L=7),GO:0055070-copper ion homeostasis(L=9),GO:0055076-transition metal ion homeostasis(L=8),GO:0055080-cation homeostasis(L=6),GO:0055082-cellular chemical homeostasis(L=4),GO:0065007-biological regulation(L=1),GO:0065008-regulation of biological quality(L=2),		GO:0003674-molecular_function(L=0),GO:0005488-binding(L=1),GO:0005507-copper ion binding(L=6),GO:0043167-ion binding(L=2),GO:0043169-cation binding(L=3),GO:0046872-metal ion binding(L=4),GO:0046914-transition metal ion binding(L=5),	NA	Metallothionein-like protein type 3-like
g24711	12	365.9552953	-1.449581204	0.341689898	-4.242388234	2.21e-05	0.038388594	144.0360484	97.31307943	244.6531168	517.4150508	523.995737	444.6711654	366.8938063	470.1894884	294.4084966	172.8676112	186.0493634	595.7953385	221.646745	350.8987699	503.9348167	720.5160915	NA	XP_006433295.1	75.3	388	55	4	2	353	3	385	3e-160	74.4	XP_006433295.1 amidase 1 isoform X1 [Citrus clementina]	citrus clementina	citrus clementina;citrus;aurantioideae;rutaceae;sapindales;malvids;rosids;pentapetalae;gunneridae;eudicotyledons;mesangiospermae;magnoliophyta;spermatophyta;euphyllophyta;tracheophyta;embryophyta;streptophytina;streptophyta;viridiplantae;eukaryota;cellular organisms;root	/home/CAM/smcevoy/acsa/analysis/annotation/entap//similarity_search/DIAMOND/blastp_acsa_structural_annotation_final_complete.out	No	Yes				NA			29760.VIT_14s0128g00320.t01	1.3e-152	545	AMI1	Viridiplantae	virNOG[6]	1BJ6H@strNOG,1DX3T@virNOG,COG0154@NOG,KOG1211@euNOG		GO:0006082-organic acid metabolic process(L=3),GO:0006725-cellular aromatic compound metabolic process(L=3),GO:0006807-nitrogen compound metabolic process(L=2),GO:0008150-biological_process(L=0),GO:0008152-metabolic process(L=1),GO:0009058-biosynthetic process(L=2),GO:0009683-indoleacetic acid metabolic process(L=4),GO:0009684-indoleacetic acid biosynthetic process(L=5),GO:0009850-auxin metabolic process(L=3),GO:0009851-auxin biosynthetic process(L=4),GO:0009987-cellular process(L=1),GO:0010817-regulation of hormone levels(L=3),GO:0016053-organic acid biosynthetic process(L=4),GO:0018130-heterocycle biosynthetic process(L=4),GO:0019438-aromatic compound biosynthetic process(L=4),GO:0019752-carboxylic acid metabolic process(L=5),GO:0032787-monocarboxylic acid metabolic process(L=6),GO:0034641-cellular nitrogen compound metabolic process(L=3),GO:0034754-cellular hormone metabolic process(L=3),GO:0042430-indole-containing compound metabolic process(L=4),GO:0042435-indole-containing compound biosynthetic process(L=5),GO:0042445-hormone metabolic process(L=2),GO:0042446-hormone biosynthetic process(L=3),GO:0043436-oxoacid metabolic process(L=4),GO:0044237-cellular metabolic process(L=2),GO:0044249-cellular biosynthetic process(L=3),GO:0044271-cellular nitrogen compound biosynthetic process(L=4),GO:0044281-small molecule metabolic process(L=3),GO:0044283-small molecule biosynthetic process(L=4),GO:0044710-single-organism metabolic process(L=2),GO:0044711-single-organism biosynthetic process(L=3),GO:0046394-carboxylic acid biosynthetic process(L=5),GO:0046483-heterocycle metabolic process(L=3),GO:0065007-biological regulation(L=1),GO:0065008-regulation of biological quality(L=2),GO:0071704-organic substance metabolic process(L=2),GO:0072330-monocarboxylic acid biosynthetic process(L=6),GO:1901360-organic cyclic compound metabolic process(L=3),GO:1901362-organic cyclic compound biosynthetic process(L=4),GO:1901564-organonitrogen compound metabolic process(L=3),GO:1901566-organonitrogen compound biosynthetic process(L=4),GO:1901576-organic substance biosynthetic process(L=3),	GO:0005575-cellular_component(L=0),GO:0005622-intracellular(L=3),GO:0005623-cell(L=1),GO:0005737-cytoplasm(L=4),GO:0005829-cytosol(L=4),GO:0044424-intracellular part(L=3),GO:0044444-cytoplasmic part(L=4),GO:0044464-cell part(L=2),	GO:0003674-molecular_function(L=0),GO:0003824-catalytic activity(L=1),GO:0004040-amidase activity(L=5),GO:0016787-hydrolase activity(L=2),GO:0016810-hydrolase activity, acting on carbon-nitrogen (but not peptide) bonds(L=3),GO:0016811-hydrolase activity, acting on carbon-nitrogen (but not peptide) bonds, in linear amides(L=4),GO:0016874-ligase activity(L=2),GO:0016879-ligase activity, forming carbon-nitrogen bonds(L=3),GO:0016884-carbon-nitrogen ligase activity, with glutamine as amido-N-donor(L=4),GO:0043864-indoleacetamide hydrolase activity(L=5),	NA	Amidase 1-like
g25138	8	102.6529298	-2.144524319	0.440877827	-4.864214497	1.15e-06	0.002992028	56.74147361	21.62512876	44.70818378	172.7747973	164.3908194	145.8709643	59.17642037	81.10255368	119.7045536	48.19339464	16.84067513	163.3416434	180.6485032	36.73320456	178.2903471	152.3042145	NA	XP_006485759.1	85.1	1141	135	8	1	1113	84	1217	0	99.9	XP_006485759.1 regulator of nonsense transcripts UPF2 isoform X1 [Citrus sinensis]	citrus sinensis	citrus sinensis;citrus;aurantioideae;rutaceae;sapindales;malvids;rosids;pentapetalae;gunneridae;eudicotyledons;mesangiospermae;magnoliophyta;spermatophyta;euphyllophyta;tracheophyta;embryophyta;streptophytina;streptophyta;viridiplantae;eukaryota;cellular organisms;root	/home/CAM/smcevoy/acsa/analysis/annotation/entap//similarity_search/DIAMOND/blastp_acsa_structural_annotation_final_complete.out	No	Yes				NA			3694.POPTR_0010s22310.1	0	1617.1		Viridiplantae	virNOG[6]	0XQ1E@NOG,1BFNF@strNOG,1DTKE@virNOG,KOG2051@euNOG	3013,3015	GO:0000184-nuclear-transcribed mRNA catabolic process, nonsense-mediated decay(L=8),GO:0000956-nuclear-transcribed mRNA catabolic process(L=7),GO:0006139-nucleobase-containing compound metabolic process(L=3),GO:0006401-RNA catabolic process(L=5),GO:0006402-mRNA catabolic process(L=6),GO:0006725-cellular aromatic compound metabolic process(L=3),GO:0006807-nitrogen compound metabolic process(L=2),GO:0006950-response to stress(L=2),GO:0006952-defense response(L=3),GO:0007154-cell communication(L=2),GO:0007165-signal transduction(L=3),GO:0008150-biological_process(L=0),GO:0008152-metabolic process(L=1),GO:0009056-catabolic process(L=2),GO:0009057-macromolecule catabolic process(L=4),GO:0009314-response to radiation(L=3),GO:0009416-response to light stimulus(L=4),GO:0009607-response to biotic stimulus(L=2),GO:0009611-response to wounding(L=3),GO:0009617-response to bacterium(L=5),GO:0009628-response to abiotic stimulus(L=2),GO:0009648-photoperiodism(L=5),GO:0009719-response to endogenous stimulus(L=2),GO:0009725-response to hormone(L=3),GO:0009751-response to salicylic acid(L=4),GO:0009753-response to jasmonic acid(L=4),GO:0009755-hormone-mediated signaling pathway(L=5),GO:0009863-salicylic acid mediated signaling pathway(L=6),GO:0009867-jasmonic acid mediated signaling pathway(L=6),GO:0009987-cellular process(L=1),GO:0010033-response to organic substance(L=3),GO:0014070-response to organic cyclic compound(L=4),GO:0016070-RNA metabolic process(L=4),GO:0016071-mRNA metabolic process(L=5),GO:0019439-aromatic compound catabolic process(L=4),GO:0023052-signaling(L=1),GO:0032870-cellular response to hormone stimulus(L=4),GO:0034641-cellular nitrogen compound metabolic process(L=3),GO:0034655-nucleobase-containing compound catabolic process(L=4),GO:0042221-response to chemical(L=2),GO:0042742-defense response to bacterium(L=5),GO:0043170-macromolecule metabolic process(L=3),GO:0044237-cellular metabolic process(L=2),GO:0044238-primary metabolic process(L=2),GO:0044248-cellular catabolic process(L=3),GO:0044260-cellular macromolecule metabolic process(L=3),GO:0044265-cellular macromolecule catabolic process(L=4),GO:0044270-cellular nitrogen compound catabolic process(L=4),GO:0044699-single-organism process(L=1),GO:0044700-single organism signaling(L=2),GO:0044763-single-organism cellular process(L=2),GO:0046483-heterocycle metabolic process(L=3),GO:0046700-heterocycle catabolic process(L=4),GO:0048571-long-day photoperiodism(L=6),GO:0050789-regulation of biological process(L=2),GO:0050794-regulation of cellular process(L=3),GO:0050896-response to stimulus(L=1),GO:0051704-multi-organism process(L=1),GO:0051707-response to other organism(L=4),GO:0051716-cellular response to stimulus(L=2),GO:0065007-biological regulation(L=1),GO:0070887-cellular response to chemical stimulus(L=3),GO:0071310-cellular response to organic substance(L=4),GO:0071395-cellular response to jasmonic acid stimulus(L=5),GO:0071407-cellular response to organic cyclic compound(L=5),GO:0071446-cellular response to salicylic acid stimulus(L=5),GO:0071495-cellular response to endogenous stimulus(L=3),GO:0071704-organic substance metabolic process(L=2),GO:0090304-nucleic acid metabolic process(L=4),GO:1901360-organic cyclic compound metabolic process(L=3),GO:1901361-organic cyclic compound catabolic process(L=4),GO:1901575-organic substance catabolic process(L=3),GO:1901700-response to oxygen-containing compound(L=3),GO:1901701-cellular response to oxygen-containing compound(L=4),	GO:0005575-cellular_component(L=0),GO:0005622-intracellular(L=3),GO:0005623-cell(L=1),GO:0005634-nucleus(L=5),GO:0005730-nucleolus(L=5),GO:0005737-cytoplasm(L=4),GO:0031974-membrane-enclosed lumen(L=1),GO:0031981-nuclear lumen(L=6),GO:0043226-organelle(L=1),GO:0043227-membrane-bounded organelle(L=2),GO:0043228-non-membrane-bounded organelle(L=2),GO:0043229-intracellular organelle(L=3),GO:0043231-intracellular membrane-bounded organelle(L=4),GO:0043232-intracellular non-membrane-bounded organelle(L=3),GO:0043233-organelle lumen(L=2),GO:0044422-organelle part(L=2),GO:0044424-intracellular part(L=3),GO:0044428-nuclear part(L=5),GO:0044444-cytoplasmic part(L=4),GO:0044446-intracellular organelle part(L=3),GO:0044464-cell part(L=2),GO:0048471-perinuclear region of cytoplasm(L=5),GO:0070013-intracellular organelle lumen(L=3),	GO:0003674-molecular_function(L=0),GO:0003676-nucleic acid binding(L=3),GO:0003677-DNA binding(L=4),GO:0003723-RNA binding(L=4),GO:0005488-binding(L=1),GO:0097159-organic cyclic compound binding(L=2),GO:1901363-heterocyclic compound binding(L=2),	NA	Regulator of nonsense transcripts
g26018	2	14.12244227	-22.02212723	3.476345055	-6.334850793	2.38e-10	2.47e-06	0	0	0	0	134.5015795	0	18.20812934	16.42583366	0	0	0	0	0	19.33326556	0	37.49026818	NA	XP_024044596.1	78.4	951	199	2	19	963	74	1024	0	96.1	XP_024044596.1 LOW QUALITY PROTEIN: putative calcium-transporting ATPase 13, plasma membrane-type [Citrus clementina]	citrus clementina	citrus clementina;citrus;aurantioideae;rutaceae;sapindales;malvids;rosids;pentapetalae;gunneridae;eudicotyledons;mesangiospermae;magnoliophyta;spermatophyta;euphyllophyta;tracheophyta;embryophyta;streptophytina;streptophyta;viridiplantae;eukaryota;cellular organisms;root	/home/CAM/smcevoy/acsa/analysis/annotation/entap//similarity_search/DIAMOND/blastp_acsa_structural_annotation_final_complete.out	No	No				NA			29760.VIT_05s0020g04300.t01	0	1420.2		Viridiplantae	virNOG[6]	0XNNC@NOG,1BGTK@strNOG,1DUQ7@virNOG,KOG0204@euNOG		GO:0006139-nucleobase-containing compound metabolic process(L=3),GO:0006152-purine nucleoside catabolic process(L=7),GO:0006163-purine nucleotide metabolic process(L=5),GO:0006164-purine nucleotide biosynthetic process(L=7),GO:0006195-purine nucleotide catabolic process(L=7),GO:0006200-obsolete ATP catabolic process(L=),GO:0006355-regulation of transcription, DNA-templated(L=7),GO:0006725-cellular aromatic compound metabolic process(L=3),GO:0006753-nucleoside phosphate metabolic process(L=4),GO:0006754-ATP biosynthetic process(L=8),GO:0006793-phosphorus metabolic process(L=3),GO:0006796-phosphate-containing compound metabolic process(L=4),GO:0006807-nitrogen compound metabolic process(L=2),GO:0006810-transport(L=3),GO:0006811-ion transport(L=4),GO:0006812-cation transport(L=5),GO:0006816-calcium ion transport(L=8),GO:0008150-biological_process(L=0),GO:0008152-metabolic process(L=1),GO:0009056-catabolic process(L=2),GO:0009058-biosynthetic process(L=2),GO:0009116-nucleoside metabolic process(L=4),GO:0009117-nucleotide metabolic process(L=5),GO:0009119-ribonucleoside metabolic process(L=5),GO:0009123-nucleoside monophosphate metabolic process(L=5),GO:0009124-nucleoside monophosphate biosynthetic process(L=5),GO:0009125-nucleoside monophosphate catabolic process(L=5),GO:0009126-purine nucleoside monophosphate metabolic process(L=7),GO:0009127-purine nucleoside monophosphate biosynthetic process(L=7),GO:0009128-purine nucleoside monophosphate catabolic process(L=7),GO:0009141-nucleoside triphosphate metabolic process(L=5),GO:0009142-nucleoside triphosphate biosynthetic process(L=5),GO:0009143-nucleoside triphosphate catabolic process(L=5),GO:0009144-purine nucleoside triphosphate metabolic process(L=7),GO:0009145-purine nucleoside triphosphate biosynthetic process(L=7),GO:0009146-purine nucleoside triphosphate catabolic process(L=7),GO:0009150-purine ribonucleotide metabolic process(L=6),GO:0009152-purine ribonucleotide biosynthetic process(L=7),GO:0009154-purine ribonucleotide catabolic process(L=7),GO:0009156-ribonucleoside monophosphate biosynthetic process(L=7),GO:0009158-ribonucleoside monophosphate catabolic process(L=7),GO:0009161-ribonucleoside monophosphate metabolic process(L=7),GO:0009163-nucleoside biosynthetic process(L=5),GO:0009164-nucleoside catabolic process(L=5),GO:0009165-nucleotide biosynthetic process(L=5),GO:0009166-nucleotide catabolic process(L=5),GO:0009167-purine ribonucleoside monophosphate metabolic process(L=7),GO:0009168-purine ribonucleoside monophosphate biosynthetic process(L=8),GO:0009169-purine ribonucleoside monophosphate catabolic process(L=8),GO:0009199-ribonucleoside triphosphate metabolic process(L=7),GO:0009201-ribonucleoside triphosphate biosynthetic process(L=7),GO:0009203-ribonucleoside triphosphate catabolic process(L=7),GO:0009205-purine ribonucleoside triphosphate metabolic process(L=7),GO:0009206-purine ribonucleoside triphosphate biosynthetic process(L=8),GO:0009207-purine ribonucleoside triphosphate catabolic process(L=8),GO:0009259-ribonucleotide metabolic process(L=5),GO:0009260-ribonucleotide biosynthetic process(L=7),GO:0009261-ribonucleotide catabolic process(L=5),GO:0009889-regulation of biosynthetic process(L=4),GO:0009987-cellular process(L=1),GO:0010468-regulation of gene expression(L=5),GO:0010556-regulation of macromolecule biosynthetic process(L=5),GO:0018130-heterocycle biosynthetic process(L=4),GO:0019219-regulation of nucleobase-containing compound metabolic process(L=5),GO:0019222-regulation of metabolic process(L=3),GO:0019438-aromatic compound biosynthetic process(L=4),GO:0019439-aromatic compound catabolic process(L=4),GO:0019637-organophosphate metabolic process(L=3),GO:0019693-ribose phosphate metabolic process(L=4),GO:0030001-metal ion transport(L=6),GO:0031323-regulation of cellular metabolic process(L=4),GO:0031326-regulation of cellular biosynthetic process(L=5),GO:0034220-ion transmembrane transport(L=5),GO:0034641-cellular nitrogen compound metabolic process(L=3),GO:0034654-nucleobase-containing compound biosynthetic process(L=4),GO:0034655-nucleobase-containing compound catabolic process(L=4),GO:0042278-purine nucleoside metabolic process(L=5),GO:0042451-purine nucleoside biosynthetic process(L=7),GO:0042454-ribonucleoside catabolic process(L=7),GO:0042455-ribonucleoside biosynthetic process(L=7),GO:0044237-cellular metabolic process(L=2),GO:0044238-primary metabolic process(L=2),GO:0044248-cellular catabolic process(L=3),GO:0044249-cellular biosynthetic process(L=3),GO:0044270-cellular nitrogen compound catabolic process(L=4),GO:0044271-cellular nitrogen compound biosynthetic process(L=4),GO:0044281-small molecule metabolic process(L=3),GO:0044699-single-organism process(L=1),GO:0044710-single-organism metabolic process(L=2),GO:0044763-single-organism cellular process(L=2),GO:0044765-single-organism transport(L=3),GO:0046034-ATP metabolic process(L=7),GO:0046128-purine ribonucleoside metabolic process(L=7),GO:0046129-purine ribonucleoside biosynthetic process(L=7),GO:0046130-purine ribonucleoside catabolic process(L=7),GO:0046390-ribose phosphate biosynthetic process(L=5),GO:0046434-organophosphate catabolic process(L=4),GO:0046483-heterocycle metabolic process(L=3),GO:0046700-heterocycle catabolic process(L=4),GO:0050789-regulation of biological process(L=2),GO:0050794-regulation of cellular process(L=3),GO:0051171-regulation of nitrogen compound metabolic process(L=4),GO:0051179-localization(L=1),GO:0051234-establishment of localization(L=2),GO:0051252-regulation of RNA metabolic process(L=5),GO:0055085-transmembrane transport(L=4),GO:0055086-nucleobase-containing small molecule metabolic process(L=3),GO:0060255-regulation of macromolecule metabolic process(L=4),GO:0065007-biological regulation(L=1),GO:0070588-calcium ion transmembrane transport(L=8),GO:0070838-divalent metal ion transport(L=7),GO:0071704-organic substance metabolic process(L=2),GO:0072511-divalent inorganic cation transport(L=6),GO:0072521-purine-containing compound metabolic process(L=4),GO:0072522-purine-containing compound biosynthetic process(L=5),GO:0072523-purine-containing compound catabolic process(L=5),GO:0080090-regulation of primary metabolic process(L=4),GO:0090407-organophosphate biosynthetic process(L=4),GO:1901135-carbohydrate derivative metabolic process(L=3),GO:1901136-carbohydrate derivative catabolic process(L=4),GO:1901137-carbohydrate derivative biosynthetic process(L=4),GO:1901292-nucleoside phosphate catabolic process(L=4),GO:1901293-nucleoside phosphate biosynthetic process(L=4),GO:1901360-organic cyclic compound metabolic process(L=3),GO:1901361-organic cyclic compound catabolic process(L=4),GO:1901362-organic cyclic compound biosynthetic process(L=4),GO:1901564-organonitrogen compound metabolic process(L=3),GO:1901565-organonitrogen compound catabolic process(L=4),GO:1901566-organonitrogen compound biosynthetic process(L=4),GO:1901575-organic substance catabolic process(L=3),GO:1901576-organic substance biosynthetic process(L=3),GO:1901657-glycosyl compound metabolic process(L=3),GO:1901658-glycosyl compound catabolic process(L=4),GO:1901659-glycosyl compound biosynthetic process(L=4),GO:2000112-regulation of cellular macromolecule biosynthetic process(L=6),GO:2001141-regulation of RNA biosynthetic process(L=6),	GO:0005575-cellular_component(L=0),GO:0016020-membrane(L=1),GO:0016021-integral component of membrane(L=4),GO:0031224-intrinsic component of membrane(L=3),GO:0044425-membrane part(L=2),	GO:0000166-nucleotide binding(L=3),GO:0001071-nucleic acid binding transcription factor activity(L=1),GO:0001882-nucleoside binding(L=3),GO:0001883-purine nucleoside binding(L=4),GO:0003674-molecular_function(L=0),GO:0003676-nucleic acid binding(L=3),GO:0003677-DNA binding(L=4),GO:0003700-transcription factor activity, sequence-specific DNA binding(L=2),GO:0003824-catalytic activity(L=1),GO:0005215-transporter activity(L=1),GO:0005388-calcium-transporting ATPase activity(L=7),GO:0005488-binding(L=1),GO:0005524-ATP binding(L=7),GO:0008324-cation transmembrane transporter activity(L=5),GO:0015075-ion transmembrane transporter activity(L=4),GO:0015085-calcium ion transmembrane transporter activity(L=8),GO:0015399-primary active transmembrane transporter activity(L=4),GO:0015405-P-P-bond-hydrolysis-driven transmembrane transporter activity(L=5),GO:0015662-ATPase activity, coupled to transmembrane movement of ions, phosphorylative mechanism(L=6),GO:0016462-pyrophosphatase activity(L=5),GO:0016787-hydrolase activity(L=2),GO:0016817-hydrolase activity, acting on acid anhydrides(L=3),GO:0016818-hydrolase activity, acting on acid anhydrides, in phosphorus-containing anhydrides(L=4),GO:0016820-hydrolase activity, acting on acid anhydrides, catalyzing transmembrane movement of substances(L=4),GO:0016887-ATPase activity(L=7),GO:0017076-purine nucleotide binding(L=4),GO:0017111-nucleoside-triphosphatase activity(L=6),GO:0019829-cation-transporting ATPase activity(L=6),GO:0022804-active transmembrane transporter activity(L=3),GO:0022857-transmembrane transporter activity(L=2),GO:0022890-inorganic cation transmembrane transporter activity(L=6),GO:0022891-substrate-specific transmembrane transporter activity(L=3),GO:0022892-substrate-specific transporter activity(L=2),GO:0030554-adenyl nucleotide binding(L=5),GO:0032549-ribonucleoside binding(L=4),GO:0032550-purine ribonucleoside binding(L=5),GO:0032553-ribonucleotide binding(L=3),GO:0032555-purine ribonucleotide binding(L=4),GO:0032559-adenyl ribonucleotide binding(L=6),GO:0035639-purine ribonucleoside triphosphate binding(L=4),GO:0036094-small molecule binding(L=2),GO:0042623-ATPase activity, coupled(L=8),GO:0042625-ATPase coupled ion transmembrane transporter activity(L=5),GO:0042626-ATPase activity, coupled to transmembrane movement of substances(L=5),GO:0043167-ion binding(L=2),GO:0043168-anion binding(L=3),GO:0043169-cation binding(L=3),GO:0043492-ATPase activity, coupled to movement of substances(L=9),GO:0043565-sequence-specific DNA binding(L=5),GO:0046872-metal ion binding(L=4),GO:0046873-metal ion transmembrane transporter activity(L=7),GO:0072509-divalent inorganic cation transmembrane transporter activity(L=7),GO:0097159-organic cyclic compound binding(L=2),GO:1901265-nucleoside phosphate binding(L=3),GO:1901363-heterocyclic compound binding(L=2),	NA	This magnesium-dependent enzyme catalyzes the hydrolysis of ATP coupled with the transport of calcium
g30657	15	12.58139617	-7.623910407	1.920235377	-3.970299943	7.18e-05	0.099681559	0	0	0	2.728023115	140.105812	3.529136233	0	0	9.705774613	0	0	29.45505044	6.405975289	0	0	9.372567044	NA		NA	NA	NA	NA	NA	NA	NA	NA	NA	NA										NA			29760.VIT_16s0050g02610.t01	2.2e-25	121.7		Viridiplantae	virNOG[6]	1BF7V@strNOG,1DT66@virNOG,COG5260@NOG,KOG1906@euNOG		GO:0006139-nucleobase-containing compound metabolic process(L=3),GO:0006396-RNA processing(L=5),GO:0006725-cellular aromatic compound metabolic process(L=3),GO:0006807-nitrogen compound metabolic process(L=2),GO:0008150-biological_process(L=0),GO:0008152-metabolic process(L=1),GO:0009987-cellular process(L=1),GO:0010467-gene expression(L=4),GO:0016070-RNA metabolic process(L=4),GO:0031123-RNA 3'-end processing(L=7),GO:0034641-cellular nitrogen compound metabolic process(L=3),GO:0043170-macromolecule metabolic process(L=3),GO:0043631-RNA polyadenylation(L=5),GO:0044237-cellular metabolic process(L=2),GO:0044238-primary metabolic process(L=2),GO:0044260-cellular macromolecule metabolic process(L=3),GO:0046483-heterocycle metabolic process(L=3),GO:0071704-organic substance metabolic process(L=2),GO:0090304-nucleic acid metabolic process(L=4),GO:1901360-organic cyclic compound metabolic process(L=3),		GO:0003674-molecular_function(L=0),GO:0003824-catalytic activity(L=1),GO:0004652-polynucleotide adenylyltransferase activity(L=6),GO:0016740-transferase activity(L=2),GO:0016772-transferase activity, transferring phosphorus-containing groups(L=3),GO:0016779-nucleotidyltransferase activity(L=4),GO:0070566-adenylyltransferase activity(L=5),	NA	RNA uridylyltransferase activity
g35802.2	3	34.25271731	-23.33745755	3.762779499	-6.202185794	5.57e-10	3.87e-06	0	0	0	0	167.1929357	0	132.9193442	0	0	0	0	0	190.8980636	57.0331334	0	0	NA		NA	NA	NA	NA	NA	NA	NA	NA	NA	NA										NA			29760.VIT_11s0016g05230.t01	6.8e-154	550.1	OSI_23614	Viridiplantae	virNOG[6]	1BHJA@strNOG,1DVF8@virNOG,COG2130@NOG,KOG1196@euNOG		GO:0008150-biological_process(L=0),GO:0008152-metabolic process(L=1),GO:0044710-single-organism metabolic process(L=2),GO:0055114-oxidation-reduction process(L=3),		GO:0003674-molecular_function(L=0),GO:0003824-catalytic activity(L=1),GO:0005488-binding(L=1),GO:0008270-zinc ion binding(L=6),GO:0016491-oxidoreductase activity(L=2),GO:0043167-ion binding(L=2),GO:0043169-cation binding(L=3),GO:0046872-metal ion binding(L=4),GO:0046914-transition metal ion binding(L=5),	NA	2-alkenal reductase (NADP( )-dependent)-like
g39172	10	118.6128478	1.557277305	0.351977746	4.424362966	9.67e-06	0.020148292	174.5891496	146.8706662	113.0123534	71.83794202	57.9104023	61.17169471	99.23430493	101.6348457	97.05774613	296.4941453	178.0299943	60.24896682	57.6537776	83.13304191	71.64178331	227.2847508	NA	XP_021297010.1	71.6	218	52	2	1	208	1	218	2.1e-35	84.6	XP_021297010.1 zinc finger protein CONSTANS-LIKE 4-like [Herrania umbratica]	herrania umbratica	herrania umbratica;herrania;byttnerioideae;malvaceae;malvales;malvids;rosids;pentapetalae;gunneridae;eudicotyledons;mesangiospermae;magnoliophyta;spermatophyta;euphyllophyta;tracheophyta;embryophyta;streptophytina;streptophyta;viridiplantae;eukaryota;cellular organisms;root	/home/CAM/smcevoy/acsa/analysis/annotation/entap//similarity_search/DIAMOND/blastp_acsa_structural_annotation_final_complete.out	No	Yes				NA			29760.VIT_12s0134g00400.t01	3.7e-31	140.6		Viridiplantae	virNOG[6]	0J0D3@euNOG,0YSB4@NOG,1BTY1@strNOG,1E5UJ@virNOG		GO:0006355-regulation of transcription, DNA-templated(L=7),GO:0008150-biological_process(L=0),GO:0009889-regulation of biosynthetic process(L=4),GO:0010468-regulation of gene expression(L=5),GO:0010556-regulation of macromolecule biosynthetic process(L=5),GO:0019219-regulation of nucleobase-containing compound metabolic process(L=5),GO:0019222-regulation of metabolic process(L=3),GO:0031323-regulation of cellular metabolic process(L=4),GO:0031326-regulation of cellular biosynthetic process(L=5),GO:0050789-regulation of biological process(L=2),GO:0050794-regulation of cellular process(L=3),GO:0051171-regulation of nitrogen compound metabolic process(L=4),GO:0051252-regulation of RNA metabolic process(L=5),GO:0060255-regulation of macromolecule metabolic process(L=4),GO:0065007-biological regulation(L=1),GO:0080090-regulation of primary metabolic process(L=4),GO:2000112-regulation of cellular macromolecule biosynthetic process(L=6),GO:2001141-regulation of RNA biosynthetic process(L=6),	GO:0005575-cellular_component(L=0),GO:0005622-intracellular(L=3),GO:0005623-cell(L=1),GO:0044464-cell part(L=2),	GO:0001071-nucleic acid binding transcription factor activity(L=1),GO:0003674-molecular_function(L=0),GO:0003700-transcription factor activity, sequence-specific DNA binding(L=2),GO:0005488-binding(L=1),GO:0008270-zinc ion binding(L=6),GO:0043167-ion binding(L=2),GO:0043169-cation binding(L=3),GO:0046872-metal ion binding(L=4),GO:0046914-transition metal ion binding(L=5),	NA	Zinc finger protein
g40050	4	467.5238549	5.672047711	0.975950177	5.811820978	6.18e-09	3.22e-05	4323.263816	20.72408173	1431.903775	10.00275142	8.406348721	3.529136233	11.83528407	20.53229207	12.94103282	359.3550948	939.8700599	71.62932722	44.84182702	120.8329098	37.44911401	63.26482755	NA	XP_024044442.1	79.9	373	66	1	1	373	1	364	3.6e-148	99.7	XP_024044442.1 E2F transcription factor-like E2FE [Citrus clementina]	citrus clementina	citrus clementina;citrus;aurantioideae;rutaceae;sapindales;malvids;rosids;pentapetalae;gunneridae;eudicotyledons;mesangiospermae;magnoliophyta;spermatophyta;euphyllophyta;tracheophyta;embryophyta;streptophytina;streptophyta;viridiplantae;eukaryota;cellular organisms;root	/home/CAM/smcevoy/acsa/analysis/annotation/entap//similarity_search/DIAMOND/blastp_acsa_structural_annotation_final_complete.out	No	Yes				NA			3694.POPTR_0012s07700.1	1.1e-111	408.7	DEL1	Viridiplantae	virNOG[6]	11IGY@NOG,1BBS6@strNOG,1DPQX@virNOG,KOG2578@euNOG		GO:0006139-nucleobase-containing compound metabolic process(L=3),GO:0006259-DNA metabolic process(L=4),GO:0006260-DNA replication(L=5),GO:0006261-DNA-dependent DNA replication(L=7),GO:0006275-regulation of DNA replication(L=7),GO:0006351-transcription, DNA-templated(L=5),GO:0006355-regulation of transcription, DNA-templated(L=7),GO:0006725-cellular aromatic compound metabolic process(L=3),GO:0006807-nitrogen compound metabolic process(L=2),GO:0007049-cell cycle(L=3),GO:0008150-biological_process(L=0),GO:0008152-metabolic process(L=1),GO:0008156-negative regulation of DNA replication(L=8),GO:0009058-biosynthetic process(L=2),GO:0009059-macromolecule biosynthetic process(L=4),GO:0009889-regulation of biosynthetic process(L=4),GO:0009890-negative regulation of biosynthetic process(L=5),GO:0009892-negative regulation of metabolic process(L=4),GO:0009987-cellular process(L=1),GO:0010467-gene expression(L=4),GO:0010468-regulation of gene expression(L=5),GO:0010556-regulation of macromolecule biosynthetic process(L=5),GO:0010558-negative regulation of macromolecule biosynthetic process(L=6),GO:0010564-regulation of cell cycle process(L=5),GO:0010605-negative regulation of macromolecule metabolic process(L=5),GO:0010948-negative regulation of cell cycle process(L=6),GO:0016070-RNA metabolic process(L=4),GO:0018130-heterocycle biosynthetic process(L=4),GO:0019219-regulation of nucleobase-containing compound metabolic process(L=5),GO:0019222-regulation of metabolic process(L=3),GO:0019438-aromatic compound biosynthetic process(L=4),GO:0022402-cell cycle process(L=4),GO:0031323-regulation of cellular metabolic process(L=4),GO:0031324-negative regulation of cellular metabolic process(L=5),GO:0031326-regulation of cellular biosynthetic process(L=5),GO:0031327-negative regulation of cellular biosynthetic process(L=6),GO:0032774-RNA biosynthetic process(L=5),GO:0032875-regulation of DNA endoreduplication(L=6),GO:0032876-negative regulation of DNA endoreduplication(L=7),GO:0034641-cellular nitrogen compound metabolic process(L=3),GO:0034645-cellular macromolecule biosynthetic process(L=4),GO:0034654-nucleobase-containing compound biosynthetic process(L=4),GO:0042023-DNA endoreduplication(L=6),GO:0043170-macromolecule metabolic process(L=3),GO:0044237-cellular metabolic process(L=2),GO:0044238-primary metabolic process(L=2),GO:0044249-cellular biosynthetic process(L=3),GO:0044260-cellular macromolecule metabolic process(L=3),GO:0044271-cellular nitrogen compound biosynthetic process(L=4),GO:0044699-single-organism process(L=1),GO:0044763-single-organism cellular process(L=2),GO:0044786-cell cycle DNA replication(L=4),GO:0045934-negative regulation of nucleobase-containing compound metabolic process(L=6),GO:0046483-heterocycle metabolic process(L=3),GO:0048519-negative regulation of biological process(L=3),GO:0048523-negative regulation of cellular process(L=4),GO:0050789-regulation of biological process(L=2),GO:0050794-regulation of cellular process(L=3),GO:0051052-regulation of DNA metabolic process(L=5),GO:0051053-negative regulation of DNA metabolic process(L=6),GO:0051171-regulation of nitrogen compound metabolic process(L=4),GO:0051172-negative regulation of nitrogen compound metabolic process(L=5),GO:0051252-regulation of RNA metabolic process(L=5),GO:0051726-regulation of cell cycle(L=4),GO:0060255-regulation of macromolecule metabolic process(L=4),GO:0065007-biological regulation(L=1),GO:0071704-organic substance metabolic process(L=2),GO:0080090-regulation of primary metabolic process(L=4),GO:0090304-nucleic acid metabolic process(L=4),GO:0090329-regulation of DNA-dependent DNA replication(L=8),GO:1901360-organic cyclic compound metabolic process(L=3),GO:1901362-organic cyclic compound biosynthetic process(L=4),GO:1901576-organic substance biosynthetic process(L=3),GO:2000104-negative regulation of DNA-dependent DNA replication(L=8),GO:2000112-regulation of cellular macromolecule biosynthetic process(L=6),GO:2000113-negative regulation of cellular macromolecule biosynthetic process(L=7),GO:2001141-regulation of RNA biosynthetic process(L=6),	GO:0005575-cellular_component(L=0),GO:0005622-intracellular(L=3),GO:0005623-cell(L=1),GO:0005634-nucleus(L=5),GO:0005654-nucleoplasm(L=5),GO:0005667-transcription factor complex(L=4),GO:0031974-membrane-enclosed lumen(L=1),GO:0031981-nuclear lumen(L=6),GO:0032991-macromolecular complex(L=1),GO:0043226-organelle(L=1),GO:0043227-membrane-bounded organelle(L=2),GO:0043229-intracellular organelle(L=3),GO:0043231-intracellular membrane-bounded organelle(L=4),GO:0043233-organelle lumen(L=2),GO:0043234-protein complex(L=2),GO:0044422-organelle part(L=2),GO:0044424-intracellular part(L=3),GO:0044428-nuclear part(L=5),GO:0044446-intracellular organelle part(L=3),GO:0044451-nucleoplasm part(L=5),GO:0044464-cell part(L=2),GO:0070013-intracellular organelle lumen(L=3),	GO:0001071-nucleic acid binding transcription factor activity(L=1),GO:0003674-molecular_function(L=0),GO:0003676-nucleic acid binding(L=3),GO:0003677-DNA binding(L=4),GO:0003700-transcription factor activity, sequence-specific DNA binding(L=2),GO:0005488-binding(L=1),GO:0097159-organic cyclic compound binding(L=2),GO:1901363-heterocyclic compound binding(L=2),	NA	E2F transcription factor-like E2FE
g46308	6	36.66892243	-8.681019988	1.684837846	-5.152436484	2.57e-07	0.000892648	1.091182185	0	0	0.909341038	209.2246793	129.4016619	7.283251738	0	0	0	0	226.2683421	0	3.866653112	1.628222348	7.029425283	NA	XP_006495327.2	29.8	527	209	11	1	379	167	680	4.8e-44	78.3	XP_006495327.2 disease resistance-like protein DSC1 [Citrus sinensis]	citrus sinensis	citrus sinensis;citrus;aurantioideae;rutaceae;sapindales;malvids;rosids;pentapetalae;gunneridae;eudicotyledons;mesangiospermae;magnoliophyta;spermatophyta;euphyllophyta;tracheophyta;embryophyta;streptophytina;streptophyta;viridiplantae;eukaryota;cellular organisms;root	/home/CAM/smcevoy/acsa/analysis/annotation/entap//similarity_search/DIAMOND/blastp_acsa_structural_annotation_final_complete.out	No	Yes				NA			3702.AT5G45200.1	1.3e-35	156.4		Ancestor	NOG[107]	COG4886@NOG					NA	RESISTANCE protein
g49708	14	940.5319806	-1.895007358	0.467207767	-4.056027089	4.99e-05	0.074265605	708.177238	324.3769314	555.1266153	1802.313938	2721.788908	1813.976024	516.2004669	531.7863646	1212.143407	180.2013887	617.4914216	636.6307494	1897.449881	406.96524	797.0148394	326.8682757	NA	XP_006445325.1	74.8	1566	379	6	1	1555	1	1561	0	99.1	XP_006445325.1 uncharacterized protein LOC18047816 isoform X1 [Citrus clementina]	citrus clementina	citrus clementina;citrus;aurantioideae;rutaceae;sapindales;malvids;rosids;pentapetalae;gunneridae;eudicotyledons;mesangiospermae;magnoliophyta;spermatophyta;euphyllophyta;tracheophyta;embryophyta;streptophytina;streptophyta;viridiplantae;eukaryota;cellular organisms;root	/home/CAM/smcevoy/acsa/analysis/annotation/entap//similarity_search/DIAMOND/blastp_acsa_structural_annotation_final_complete.out	No	No				NA			3694.POPTR_0014s06140.1	0	1771.9		Viridiplantae	virNOG[6]	1BC25@strNOG,1DQ0K@virNOG,COG5260@NOG,KOG1906@euNOG		GO:0000003-reproduction(L=1),GO:0003006-developmental process involved in reproduction(L=2),GO:0007275-multicellular organism development(L=3),GO:0008150-biological_process(L=0),GO:0008152-metabolic process(L=1),GO:0009790-embryo development(L=4),GO:0009791-post-embryonic development(L=4),GO:0009793-embryo development ending in seed dormancy(L=5),GO:0010154-fruit development(L=7),GO:0022414-reproductive process(L=2),GO:0032501-multicellular organismal process(L=1),GO:0032502-developmental process(L=1),GO:0044699-single-organism process(L=1),GO:0044707-single-multicellular organism process(L=2),GO:0044767-single-organism developmental process(L=2),GO:0048316-seed development(L=5),GO:0048608-reproductive structure development(L=5),GO:0048731-system development(L=4),GO:0048856-anatomical structure development(L=2),GO:0061458-reproductive system development(L=5),		GO:0003674-molecular_function(L=0),GO:0003824-catalytic activity(L=1),GO:0016740-transferase activity(L=2),GO:0016772-transferase activity, transferring phosphorus-containing groups(L=3),GO:0016779-nucleotidyltransferase activity(L=4),	NA	RNA uridylyltransferase activity
g7810	1	50.65809706	21.55331136	2.84036446	7.588220335	3.24e-14	6.76e-10	253.1542669	0.901047032	1.241893994	0	0	0	0.910406467	1.026614604	413.0346308	1.047682492	0	0	0	0	139.2130108	0	NA	XP_006420899.1	94.7	206	11	0	1	206	1	206	1.2e-105	99.5	XP_006420899.1 60S ribosomal protein L13a-4 isoform X1 [Citrus clementina]	citrus clementina	citrus clementina;citrus;aurantioideae;rutaceae;sapindales;malvids;rosids;pentapetalae;gunneridae;eudicotyledons;mesangiospermae;magnoliophyta;spermatophyta;euphyllophyta;tracheophyta;embryophyta;streptophytina;streptophyta;viridiplantae;eukaryota;cellular organisms;root	/home/CAM/smcevoy/acsa/analysis/annotation/entap//similarity_search/DIAMOND/blastp_acsa_structural_annotation_final_complete.out	No	Yes				NA			3694.POPTR_0001s32170.1	1e-103	381.3	RPL13A	Viridiplantae	virNOG[6]	1BJ5H@strNOG,1DPUB@virNOG,COG0102@NOG,KOG3204@euNOG	3010	GO:0006412-translation(L=5),GO:0008150-biological_process(L=0),GO:0008152-metabolic process(L=1),GO:0009058-biosynthetic process(L=2),GO:0009059-macromolecule biosynthetic process(L=4),GO:0009987-cellular process(L=1),GO:0010467-gene expression(L=4),GO:0019538-protein metabolic process(L=3),GO:0034645-cellular macromolecule biosynthetic process(L=4),GO:0043170-macromolecule metabolic process(L=3),GO:0044237-cellular metabolic process(L=2),GO:0044238-primary metabolic process(L=2),GO:0044249-cellular biosynthetic process(L=3),GO:0044260-cellular macromolecule metabolic process(L=3),GO:0044267-cellular protein metabolic process(L=4),GO:0071704-organic substance metabolic process(L=2),GO:1901576-organic substance biosynthetic process(L=3),	GO:0005575-cellular_component(L=0),GO:0005622-intracellular(L=3),GO:0005623-cell(L=1),GO:0005634-nucleus(L=5),GO:0005730-nucleolus(L=5),GO:0005737-cytoplasm(L=4),GO:0005829-cytosol(L=4),GO:0005840-ribosome(L=5),GO:0005911-cell-cell junction(L=2),GO:0009506-plasmodesma(L=3),GO:0009507-chloroplast(L=6),GO:0009536-plastid(L=5),GO:0015934-large ribosomal subunit(L=6),GO:0016020-membrane(L=1),GO:0022625-cytosolic large ribosomal subunit(L=6),GO:0022626-cytosolic ribosome(L=5),GO:0030054-cell junction(L=1),GO:0030529-intracellular ribonucleoprotein complex(L=4),GO:0031974-membrane-enclosed lumen(L=1),GO:0031981-nuclear lumen(L=6),GO:0032991-macromolecular complex(L=1),GO:0043226-organelle(L=1),GO:0043227-membrane-bounded organelle(L=2),GO:0043228-non-membrane-bounded organelle(L=2),GO:0043229-intracellular organelle(L=3),GO:0043231-intracellular membrane-bounded organelle(L=4),GO:0043232-intracellular non-membrane-bounded organelle(L=3),GO:0043233-organelle lumen(L=2),GO:0044391-ribosomal subunit(L=5),GO:0044422-organelle part(L=2),GO:0044424-intracellular part(L=3),GO:0044428-nuclear part(L=5),GO:0044444-cytoplasmic part(L=4),GO:0044445-cytosolic part(L=5),GO:0044446-intracellular organelle part(L=3),GO:0044464-cell part(L=2),GO:0055044-symplast(L=1),GO:0070013-intracellular organelle lumen(L=3),	GO:0003674-molecular_function(L=0),GO:0003735-structural constituent of ribosome(L=2),GO:0005198-structural molecule activity(L=1),	NA	60S ribosomal Protein
g8334	13	101.4687124	-1.708491745	0.415322361	-4.113652197	3.89e-05	0.062401563	37.10019429	40.54711643	81.9650036	101.8461963	180.2694781	122.3433894	80.11576912	79.04932447	163.919749	18.85828486	56.13558378	137.2337578	224.2091351	80.23305208	158.7516789	60.92168579	NA	XP_024441420.1	79.1	459	95	1	3	461	63	520	8.9e-197	99.1	XP_024441420.1 calcium-transporting ATPase 1 isoform X2 [Populus trichocarpa]	populus trichocarpa	populus trichocarpa;populus;saliceae;salicaceae;malpighiales;fabids;rosids;pentapetalae;gunneridae;eudicotyledons;mesangiospermae;magnoliophyta;spermatophyta;euphyllophyta;tracheophyta;embryophyta;streptophytina;streptophyta;viridiplantae;eukaryota;cellular organisms;root	/home/CAM/smcevoy/acsa/analysis/annotation/entap//similarity_search/DIAMOND/blastp_acsa_structural_annotation_final_complete.out	No	Yes				NA			3694.POPTR_0014s01690.1	2.1e-197	693.7	ACA10	Viridiplantae	virNOG[6]	0XNNC@NOG,1BD14@strNOG,1DQYJ@virNOG,KOG0204@euNOG		GO:0000003-reproduction(L=1),GO:0003006-developmental process involved in reproduction(L=2),GO:0006139-nucleobase-containing compound metabolic process(L=3),GO:0006152-purine nucleoside catabolic process(L=7),GO:0006163-purine nucleotide metabolic process(L=5),GO:0006164-purine nucleotide biosynthetic process(L=7),GO:0006195-purine nucleotide catabolic process(L=7),GO:0006200-obsolete ATP catabolic process(L=),GO:0006725-cellular aromatic compound metabolic process(L=3),GO:0006753-nucleoside phosphate metabolic process(L=4),GO:0006754-ATP biosynthetic process(L=8),GO:0006793-phosphorus metabolic process(L=3),GO:0006796-phosphate-containing compound metabolic process(L=4),GO:0006807-nitrogen compound metabolic process(L=2),GO:0006810-transport(L=3),GO:0006811-ion transport(L=4),GO:0006812-cation transport(L=5),GO:0006816-calcium ion transport(L=8),GO:0006950-response to stress(L=2),GO:0006952-defense response(L=3),GO:0006970-response to osmotic stress(L=3),GO:0006996-organelle organization(L=3),GO:0007010-cytoskeleton organization(L=4),GO:0007275-multicellular organism development(L=3),GO:0007338-single fertilization(L=5),GO:0008150-biological_process(L=0),GO:0008152-metabolic process(L=1),GO:0009056-catabolic process(L=2),GO:0009058-biosynthetic process(L=2),GO:0009116-nucleoside metabolic process(L=4),GO:0009117-nucleotide metabolic process(L=5),GO:0009119-ribonucleoside metabolic process(L=5),GO:0009123-nucleoside monophosphate metabolic process(L=5),GO:0009124-nucleoside monophosphate biosynthetic process(L=5),GO:0009125-nucleoside monophosphate catabolic process(L=5),GO:0009126-purine nucleoside monophosphate metabolic process(L=7),GO:0009127-purine nucleoside monophosphate biosynthetic process(L=7),GO:0009128-purine nucleoside monophosphate catabolic process(L=7),GO:0009141-nucleoside triphosphate metabolic process(L=5),GO:0009142-nucleoside triphosphate biosynthetic process(L=5),GO:0009143-nucleoside triphosphate catabolic process(L=5),GO:0009144-purine nucleoside triphosphate metabolic process(L=7),GO:0009145-purine nucleoside triphosphate biosynthetic process(L=7),GO:0009146-purine nucleoside triphosphate catabolic process(L=7),GO:0009150-purine ribonucleotide metabolic process(L=6),GO:0009152-purine ribonucleotide biosynthetic process(L=7),GO:0009154-purine ribonucleotide catabolic process(L=7),GO:0009156-ribonucleoside monophosphate biosynthetic process(L=7),GO:0009158-ribonucleoside monophosphate catabolic process(L=7),GO:0009161-ribonucleoside monophosphate metabolic process(L=7),GO:0009163-nucleoside biosynthetic process(L=5),GO:0009164-nucleoside catabolic process(L=5),GO:0009165-nucleotide biosynthetic process(L=5),GO:0009166-nucleotide catabolic process(L=5),GO:0009167-purine ribonucleoside monophosphate metabolic process(L=7),GO:0009168-purine ribonucleoside monophosphate biosynthetic process(L=8),GO:0009169-purine ribonucleoside monophosphate catabolic process(L=8),GO:0009199-ribonucleoside triphosphate metabolic process(L=7),GO:0009201-ribonucleoside triphosphate biosynthetic process(L=7),GO:0009203-ribonucleoside triphosphate catabolic process(L=7),GO:0009205-purine ribonucleoside triphosphate metabolic process(L=7),GO:0009206-purine ribonucleoside triphosphate biosynthetic process(L=8),GO:0009207-purine ribonucleoside triphosphate catabolic process(L=8),GO:0009259-ribonucleotide metabolic process(L=5),GO:0009260-ribonucleotide biosynthetic process(L=7),GO:0009261-ribonucleotide catabolic process(L=5),GO:0009555-pollen development(L=5),GO:0009566-fertilization(L=3),GO:0009607-response to biotic stimulus(L=2),GO:0009617-response to bacterium(L=5),GO:0009624-response to nematode(L=5),GO:0009628-response to abiotic stimulus(L=2),GO:0009651-response to salt stress(L=4),GO:0009653-anatomical structure morphogenesis(L=3),GO:0009791-post-embryonic development(L=4),GO:0009886-post-embryonic animal morphogenesis(L=4),GO:0009987-cellular process(L=1),GO:0010016-shoot system morphogenesis(L=4),GO:0010229-inflorescence development(L=5),GO:0010941-regulation of cell death(L=4),GO:0016043-cellular component organization(L=2),GO:0018130-heterocycle biosynthetic process(L=4),GO:0019438-aromatic compound biosynthetic process(L=4),GO:0019439-aromatic compound catabolic process(L=4),GO:0019637-organophosphate metabolic process(L=3),GO:0019693-ribose phosphate metabolic process(L=4),GO:0019953-sexual reproduction(L=2),GO:0022414-reproductive process(L=2),GO:0030001-metal ion transport(L=6),GO:0030029-actin filament-based process(L=3),GO:0030036-actin cytoskeleton organization(L=4),GO:0032501-multicellular organismal process(L=1),GO:0032502-developmental process(L=1),GO:0034220-ion transmembrane transport(L=5),GO:0034641-cellular nitrogen compound metabolic process(L=3),GO:0034654-nucleobase-containing compound biosynthetic process(L=4),GO:0034655-nucleobase-containing compound catabolic process(L=4),GO:0042278-purine nucleoside metabolic process(L=5),GO:0042451-purine nucleoside biosynthetic process(L=7),GO:0042454-ribonucleoside catabolic process(L=7),GO:0042455-ribonucleoside biosynthetic process(L=7),GO:0042592-homeostatic process(L=3),GO:0042742-defense response to bacterium(L=5),GO:0043067-regulation of programmed cell death(L=5),GO:0043069-negative regulation of programmed cell death(L=6),GO:0044237-cellular metabolic process(L=2),GO:0044238-primary metabolic process(L=2),GO:0044248-cellular catabolic process(L=3),GO:0044249-cellular biosynthetic process(L=3),GO:0044270-cellular nitrogen compound catabolic process(L=4),GO:0044271-cellular nitrogen compound biosynthetic process(L=4),GO:0044281-small molecule metabolic process(L=3),GO:0044699-single-organism process(L=1),GO:0044702-single organism reproductive process(L=3),GO:0044707-single-multicellular organism process(L=2),GO:0044710-single-organism metabolic process(L=2),GO:0044763-single-organism cellular process(L=2),GO:0044765-single-organism transport(L=3),GO:0044767-single-organism developmental process(L=2),GO:0046034-ATP metabolic process(L=7),GO:0046128-purine ribonucleoside metabolic process(L=7),GO:0046129-purine ribonucleoside biosynthetic process(L=7),GO:0046130-purine ribonucleoside catabolic process(L=7),GO:0046390-ribose phosphate biosynthetic process(L=5),GO:0046434-organophosphate catabolic process(L=4),GO:0046483-heterocycle metabolic process(L=3),GO:0046700-heterocycle catabolic process(L=4),GO:0048229-gametophyte development(L=4),GO:0048281-inflorescence morphogenesis(L=5),GO:0048367-shoot system development(L=5),GO:0048519-negative regulation of biological process(L=3),GO:0048523-negative regulation of cellular process(L=4),GO:0048608-reproductive structure development(L=5),GO:0048731-system development(L=4),GO:0048856-anatomical structure development(L=2),GO:0048878-chemical homeostasis(L=4),GO:0050789-regulation of biological process(L=2),GO:0050794-regulation of cellular process(L=3),GO:0050801-ion homeostasis(L=5),GO:0050896-response to stimulus(L=1),GO:0051179-localization(L=1),GO:0051234-establishment of localization(L=2),GO:0051704-multi-organism process(L=1),GO:0051707-response to other organism(L=4),GO:0055081-anion homeostasis(L=6),GO:0055085-transmembrane transport(L=4),GO:0055086-nucleobase-containing small molecule metabolic process(L=3),GO:0060548-negative regulation of cell death(L=5),GO:0061458-reproductive system development(L=5),GO:0065007-biological regulation(L=1),GO:0065008-regulation of biological quality(L=2),GO:0070588-calcium ion transmembrane transport(L=8),GO:0070838-divalent metal ion transport(L=7),GO:0071704-organic substance metabolic process(L=2),GO:0071840-cellular component organization or biogenesis(L=1),GO:0072511-divalent inorganic cation transport(L=6),GO:0072521-purine-containing compound metabolic process(L=4),GO:0072522-purine-containing compound biosynthetic process(L=5),GO:0072523-purine-containing compound catabolic process(L=5),GO:0090407-organophosphate biosynthetic process(L=4),GO:1901135-carbohydrate derivative metabolic process(L=3),GO:1901136-carbohydrate derivative catabolic process(L=4),GO:1901137-carbohydrate derivative biosynthetic process(L=4),GO:1901292-nucleoside phosphate catabolic process(L=4),GO:1901293-nucleoside phosphate biosynthetic process(L=4),GO:1901360-organic cyclic compound metabolic process(L=3),GO:1901361-organic cyclic compound catabolic process(L=4),GO:1901362-organic cyclic compound biosynthetic process(L=4),GO:1901564-organonitrogen compound metabolic process(L=3),GO:1901565-organonitrogen compound catabolic process(L=4),GO:1901566-organonitrogen compound biosynthetic process(L=4),GO:1901575-organic substance catabolic process(L=3),GO:1901576-organic substance biosynthetic process(L=3),GO:1901657-glycosyl compound metabolic process(L=3),GO:1901658-glycosyl compound catabolic process(L=4),GO:1901659-glycosyl compound biosynthetic process(L=4),	GO:0000325-plant-type vacuole(L=6),GO:0005575-cellular_component(L=0),GO:0005622-intracellular(L=3),GO:0005623-cell(L=1),GO:0005737-cytoplasm(L=4),GO:0005773-vacuole(L=5),GO:0005774-vacuolar membrane(L=6),GO:0005783-endoplasmic reticulum(L=4),GO:0005789-endoplasmic reticulum membrane(L=3),GO:0005794-Golgi apparatus(L=4),GO:0005886-plasma membrane(L=3),GO:0005911-cell-cell junction(L=2),GO:0009506-plasmodesma(L=3),GO:0009507-chloroplast(L=6),GO:0009526-plastid envelope(L=6),GO:0009528-plastid inner membrane(L=5),GO:0009536-plastid(L=5),GO:0009705-plant-type vacuole membrane(L=6),GO:0009706-chloroplast inner membrane(L=6),GO:0009941-chloroplast envelope(L=7),GO:0012505-endomembrane system(L=3),GO:0016020-membrane(L=1),GO:0016021-integral component of membrane(L=4),GO:0019866-organelle inner membrane(L=4),GO:0030054-cell junction(L=1),GO:0031090-organelle membrane(L=3),GO:0031224-intrinsic component of membrane(L=3),GO:0031967-organelle envelope(L=3),GO:0031969-chloroplast membrane(L=6),GO:0031975-envelope(L=3),GO:0042170-plastid membrane(L=5),GO:0042175-nuclear outer membrane-endoplasmic reticulum membrane network(L=3),GO:0043226-organelle(L=1),GO:0043227-membrane-bounded organelle(L=2),GO:0043229-intracellular organelle(L=3),GO:0043231-intracellular membrane-bounded organelle(L=4),GO:0044422-organelle part(L=2),GO:0044424-intracellular part(L=3),GO:0044425-membrane part(L=2),GO:0044432-endoplasmic reticulum part(L=5),GO:0044434-chloroplast part(L=6),GO:0044435-plastid part(L=5),GO:0044437-vacuolar part(L=5),GO:0044444-cytoplasmic part(L=4),GO:0044446-intracellular organelle part(L=3),GO:0044464-cell part(L=2),GO:0055044-symplast(L=1),GO:0071944-cell periphery(L=3),	GO:0000166-nucleotide binding(L=3),GO:0001882-nucleoside binding(L=3),GO:0001883-purine nucleoside binding(L=4),GO:0003674-molecular_function(L=0),GO:0003824-catalytic activity(L=1),GO:0005215-transporter activity(L=1),GO:0005216-ion channel activity(L=5),GO:0005261-cation channel activity(L=6),GO:0005262-calcium channel activity(L=7),GO:0005388-calcium-transporting ATPase activity(L=7),GO:0005488-binding(L=1),GO:0005515-protein binding(L=2),GO:0005516-calmodulin binding(L=3),GO:0005524-ATP binding(L=7),GO:0008324-cation transmembrane transporter activity(L=5),GO:0015075-ion transmembrane transporter activity(L=4),GO:0015085-calcium ion transmembrane transporter activity(L=8),GO:0015267-channel activity(L=4),GO:0015399-primary active transmembrane transporter activity(L=4),GO:0015405-P-P-bond-hydrolysis-driven transmembrane transporter activity(L=5),GO:0015662-ATPase activity, coupled to transmembrane movement of ions, phosphorylative mechanism(L=6),GO:0016462-pyrophosphatase activity(L=5),GO:0016787-hydrolase activity(L=2),GO:0016817-hydrolase activity, acting on acid anhydrides(L=3),GO:0016818-hydrolase activity, acting on acid anhydrides, in phosphorus-containing anhydrides(L=4),GO:0016820-hydrolase activity, acting on acid anhydrides, catalyzing transmembrane movement of substances(L=4),GO:0016887-ATPase activity(L=7),GO:0017076-purine nucleotide binding(L=4),GO:0017111-nucleoside-triphosphatase activity(L=6),GO:0019829-cation-transporting ATPase activity(L=6),GO:0022803-passive transmembrane transporter activity(L=3),GO:0022804-active transmembrane transporter activity(L=3),GO:0022838-substrate-specific channel activity(L=4),GO:0022857-transmembrane transporter activity(L=2),GO:0022890-inorganic cation transmembrane transporter activity(L=6),GO:0022891-substrate-specific transmembrane transporter activity(L=3),GO:0022892-substrate-specific transporter activity(L=2),GO:0030554-adenyl nucleotide binding(L=5),GO:0032549-ribonucleoside binding(L=4),GO:0032550-purine ribonucleoside binding(L=5),GO:0032553-ribonucleotide binding(L=3),GO:0032555-purine ribonucleotide binding(L=4),GO:0032559-adenyl ribonucleotide binding(L=6),GO:0035639-purine ribonucleoside triphosphate binding(L=4),GO:0036094-small molecule binding(L=2),GO:0042623-ATPase activity, coupled(L=8),GO:0042625-ATPase coupled ion transmembrane transporter activity(L=5),GO:0042626-ATPase activity, coupled to transmembrane movement of substances(L=5),GO:0043167-ion binding(L=2),GO:0043168-anion binding(L=3),GO:0043169-cation binding(L=3),GO:0043492-ATPase activity, coupled to movement of substances(L=9),GO:0043621-protein self-association(L=3),GO:0046872-metal ion binding(L=4),GO:0046873-metal ion transmembrane transporter activity(L=7),GO:0072509-divalent inorganic cation transmembrane transporter activity(L=7),GO:0097159-organic cyclic compound binding(L=2),GO:1901265-nucleoside phosphate binding(L=3),GO:1901363-heterocyclic compound binding(L=2),	NA	This magnesium-dependent enzyme catalyzes the hydrolysis of ATP coupled with the transport of calcium
