19,g25416,426.1266562,-0.901802072,0.215821617,-4.178460362,2.93E-05,0.029881596,314.000632,328.631586,387.504261,661.3615576,671.0284151,590.260211,282.535962,268.4604544,331.3568263
34,g3314,429.5908515,-1.054195528,0.272868342,-3.863385253,0.000111826,0.06768254,310.850124,197.3505608,272.332716,498.0079018,586.0194245,534.7462948,397.999575,492.0111674,576.9998995
30,g20718,89.31532379,-1.416083635,0.360685493,-3.926089796,8.63E-05,0.059803951,35.70575749,48.05057132,49.18784738,149.225772,107.6177647,97.43258762,103.2174722,84.82951162,128.5706298
16,g24711,333.4006939,-1.62555632,0.373644424,-4.350543504,1.36E-05,0.017283161,138.6223526,92.66895897,236.3416081,502.4228655,507.3408907,428.2502107,352.5139093,457.0813685,285.3640807
15,g25138,93.05951156,-1.990357859,0.446247524,-4.460210427,8.19E-06,0.011115377,54.60880557,20.59310199,43.1893294,167.7686194,159.1657696,140.4841961,56.85708215,78.84154609,116.0271537
12,g49708,1094.102057,-2.006655868,0.426587788,-4.703969326,2.55E-06,0.00432971,681.5599003,308.8965299,536.2675068,1750.091598,2635.278708,1746.988955,495.9687012,516.9610237,1174.905592
32,g25474,23.10689632,-2.275356843,0.582583956,-3.905629083,9.40E-05,0.059803951,7.351185366,13.72873466,5.998517973,37.96868755,56.97411071,38.51986022,14.87031379,18.96189083,13.58876575
27,g20727,33.11562204,-2.3987817,0.607470402,-3.948804241,7.85E-05,0.059235626,11.55186272,6.864367331,11.99703595,60.92649863,23.51312506,74.77384631,37.61314665,27.94383912,42.85687659
10,g46367,400.4340702,-2.421557534,0.49973056,-4.845726332,1.26E-06,0.002568778,228.9369157,169.8930914,93.57688038,1157.603474,1026.438344,455.4407003,128.5844781,252.4925463,90.94020154
26,g49704,35.44541594,-2.525357755,0.622313122,-4.058017849,4.95E-05,0.039013144,9.451524042,6.006321415,26.39347908,76.82036784,104.9047118,54.38097914,10.49669209,16.96590232,13.58876575
24,g26870,53.41663128,-4.275505407,1.052940208,-4.060539595,4.90E-05,0.039013144,4.200677352,6.006321415,0,103.3101499,97.66990408,2.265874131,83.97353671,79.83954035,103.4836776
21,g40438,64.48995998,-4.581384951,1.103286186,-4.152490087,3.29E-05,0.031890107,9.451524042,0.858045916,11.99703595,204.8543142,5.426105782,317.2223783,19.2439355,2.993982763,8.362317383
1,g21214,367.5078119,-5.168877857,0.851545753,-6.069994287,1.28E-09,1.34E-05,32.55524948,5.148275498,40.78992222,1365.989759,768.6983192,672.9646168,291.2832055,10.9779368,119.1630227
23,g1342,46.48278577,-5.223041516,1.283319466,-4.06994646,4.70E-05,0.039013144,3.150508014,3.432183666,3.599110784,22.07481834,2.713052891,355.7422385,9.621967748,16.96590232,1.045289673
18,g25818,13.67408746,-5.843595867,1.36838392,-4.270435936,1.95E-05,0.02207024,2.100338676,0,0,46.79861489,26.22617795,45.31748261,2.624173022,0,0
9,g5635.1,23.14943892,-5.861621482,1.194592298,-4.906796647,9.26E-07,0.002094582,1.050169338,0.858045916,1.199703595,82.11832424,21.70442313,74.77384631,7.872519066,0.997994254,17.76992444
7,g35464,26.01035478,-21.36509363,3.909561019,-5.464831864,4.63E-08,0.000152079,0,0,0,0,92.2437983,0,92.72078011,0,49.12861463