47,g43042,135.0361267,-1.111174137,0.299155977,-3.714363821,0.000203716,0.080453462,94.51524042,96.10114264,106.7736199,197.7903724,182.6788947,246.9802802,88.34715841,79.83954035,122.2988917
7,g25416,426.1266562,-1.12460573,0.216290498,-5.199515185,2.00E-07,0.000539484,314.000632,328.631586,387.504261,661.3615576,671.0284151,590.260211,282.535962,268.4604544,331.3568263
43,g11075,72.52159727,-1.236201013,0.330912802,-3.735730393,0.000187171,0.080453462,51.45829756,62.6373519,52.78695816,100.6611716,115.7569234,124.6230772,41.98676835,58.88166101,43.90216626
20,g3456,275.4790733,-1.289158677,0.300692276,-4.287302272,1.81E-05,0.017090903,274.0941972,149.2999895,248.3386441,428.2514759,384.3491596,470.1688821,176.6943168,153.6911152,194.4238792
29,g14239,87.0897257,-1.595198913,0.411595907,-3.875643286,0.000106343,0.060844929,49.35795888,86.66263756,62.38458692,150.1087647,177.2527889,112.1607695,34.11424929,67.86360929,43.90216626
13,g4164,469.0173139,-1.615965854,0.34489758,-4.685349929,2.79E-06,0.004063239,328.7030028,466.7769785,567.4598002,1020.7396,529.0453138,604.9883929,198.5624253,242.5126038,262.3677079
33,g3554,50.17560492,-1.683086287,0.432808025,-3.88875943,0.000100758,0.060844929,49.35795888,51.48275498,64.78399411,100.6611716,51.54800493,65.71034979,20.99338418,21.9558736,25.08695215
21,g28096,251.755927,-1.713163336,0.404666302,-4.23352112,2.30E-05,0.020705451,329.7531721,245.4011321,161.9599853,263.1318347,429.5667078,479.2323786,164.4481761,110.7773622,81.53259449
44,g29399,120.4594706,-1.916416833,0.513160453,-3.734537262,0.000188061,0.080453462,139.6725219,47.1925254,157.1611709,194.2584014,157.3570677,233.3850355,32.36480061,78.84154609,43.90216626
54,g15854,36.65402428,-1.991668342,0.549507929,-3.624457874,0.000289568,0.099506167,15.75254007,18.01896424,27.59318268,108.6081063,56.97411071,48.71629381,13.12086511,14.96991382,26.13224182
53,g21088,31.11310518,-2.073795655,0.568955558,-3.644916768,0.000267478,0.09538379,17.85287875,25.74137749,17.99555392,77.70336057,35.26968759,63.44447566,13.12086511,7.983954035,20.90579346
42,g10148,180.8931249,-2.098600683,0.560850381,-3.741819129,0.000182693,0.080453462,273.0440279,248.8333158,94.77658397,291.3876021,289.3923084,239.0497208,38.48787099,122.7532933,30.31340051
52,g5404,42.34190153,-2.172996857,0.593107269,-3.663750171,0.000248549,0.090338083,28.35457212,22.30919383,29.99258986,109.491099,28.93923084,107.6290212,23.6175572,12.97392531,17.76992444
37,g7423,49.50495977,-2.200347542,0.568404495,-3.871094548,0.000108348,0.060844929,35.70575749,29.17356116,20.39496111,101.5441644,55.16540879,139.351259,21.86810852,32.93381039,9.407607056
48,g4325,22.30160595,-2.400026682,0.645503725,-3.718067905,0.000200752,0.080453462,5.25084669,15.4448265,13.19673954,40.61766575,57.87846168,41.91867142,12.24614077,9.979942543,4.181158692
8,g46367,400.4340702,-2.483746933,0.49964606,-4.971012747,6.66E-07,0.001573521,228.9369157,169.8930914,93.57688038,1157.603474,1026.438344,455.4407003,128.5844781,252.4925463,90.94020154
27,g20457,48.94843734,-2.506877473,0.623366781,-4.021512776,5.78E-05,0.0404779,48.30778955,111.5459691,45.58873659,111.2570845,44.31319722,44.18454555,7.872519066,15.96790807,11.4981864
26,g49704,35.44541594,-2.528974428,0.619967218,-4.079206697,4.52E-05,0.032849395,9.451524042,6.006321415,26.39347908,76.82036784,104.9047118,54.38097914,10.49669209,16.96590232,13.58876575
17,g8182,45.18968549,-3.037718041,0.694592395,-4.373382232,1.22E-05,0.013600913,48.30778955,32.60574482,14.39644313,54.74554949,161.8788225,61.17860153,19.2439355,5.987965526,8.362317383
32,g34206,136.1732087,-3.342673686,0.864347882,-3.867278161,0.000110057,0.060844929,11.55186272,193.9183771,151.1626529,57.39452769,315.6184863,418.0537771,37.61314665,10.9779368,29.26811084
28,g44997,190.2993205,-3.456093386,0.874156398,-3.953632776,7.70E-05,0.051957124,53.55863624,708.745927,76.78103005,213.6842416,483.8277656,103.0972729,17.49448681,41.91575868,13.58876575
55,g26662,84.2710371,-3.611313321,0.995673541,-3.627005412,0.000286727,0.099506167,13.65220139,31.74769891,20.39496111,49.44759309,10.85221156,580.0637775,21.86810852,19.95988509,10.45289673
41,g40438,64.48995998,-4.10076439,1.088780728,-3.766382233,0.00016563,0.076351462,9.451524042,0.858045916,11.99703595,204.8543142,5.426105782,317.2223783,19.2439355,2.993982763,8.362317383
19,g25818,13.67408746,-5.40190956,1.24928409,-4.324004125,1.53E-05,0.0152416,2.100338676,0,0,46.79861489,26.22617795,45.31748261,2.624173022,0,0
23,g27976,14.45601835,-5.441974075,1.298044102,-4.192441588,2.76E-05,0.022677383,17.85287875,5.148275498,21.5946647,13.24489101,35.26968759,35.12104903,0.874724341,0.997994254,0
40,g35900,36.34673584,-5.499029656,1.440037089,-3.81867224,0.000134172,0.063396218,4.200677352,3.432183666,52.78695816,166.0026339,0.904350964,94.03377642,2.624173022,0,3.135869019
30,g20767,21.42438456,-7.445806295,1.933507692,-3.850931821,0.000117669,0.060844929,9.451524042,0.858045916,0,166.0026339,0.904350964,14.72818185,0.874724341,0,0