27,g25824,23.41002781,19.89558987,4.787617247,4.155635015,3.24E-05,0.025539937,60.39913929,9.885523277,0,0,0,0,93.58553212
32,g42841,21.54871717,19.62701072,4.788232293,4.099009722,4.15E-05,0.028327313,57.22023722,0.823793606,0,0,92.79698936,0,0
8,g10697,38.08663589,9.537815696,1.771179605,5.385007634,7.24E-08,0.000192495,113.3808404,153.2256108,0,0,0,0,0
9,g34420,171.1945019,9.085909898,1.718999367,5.285580712,1.25E-07,0.000295974,385.7067843,671.3917892,0.688195078,1.381923992,2.99345127,0.879748413,135.3196208
29,g36752,27.77618575,9.059148547,2.193665926,4.12968467,3.63E-05,0.026628293,190.7341241,0.823793606,0,0,1.99563418,0.879748413,0
1,g24161,809.6499998,8.974671214,1.031228195,8.702895496,3.24E-18,6.88E-14,2869.488933,514.871004,4.817365545,1.381923992,1160.461276,350.1398682,766.3896279
58,g19176,19.56602043,8.44333362,2.317556907,3.643204442,0.000269265,0.098690192,125.0368147,0,0,0,5.986902539,0.879748413,5.058677412
7,g10417,165.0950117,8.165095989,1.514220024,5.392278441,6.96E-08,0.000192495,1133.808404,4.118968032,1.376390156,2.763847985,1.99563418,5.278490476,6.323346765
30,g1546,39.91036551,8.049291789,1.964397259,4.097588586,4.17E-05,0.028327313,7.417438159,236.428765,0.688195078,0,3.991268359,1.759496825,29.08739512
2,g24159,1579.539321,7.98236155,0.95337471,8.372743128,5.63E-17,5.98E-13,6506.152899,1146.7207,21.33404742,8.291543955,2131.337304,460.1084198,782.8303295
3,g24162,587.4387943,7.979951802,0.992537406,8.039950694,8.99E-16,6.37E-12,2098.075365,460.500626,6.881950779,2.763847985,960.8978575,231.3738325,351.5780801
39,g26481,11.94722062,7.569262219,1.927041008,3.927919638,8.57E-05,0.046704278,36.02755677,32.12795065,0,0,2.99345127,6.158238889,6.323346765
47,g44114.2,14.01034196,7.536184617,1.950270934,3.864173171,0.000111466,0.05508042,51.92206711,14.82828492,0,0,17.96070762,7.037987301,6.323346765
43,g10698,22.73643232,7.422273833,1.920272805,3.865218428,0.00011099,0.05508042,141.990959,16.47587213,0.688195078,0,0,0,0
31,g19977,41.40449573,7.321308596,1.788878701,4.092680288,4.26E-05,0.028327313,62.51840734,85.67453506,0.688195078,0,2.99345127,83.5760992,54.38078218
22,g10232,68.80538131,7.013742154,1.625826363,4.313955238,1.60E-05,0.014820834,84.77072181,226.5432418,2.064585234,0,156.6572831,5.278490476,6.323346765
10,g22247.4,1001.437548,6.610196444,1.25951673,5.24820059,1.54E-07,0.000326506,6789.075183,30.48036344,41.97989975,27.63847985,37.91704942,58.94314365,24.02871771
48,g9373.1,106.9813645,6.500065936,1.686499291,3.854176502,0.00011612,0.05508042,0,175.4680382,0.688195078,1.381923992,235.4848332,229.6143357,106.2322257
25,g3823,54.27575544,6.425857137,1.500921669,4.281274145,1.86E-05,0.015801179,363.4544698,6.590348851,2.752780312,1.381923992,3.991268359,1.759496825,0
5,g24164,218.2315472,6.353701618,1.025900091,6.193294724,5.89E-10,2.51E-06,472.5967741,109.5645496,6.193755701,0,347.2403473,196.183896,395.8415075
4,g24160,286.1979759,6.253438135,0.932816618,6.70382368,2.03E-11,1.08E-07,289.2800882,313.865364,4.817365545,2.763847985,650.5767426,145.1584881,596.9239346
17,g47104,48.80438292,6.122377104,1.340464617,4.567354504,4.94E-06,0.006176303,153.6469333,172.9966573,4.129170467,0,9.978170899,0.879748413,0
51,g30594,44.22247144,6.03923749,1.61516509,3.739083717,0.000184692,0.076310662,46.623897,161.4635469,0.688195078,2.763847985,17.96070762,80.05710555,0
6,g3821,108.1735208,5.74806454,0.946551429,6.072638386,1.26E-09,4.46E-06,522.3995732,204.3008144,5.505560623,8.291543955,6.984719629,0.879748413,8.852685471
41,g42807,62.36058766,5.585510471,1.440979258,3.876190751,0.000106105,0.055013897,376.170078,11.53311049,2.752780312,5.52769597,1.99563418,4.398742063,34.14607253
21,g28310,96.59919279,5.128620542,1.177344574,4.356091373,1.32E-05,0.013403222,161.0643714,235.6049714,3.44097539,8.291543955,8.980353809,212.0193675,46.79276606
53,g20679,735.4014134,4.55446517,1.220616331,3.731283167,0.000190507,0.076411256,2106.552437,116.9786921,13.76390156,81.53351556,1752.16681,975.6409897,101.1735482
45,g22186,76.43760241,4.274774799,1.113991932,3.837348078,0.00012437,0.05508042,406.8994647,25.5376018,13.76390156,8.291543955,42.90613486,23.75320714,13.91136288
36,g1143,40.58460393,4.024273094,0.99515812,4.043852944,5.26E-05,0.031048434,144.1102271,95.56005834,12.3875114,1.381923992,9.978170899,10.55698095,10.11735482
40,g20714,44.04381339,4.01078393,1.034215466,3.878093164,0.000105278,0.055013897,84.77072181,75.78901179,3.44097539,6.909619962,86.81008682,20.23421349,30.35206447
35,g10733,62.91558489,4.008571527,0.989399607,4.051519223,5.09E-05,0.03090679,312.5920367,96.38385195,17.89307203,6.909619962,3.991268359,2.639245238,0
46,g4162.1,63.65844625,3.938716067,1.025653232,3.84020246,0.000122933,0.05508042,269.1470418,56.84175884,15.14029171,5.52769597,44.90176904,12.31647778,41.73408865
18,g35774,300.986521,3.781779829,0.838192178,4.511829063,6.43E-06,0.007590402,993.9367133,525.5803209,59.1847767,51.13118772,260.4302605,39.58867857,177.0537094
19,g40050,240.633214,3.439999237,0.775931522,4.433379929,9.28E-06,0.010379183,363.4544698,965.4861067,73.63687334,48.36733974,124.7271362,40.46842698,68.29214506
13,g25396,355.9335981,3.362975822,0.69116814,4.865640686,1.14E-06,0.00186558,895.3907492,651.6207427,37.16253421,114.6996914,298.3473099,269.2030143,225.1111448
44,g15710,302.3279654,3.176005535,0.826756848,3.841523107,0.000122273,0.05508042,1143.34511,345.1695211,75.01326349,89.82505951,63.86029375,128.4432682,270.6392415
33,g25395,295.6371679,2.950984025,0.724504086,4.073108879,4.64E-05,0.029781582,578.5601764,814.7318767,46.10907022,135.4285513,147.6769293,233.1333294,113.8202418
42,g10361,976.4818735,2.672392816,0.694783489,3.846367763,0.000119882,0.05508042,2354.506798,1060.222371,335.839198,198.9970549,1006.797444,549.8427579,1329.16749
26,g10359,2057.846892,2.648790503,0.626357809,4.228877594,2.35E-05,0.019202521,4095.485498,3310.00271,707.4645401,472.6180054,2117.367865,1120.799478,2581.190149