OG0005740	acneID=g16429	sp|F4I096|MED13_ARATH Mediator of RNA polymerase II transcription subunit 13 OS=Arabidopsis thaliana GN=MED13 PE=1 SV=1	3702.AT1G55325.2	63.5	2376.7	GCT	"Mediator of RNA polymerase II transcription subunit 13; Component of the Mediator complex, a coactivator involved in the regulated transcription of nearly all RNA polymerase II-dependent genes. Mediator functions as a bridge to convey information from gene-specific regulatory proteins to the basal RNA polymerase II transcription machinery. The Mediator complex, having a compact conformation in its free form, is recruited to promoters by direct interactions with regulatory proteins and serves for the assembly of a functional preinitiation complex with RNA polymerase II and the general t [...] "
OG0005305	acneID=g22980	XP_006442243.1 uncharacterized protein LOC18050087 [Citrus clementina]	3702.AT1G78420.2	63.6	375.9	AT1G78420	"Uncharacterized protein At1g78420; RING/U-box superfamily protein; Its function is described as zinc ion binding; Expressed in 24 plant structures; Expressed during 13 growth stages; Contains the following InterPro domains: Zinc finger, RING-type (InterPro:IPR001841); BEST Arabidopsis thaliana protein match is: RING/U-box superfamily protein (TAIR:AT1G17145.1)"
OG0002926	acneID=g23819	"XP_006423972.1 phosphoribosylaminoimidazole carboxylase, chloroplastic isoform X2 [Citrus clementina]"	3702.AT2G37690.1	75.6	737.6	AT2G37690	"Phosphoribosylaminoimidazole carboxylase, putative / AIR carboxylase, putative; Its function is described as phosphoribosylaminoimidazole carboxylase activity, catalytic activity, ATP binding; Involved in 'de novo' IMP biosynthetic process, pollen development; Located in chloroplast; Contains the following InterPro domains: Phosphoribosylaminoimidazole carboxylase (InterPro:IPR016301), PreATP-grasp-like fold (InterPro:IPR016185), ATP-grasp fold, ATP-dependent carboxylate-amine ligase-type (InterPro:IPR003135), Phosphoribosylaminoimidazole carboxylase, ATPase subunit (InterPro:IPR005875 [...] "
OG0005652	acneID=g8086	XP_024041724.1 DNA replication complex GINS protein PSF3 [Citrus clementina]	3702.AT3G55490.1	56.1	219.5	AT3G55490	"GINS complex protein; Contains the following InterPro domains: GINS complex, subunit Psf3 (InterPro:IPR010492), GINS complex (InterPro:IPR021151); BEST Arabidopsis thaliana protein match is: GINS complex protein (TAIR:AT1G19080.2); Has 336 Blast hits to 336 proteins in 155 species: Archae - 0; Bacteria - 0; Metazoa - 141; Fungi - 114; Plants - 49; Viruses - 0; Other Eukaryotes - 32 (source: NCBI BLink)"
OG0008782	Acyan11G0175200.1	sp|O81242|RHL1_ARATH DNA-binding protein RHL1 OS=Arabidopsis thaliana GN=RHL1 PE=1 SV=1	3702.AT1G48380.2	39.7	250	RHL1	Encodes a novel nuclear protein required for root hair initiation and ploidy-dependent cell growth.  Its sequence has similarity to the C-terminal domain of mammalian DNA topo IIalpha.  Shows in vitro DNA binding activity and is likely to be part of the topo VI complex by binding to subunit A
OG0004254	Bpev01.c0015.g0003.m0001	"sp|Q8LDU4|RCCR_ARATH Red chlorophyll catabolite reductase, chloroplastic OS=Arabidopsis thaliana GN=RCCR PE=1 SV=2"	3702.AT4G37000.1	41.8	245.7	ACD2	"Red chlorophyll catabolite reductase, chloroplastic; Mutants have spontaneous spreading cell death lesions and constitutive activation of defenses in the absence of pathogen infection.  Its product was shown to display  red chlorophyll catabolite reductase (RCCR), which catalyzes one step in the breakdown of the porphyrin component of chlorophyll. The enzyme was further assessed to be a Type-1 (pFCC-1-producing) RCCR.Upon P. syringae infection, ACD2 localization shifts from being largely in chloroplasts to partitioning to chloroplasts, mitochondria, and to a small extent, cytosol. Over [...] "
OG0007018	Eucgr.J00217.1.p	sp|Q9FFK6|NUP88_ARATH Nuclear pore complex protein NUP88 OS=Arabidopsis thaliana GN=NUP88 PE=1 SV=1	3702.AT5G05680.1	60	951.8	MOS7	"Nuclear pore complex protein-related; Involved in the regulation of exportin-mediated nuclear protein export. Required for resistance mediated by multiple R proteins and for the appropriate nuclear accumulation of SNC1 and of the downstream defense signaling components EDS1 and NPR1. Not involved in salt tolerance, ethylene and auxin responses, but required for systemic acquired resistance"
OG0008832	Gb_19899		3702.AT3G20430.1	39.2	117.5	AT3G20430	"Contains the following InterPro domains: Phosphorylated adapter RNA export protein, RNA-binding domain (InterPro:IPR019385); Has 110 Blast hits to 110 proteins in 51 species: Archae - 0; Bacteria - 3; Metazoa - 56; Fungi - 0; Plants - 36; Viruses - 0; Other Eukaryotes - 15 (source: NCBI BLink)"
OG0003099	Gb_31873	XP_006852588.1 uncharacterized protein LOC18442303 [Amborella trichopoda]	3702.AT2G46550.1	34.1	153.3	AT2G46550	Unknown protein; BEST Arabidopsis thaliana protein match is: unknown protein (TAIR:AT1G01240.3); Has 72 Blast hits to 68 proteins in 13 species: Archae - 0; Bacteria - 0; Metazoa - 1; Fungi - 0; Plants - 71; Viruses - 0; Other Eukaryotes - 0 (source: NCBI BLink)
OG0008551	Gb_34451		3702.AT3G14760.1	27.9	56.2	AT3G14760	"Uncharacterized protein At3g14760; Unknown protein; Its function is described as molecular_function unknown; Involved in biological_process unknown; Located in endomembrane system; Expressed in 6 plant structures; Expressed during LP.04 four leaves visible, LP.02 two leaves visible; Has 63 Blast hits to 63 proteins in 13 species: Archae - 0; Bacteria - 0; Metazoa - 0; Fungi - 0; Plants - 63; Viruses - 0; Other Eukaryotes - 0 (source: NCBI BLink)"
OG0009377	Gb_38407		3702.AT1G11760.1	57.9	167.5	MED32	"Mediator of RNA polymerase II transcription subunit 32; Component of the Mediator complex, a coactivator involved in the regulated transcription of nearly all RNA polymerase II-dependent genes. Mediator functions as a bridge to convey information from gene-specific regulatory proteins to the basal RNA polymerase II transcription machinery. The Mediator complex, having a compact conformation in its free form, is recruited to promoters by direct interactions with regulatory proteins and serves for the assembly of a functional pre- initiation complex with RNA polymerase II and the general [...] "
OG0009606	GWHPAAYW010102		3702.AT1G16610.3	68	137.5	SR45	"Encodes SR45, a member of the highly conserved family of serine/arginine-rich (SR) proteins, which play key roles in pre-mRNA splicing and other aspects of RNA metabolism. SR45 is a spliceosome protein, interacts with SR33 and the U1-70K protein of the U1 snRNP.  Also involved in plant sugar response.  sr45-1 mutation confers hypersensitivity to glucose during early seedling growth"
OG0005342	GWHPAAYW023410	XP_021606042.1 uncharacterized protein LOC110610432 [Manihot esculenta]	3702.AT2G19880.2	64.3	685.6	AT2G19880	"Nucleotide-diphospho-sugar transferases superfamily protein; Its function is described as ceramide glucosyltransferase activity; Involved in biological_process unknown; Located in endomembrane system; Expressed in 24 plant structures; Expressed during 15 growth stages; Contains the following InterPro domains: Glycosyl transferase, family 2 (InterPro:IPR001173)"
OG0002449	GWHPAAYW025734		3702.AT3G50340.1	44.6	309.7	AT3G50340	Uncharacterized protein At3g50340; Unknown protein; BEST Arabidopsis thaliana protein match is: unknown protein (TAIR:AT5G67020.1); Has 128 Blast hits to 128 proteins in 39 species: Archae - 0; Bacteria - 46; Metazoa - 0; Fungi - 3; Plants - 76; Viruses - 0; Other Eukaryotes - 3 (source: NCBI BLink)
OG0003749	Juhi_01127.t1	sp|P50246|SAHH_MEDSA Adenosylhomocysteinase OS=Medicago sativa GN=SAHH PE=2 SV=1	3702.AT4G13940.1	91.5	921.4	HOG1	S-adenosyl-L-homocysteine hydrolase; Adenosylhomocysteine is a competitive inhibitor of S- adenosyl-L-methionine-dependent methyl transferase reactions; therefore adenosylhomocysteinase may play a key role in the control of methylations via regulation of the intracellular concentration of adenosylhomocysteine. Required for DNA methylation-dependent gene silencing
OG0010096	Juhi_01813.t1	XP_018807759.1 PREDICTED: uncharacterized protein LOC108981128 [Juglans regia]	3702.AT4G13330.1	59	413.7	AT4G13330	S-adenosyl-L-methionine-dependent methyltransferases superfamily protein; Has 80 Blast hits to 80 proteins in 32 species: Archae - 0; Bacteria - 21; Metazoa - 13; Fungi - 0; Plants - 36; Viruses - 0; Other Eukaryotes - 10 (source: NCBI BLink)
OG0006775	Juhi_11426.t1		3702.AT1G57600.1	61.5	363.2	AT1G57600	"MBOAT (membrane bound O-acyl transferase) family protein; Contains the following InterPro domains: Membrane bound O-acyl transferase, MBOAT (InterPro:IPR004299); Has 2343 Blast hits to 2336 proteins in 775 species: Archae - 0; Bacteria - 1642; Metazoa - 209; Fungi - 146; Plants - 49; Viruses - 0; Other Eukaryotes - 297 (source: NCBI BLink); Belongs to the membrane-bound acyltransferase family"
OG0002742	Juhi_24119.t1	sp|Q9M5L0|RL35_EUPES 60S ribosomal protein L35 OS=Euphorbia esula GN=RPL35 PE=2 SV=1	3702.AT2G39390.1	89.4	200.7	AT2G39390	"Ribosomal L29 family protein ; Its function is described as structural constituent of ribosome; Involved in translation, ribosome biogenesis; Located in cytosolic ribosome, ribosome, cytosolic large ribosomal subunit; Expressed in 22 plant structures; Expressed during 13 growth stages; Contains the following InterPro domains: Ribosomal protein L29 (InterPro:IPR001854), Ribosomal protein L29, conserved site (InterPro:IPR018254); BEST Arabidopsis thaliana protein match is: Ribosomal L29 family protein  (TAIR:AT5G02610.1); Has 1205 Blast hits to 1205 proteins in 485 species: Archae - 136; [...] "
OG0003552	Juhi_28056.t1		3702.AT2G42190.1	40.6	62	AT2G42190	Rho GTPase-activating gacO-like protein; Unknown protein; BEST Arabidopsis thaliana protein match is: unknown protein (TAIR:AT3G57930.2); Has 1381 Blast hits to 1230 proteins in 175 species: Archae - 3; Bacteria - 25; Metazoa - 672; Fungi - 135; Plants - 127; Viruses - 30; Other Eukaryotes - 389 (source: NCBI BLink)
OG0008267	Jure_11455.t2		3702.AT5G06360.1	56.4	60.5	AT5G06360	Ribosomal protein S8e family protein; Contains the following InterPro domains: Ribosomal protein S8e/ribosomal biogenesis NSA2= (InterPro:IPR022309); Has 1807 Blast hits to 1807 proteins in 277 species: Archae - 0; Bacteria - 0; Metazoa - 736; Fungi - 347; Plants - 385; Viruses - 0; Other Eukaryotes - 339 (source: NCBI BLink)
OG0010899	OsKitaake01g281200.1.p	sp|Q5N8Q4|ORC4_ORYSJ Origin of replication complex subunit 4 OS=Oryza sativa subsp. japonica GN=ORC4 PE=2 SV=1	3702.AT2G01120.2	54.1	470.3	ORC4	Origin of replication complex subunit 4; Component of the origin recognition complex (ORC) that binds origins of replication. DNA-binding is ATP-dependent. The specific DNA sequences that define origins of replication have not been identified yet. ORC is required to assemble the pre- replication complex necessary to initiate DNA replication
OG0004885	OsKitaake03g161700.1.p	XP_015627831.1 mitochondrial import receptor subunit TOM40-1 [Oryza sativa Japonica Group]	3702.AT3G20000.1	69.6	440.3	TOM40	Translocase of the outer mitochondrial membrane 40; Central component of the receptor complex responsible for the recognition and translocation of cytosolically synthesized mitochondrial preproteins. Together with TOM22 functions as the transit peptide receptor at the surface of the mitochondrion outer membrane and facilitates the movement of preproteins into the translocation pore. Directly involved in the pore formation; Belongs to the Tom40 family
OG0006204	Potri.009G125200.5.p	XP_024463915.1 polyprenol reductase 2 isoform X2 [Populus trichocarpa]	3702.AT2G16530.1	54.4	396.7	AT2G16530	3-oxo-5-alpha-steroid 4-dehydrogenase family protein; Plays a key role in early steps of protein N-linked glycosylation by being required for the conversion of polyprenol into dolichol. Dolichols are required for the synthesis of dolichol-linked monosaccharides and the oligosaccharide precursor used for N-glycosylation. Acts as a polyprenol reductase that promotes the reduction of the alpha-isoprene unit of polyprenols into dolichols in a NADP-dependent mechanism. Involved in the regulation of plant growth and reproductive processes
OG0006469	QL01p009105	XP_023911402.1 uncharacterized protein LOC112023019 [Quercus suber]	3702.AT5G13030.1	75.4	980.3	AT5G13030	Uncharacterized protein At5g13030; Unknown protein; Its function is described as molecular_function unknown; Involved in biological_process unknown; Located in chloroplast; Expressed in 23 plant structures; Expressed during 13 growth stages; Contains the following InterPro domains: Uncharacterised protein family UPF0061 (InterPro:IPR003846); Has 5046 Blast hits to 4997 proteins in 1211 species: Archae - 8; Bacteria - 2327; Metazoa - 120; Fungi - 134; Plants - 48; Viruses - 0; Other Eukaryotes - 2409 (source: NCBI BLink)
OG0003506	QL06p044160	XP_023926662.1 uncharacterized protein LOC112038075 isoform X2 [Quercus suber]	3702.AT3G50380.1	38.5	2320	AT3G50380	"Vacuolar protein sorting-associated protein, putative (DUF1162); Involved in protein localization; Located in mitochondrion; Expressed in 22 plant structures; Expressed during 13 growth stages; Contains the following InterPro domains: Vacuolar protein sorting-associated protein (InterPro:IPR009543); Has 365 Blast hits to 355 proteins in 118 species: Archae - 0; Bacteria - 0; Metazoa - 156; Fungi - 111; Plants - 61; Viruses - 0; Other Eukaryotes - 37 (source: NCBI BLink)"
OG0006481	QL08p033580	sp|P17069|ACEA_GOSHI Isocitrate lyase OS=Gossypium hirsutum PE=2 SV=1	3702.AT3G21720.1	82.6	989.6	ICL	Isocitrate lyase; Involved in storage lipid mobilization during the growth of higher plant seedling; Belongs to the isocitrate lyase/PEP mutase superfamily. Isocitrate lyase family
OG0010403	VIT_204s0008g00750.6	XP_002277081.1 PREDICTED: uncharacterized protein LOC100260976 [Vitis vinifera]	3702.AT4G32960.1	69	349.4	AT4G32960	Uncharacterized protein AT4g32960; Unknown protein; BEST Arabidopsis thaliana protein match is: unknown protein (TAIR:AT4G32970.1); Has 106 Blast hits to 106 proteins in 39 species: Archae - 0; Bacteria - 0; Metazoa - 62; Fungi - 0; Plants - 37; Viruses - 0; Other Eukaryotes - 7 (source: NCBI BLink)
OG0006268	VIT_217s0000g01640.1	XP_002279798.1 PREDICTED: uncharacterized protein LOC100268000 isoform X1 [Vitis vinifera]	3702.AT5G63420.1	72.2	1288.1	emb2746	"RNA-metabolising metallo-beta-lactamase family protein; Embryo defective 2746 (emb2746); Its function is described as hydrolase activity, DNA binding, catalytic activity; Involved in metabolic process, embryo development ending in seed dormancy; Located in chloroplast; Expressed in 22 plant structures; Expressed during 13 growth stages; Contains the following InterPro domains: SANT, DNA-binding (InterPro:IPR001005), RNA-metabolising metallo-beta-lactamase (InterPro:IPR011108), Beta-lactamase-like (InterPro:IPR001279), MYB-like (InterPro:IPR017877); BEST Arabidopsis thaliana protein mat [...] "