,gene,baseMean,log2FoldChange,lfcSE,stat,pvalue,padj,hbef_FaAsAl1,hbef_FaAsAl2,hbef_FaAsAl3,hbef_FaAsCa1,hbef_FaAsCa2,hbef_FaAsCa3,hbef_FaAsCo1,hbef_FaAsCo2,hbef_FaAsCo3
51,g35021,512.5136536,13.07482732,3.561177731,3.671489689,0.000241141,0.089363947,6.301016028,0.858045916,0,0,0,0,2785.122301,1820.34152,0
39,g48639,67.23043871,9.210580388,2.402185497,3.834250269,0.000125948,0.061036269,161.726078,0,127.168581,0,0,0,183.6921115,93.81145991,38.6757179
18,g5718,11.9904445,6.770392441,1.558815632,4.343292628,1.40E-05,0.014738112,22.0535561,8.580459164,19.19525751,0,0,0,34.98897363,19.95988509,3.135869019
2,g32490.2,45.7131493,6.76879587,1.165522628,5.807519912,6.34E-09,5.99E-05,60.9098216,89.23677531,51.58725457,0,1.808701927,0,112.83944,45.9077357,49.12861463
25,g30807,219.0038757,5.961969971,1.455586039,4.095924124,4.20E-05,0.031788866,11.55186272,111.5459691,11.99703595,7.946934604,10.85221156,10.19643359,20.99338418,119.7593105,1666.191739
16,g24546,147.5591219,4.027415192,0.918003096,4.387147725,1.15E-05,0.013566277,13.65220139,65.21148965,51.58725457,15.89386921,21.70442313,31.72223783,168.8217978,24.94985636,934.4889676
6,g36899,67.84210473,3.732360389,0.688377844,5.421964729,5.89E-08,0.00021661,72.46168432,18.01896424,140.3653206,9.712920071,9.947860601,6.797622392,157.4503813,102.7934082,93.03078089
14,g33739,44.5288028,3.651958695,0.814189163,4.485393397,7.28E-06,0.009825236,7.351185366,9.438505081,0,4.414963669,7.23480771,16.99405598,176.6943168,134.7292243,43.90216626
31,g24545,195.898434,3.554807945,0.911693493,3.899126158,9.65E-05,0.060844929,11.55186272,61.77930598,68.38310489,33.55372388,32.55663469,61.17860153,214.3074635,36.92578741,1242.849421
46,g39815,58.49673533,3.541106464,0.95461903,3.709444662,0.000207714,0.080453462,80.86303902,3.432183666,37.19081143,7.06394187,18.08701927,6.797622392,198.5624253,23.9518621,150.5217129
34,g46332,181.9602268,3.367229211,0.871715223,3.862762886,0.000112112,0.060844929,385.412147,34.32183666,50.38755097,46.79861489,42.5044953,13.59524478,99.71857484,681.6300757,283.2735014
9,g41342,266.5942214,3.342225157,0.688895021,4.851573975,1.22E-06,0.002572196,280.3952132,142.4356221,407.8992222,77.70336057,43.40884626,19.25993011,98.8438505,577.8386733,751.5632748
12,g9727,105.4999136,3.333772448,0.702431394,4.746047055,2.07E-06,0.003485023,45.15728153,114.1201069,165.5590961,15.89386921,3.617403855,37.38692316,179.3184898,118.7613163,269.6847356
1,g47385,180.7795067,3.301244607,0.480964255,6.863804476,6.71E-12,1.27E-07,200.5823435,286.5873361,169.1582068,32.67073115,26.22617795,30.58930076,502.0917716,227.54269,151.5670026
24,g541,35.35691499,3.283692111,0.796909342,4.120534091,3.78E-05,0.029767116,11.55186272,7.722413248,41.98962581,4.414963669,12.66091349,6.797622392,60.35597951,38.92177592,133.7970781
15,g38377,22.60127613,3.063333714,0.691379668,4.430754704,9.39E-06,0.011831886,16.80270941,17.16091833,19.19525751,5.297956403,7.23480771,3.398811196,74.35156896,35.92779316,24.04166248
22,g4509.2,49.41006786,2.883473944,0.684183806,4.214472657,2.50E-05,0.021508413,18.90304808,43.76034174,31.19229346,13.24489101,22.60877409,5.664685327,55.10763346,61.87564377,192.3332998
38,g1032,88.28014312,2.640890658,0.688695749,3.834626048,0.000125755,0.061036269,29.40474146,93.52700489,25.19377549,18.54284741,13.56526446,57.77979033,292.1579298,156.6850979,107.6648363
45,g3920,44.08692065,2.506910522,0.676010886,3.708387797,0.000208583,0.080453462,25.20406411,34.32183666,14.39644313,7.946934604,18.99137024,21.52580424,28.86590324,134.7292243,110.8007053
50,g14480,23.83572914,2.191796693,0.595240926,3.682200935,0.000231229,0.087404579,16.80270941,12.87068875,22.7943683,7.06394187,10.85221156,11.32937065,57.73180649,25.94785061,49.12861463
5,g22729,103.5828208,2.101154449,0.389508903,5.394368225,6.88E-08,0.00021661,171.1776021,104.6816018,118.7706559,27.37277475,42.5044953,31.72223783,177.5690412,104.7893967,153.6575819
10,g2115,87.60073684,1.743365467,0.361988665,4.816077506,1.46E-06,0.002767105,71.41151498,70.35976515,99.57539835,52.09657129,30.74793277,43.05160848,165.3229004,137.7232071,118.117733
3,g16894,140.3397667,1.55884772,0.283465121,5.4992576,3.81E-08,0.00021661,157.5254007,191.3442394,190.7528715,62.6924841,49.73930301,71.37503512,188.9404576,187.6229198,163.065189
4,g19720,8958.115935,1.551998837,0.285230798,5.44120357,5.29E-08,0.00021661,10349.41883,9365.571178,14733.55984,4647.190758,2949.992844,4145.416722,9607.097434,13163.54421,11661.25159
11,g8386,306.2509763,1.535050892,0.324332247,4.732957971,2.21E-06,0.003485023,447.372138,301.1741167,275.9318268,140.3958447,126.6091349,177.8711193,551.0763346,398.1997075,337.6285644
49,g48362,1877.967049,1.438886029,0.386052306,3.727178953,0.000193635,0.080453462,1552.150282,1293.933242,1975.91182,1273.275522,629.4282708,1352.726856,3703.582859,1790.401692,3330.292898
35,g49852,202.7080101,1.380319949,0.358693505,3.848187741,0.000118995,0.060844929,233.137593,236.8206729,171.557614,120.9700045,99.47860601,107.6290212,224.8041556,205.5868164,424.3876072
36,g6739,184.9315174,1.02509947,0.266402031,3.847941654,0.000119114,0.060844929,166.9769247,146.7258517,170.3579104,125.3849682,116.6612743,147.2818185,287.7843081,211.5747819,291.6358187
47,g43042,135.0361267,-1.111174137,0.299155977,-3.714363821,0.000203716,0.080453462,94.51524042,96.10114264,106.7736199,197.7903724,182.6788947,246.9802802,88.34715841,79.83954035,122.2988917
7,g25416,426.1266562,-1.12460573,0.216290498,-5.199515185,2.00E-07,0.000539484,314.000632,328.631586,387.504261,661.3615576,671.0284151,590.260211,282.535962,268.4604544,331.3568263
43,g11075,72.52159727,-1.236201013,0.330912802,-3.735730393,0.000187171,0.080453462,51.45829756,62.6373519,52.78695816,100.6611716,115.7569234,124.6230772,41.98676835,58.88166101,43.90216626
20,g3456,275.4790733,-1.289158677,0.300692276,-4.287302272,1.81E-05,0.017090903,274.0941972,149.2999895,248.3386441,428.2514759,384.3491596,470.1688821,176.6943168,153.6911152,194.4238792
29,g14239,87.0897257,-1.595198913,0.411595907,-3.875643286,0.000106343,0.060844929,49.35795888,86.66263756,62.38458692,150.1087647,177.2527889,112.1607695,34.11424929,67.86360929,43.90216626
13,g4164,469.0173139,-1.615965854,0.34489758,-4.685349929,2.79E-06,0.004063239,328.7030028,466.7769785,567.4598002,1020.7396,529.0453138,604.9883929,198.5624253,242.5126038,262.3677079
33,g3554,50.17560492,-1.683086287,0.432808025,-3.88875943,0.000100758,0.060844929,49.35795888,51.48275498,64.78399411,100.6611716,51.54800493,65.71034979,20.99338418,21.9558736,25.08695215
21,g28096,251.755927,-1.713163336,0.404666302,-4.23352112,2.30E-05,0.020705451,329.7531721,245.4011321,161.9599853,263.1318347,429.5667078,479.2323786,164.4481761,110.7773622,81.53259449
44,g29399,120.4594706,-1.916416833,0.513160453,-3.734537262,0.000188061,0.080453462,139.6725219,47.1925254,157.1611709,194.2584014,157.3570677,233.3850355,32.36480061,78.84154609,43.90216626
54,g15854,36.65402428,-1.991668342,0.549507929,-3.624457874,0.000289568,0.099506167,15.75254007,18.01896424,27.59318268,108.6081063,56.97411071,48.71629381,13.12086511,14.96991382,26.13224182
53,g21088,31.11310518,-2.073795655,0.568955558,-3.644916768,0.000267478,0.09538379,17.85287875,25.74137749,17.99555392,77.70336057,35.26968759,63.44447566,13.12086511,7.983954035,20.90579346
42,g10148,180.8931249,-2.098600683,0.560850381,-3.741819129,0.000182693,0.080453462,273.0440279,248.8333158,94.77658397,291.3876021,289.3923084,239.0497208,38.48787099,122.7532933,30.31340051
52,g5404,42.34190153,-2.172996857,0.593107269,-3.663750171,0.000248549,0.090338083,28.35457212,22.30919383,29.99258986,109.491099,28.93923084,107.6290212,23.6175572,12.97392531,17.76992444
37,g7423,49.50495977,-2.200347542,0.568404495,-3.871094548,0.000108348,0.060844929,35.70575749,29.17356116,20.39496111,101.5441644,55.16540879,139.351259,21.86810852,32.93381039,9.407607056
48,g4325,22.30160595,-2.400026682,0.645503725,-3.718067905,0.000200752,0.080453462,5.25084669,15.4448265,13.19673954,40.61766575,57.87846168,41.91867142,12.24614077,9.979942543,4.181158692
8,g46367,400.4340702,-2.483746933,0.49964606,-4.971012747,6.66E-07,0.001573521,228.9369157,169.8930914,93.57688038,1157.603474,1026.438344,455.4407003,128.5844781,252.4925463,90.94020154
27,g20457,48.94843734,-2.506877473,0.623366781,-4.021512776,5.78E-05,0.0404779,48.30778955,111.5459691,45.58873659,111.2570845,44.31319722,44.18454555,7.872519066,15.96790807,11.4981864
26,g49704,35.44541594,-2.528974428,0.619967218,-4.079206697,4.52E-05,0.032849395,9.451524042,6.006321415,26.39347908,76.82036784,104.9047118,54.38097914,10.49669209,16.96590232,13.58876575
17,g8182,45.18968549,-3.037718041,0.694592395,-4.373382232,1.22E-05,0.013600913,48.30778955,32.60574482,14.39644313,54.74554949,161.8788225,61.17860153,19.2439355,5.987965526,8.362317383
32,g34206,136.1732087,-3.342673686,0.864347882,-3.867278161,0.000110057,0.060844929,11.55186272,193.9183771,151.1626529,57.39452769,315.6184863,418.0537771,37.61314665,10.9779368,29.26811084
28,g44997,190.2993205,-3.456093386,0.874156398,-3.953632776,7.70E-05,0.051957124,53.55863624,708.745927,76.78103005,213.6842416,483.8277656,103.0972729,17.49448681,41.91575868,13.58876575
55,g26662,84.2710371,-3.611313321,0.995673541,-3.627005412,0.000286727,0.099506167,13.65220139,31.74769891,20.39496111,49.44759309,10.85221156,580.0637775,21.86810852,19.95988509,10.45289673
41,g40438,64.48995998,-4.10076439,1.088780728,-3.766382233,0.00016563,0.076351462,9.451524042,0.858045916,11.99703595,204.8543142,5.426105782,317.2223783,19.2439355,2.993982763,8.362317383
19,g25818,13.67408746,-5.40190956,1.24928409,-4.324004125,1.53E-05,0.0152416,2.100338676,0,0,46.79861489,26.22617795,45.31748261,2.624173022,0,0
23,g27976,14.45601835,-5.441974075,1.298044102,-4.192441588,2.76E-05,0.022677383,17.85287875,5.148275498,21.5946647,13.24489101,35.26968759,35.12104903,0.874724341,0.997994254,0
40,g35900,36.34673584,-5.499029656,1.440037089,-3.81867224,0.000134172,0.063396218,4.200677352,3.432183666,52.78695816,166.0026339,0.904350964,94.03377642,2.624173022,0,3.135869019
30,g20767,21.42438456,-7.445806295,1.933507692,-3.850931821,0.000117669,0.060844929,9.451524042,0.858045916,0,166.0026339,0.904350964,14.72818185,0.874724341,0,0