g21214	AT4G03490.3	24.8	624	390	13	1	600	1	569	9.6e-38	156.8	84.4	AT4G03490.3 | Ankyrin repeat family protein | Chr4:1549345-1552814 REVERSE LENGTH=710 | 201606
g21214	AT4G03490.4	24.9	642	393	14	1	608	1	587	9.6e-38	156.8	85.5	AT4G03490.4 | Ankyrin repeat family protein | Chr4:1550748-1552814 REVERSE LENGTH=623 | 201606
g20727	AT3G13080.1	66.0	1508	464	13	11	1476	13	1514	0.0e+00	1875.1	99.2	AT3G13080.1 | multidrug resistance-associated protein 3 | Chr3:4196019-4201250 REVERSE LENGTH=1514 | 201606
g20727	AT3G13080.5	65.9	1477	456	13	11	1445	13	1483	0.0e+00	1827.4	97.1	AT3G13080.5 | multidrug resistance-associated protein 3 | Chr3:4196119-4201250 REVERSE LENGTH=1510 | 201606
g3314	AT1G06840.1	70.5	945	267	4	15	958	20	953	2.4e-249	860.1	98.4	AT1G06840.1 | Leucine-rich repeat protein kinase family protein | Chr1:2097854-2103208 REVERSE LENGTH=953 | 201606
g46367	AT4G30150.1	44.3	2088	975	34	47	2115	91	2008	0.0e+00	1571.6	87.9	AT4G30150.1 | Urb2/Npa2 family protein | Chr4:14742452-14749764 FORWARD LENGTH=2009 | 201606
g46367	AT4G30150.2	44.0	2111	986	35	24	2115	35	1968	0.0e+00	1570.8	88.8	AT4G30150.2 | Urb2/Npa2 family protein | Chr4:14742452-14749764 FORWARD LENGTH=1969 | 201606
g25138	AT2G39260.1	74.7	1098	258	9	1	1094	79	1160	0.0e+00	1382.9	98.2	AT2G39260.1 | regulator of nonsense transcripts UPF2 | Chr2:16392288-16399588 REVERSE LENGTH=1181 | 201606
g20718	AT3G13080.1	68.9	1509	448	8	11	1505	13	1514	0.0e+00	2004.9	99.2	AT3G13080.1 | multidrug resistance-associated protein 3 | Chr3:4196019-4201250 REVERSE LENGTH=1514 | 201606
g20718	AT3G13080.5	68.8	1478	440	8	11	1474	13	1483	0.0e+00	1957.6	97.1	AT3G13080.5 | multidrug resistance-associated protein 3 | Chr3:4196119-4201250 REVERSE LENGTH=1510 | 201606
g25818	AT1G53350.1	29.1	495	299	14	163	616	400	883	2.7e-39	161.8	70.2	AT1G53350.1 | Disease resistance protein (CC-NBS-LRR class) family | Chr1:19903899-19906912 FORWARD LENGTH=906 | 201606
g49708	AT4G00060.1	57.8	1556	551	17	4	1555	2	1455	0.0e+00	1585.9	98.9	AT4G00060.1 | Nucleotidyltransferase family protein | Chr4:21437-27996 FORWARD LENGTH=1481 | 201606
g49708	AT4G00060.3	57.8	1556	551	17	4	1555	2	1455	0.0e+00	1585.9	98.9	AT4G00060.3 | Nucleotidyltransferase family protein | Chr4:21437-27996 FORWARD LENGTH=1481 | 201606
g49708	AT4G00060.4	57.8	1556	551	17	4	1555	2	1455	0.0e+00	1585.9	98.9	AT4G00060.4 | Nucleotidyltransferase family protein | Chr4:21437-27996 FORWARD LENGTH=1481 | 201606
g25474	AT1G09155.1	47.7	256	115	4	2	248	35	280	2.7e-56	216.9	98.8	AT1G09155.1 | phloem protein 2-B15 | Chr1:2949831-2950842 REVERSE LENGTH=289 | 201606
g24711	AT1G08980.1	58.9	392	117	6	1	353	1	387	1.5e-124	444.5	74.6	AT1G08980.1 | amidase 1 | Chr1:2884455-2886430 FORWARD LENGTH=425 | 201606
g40438	AT4G23650.1	68.3	357	71	3	1	315	71	427	7.2e-135	478.4	88.2	AT4G23650.1 | calcium-dependent protein kinase 6 | Chr4:12324967-12327415 REVERSE LENGTH=529 | 201606
g26870	AT3G02100.1	38.6	464	237	9	6	436	13	461	2.8e-88	323.9	98.6	AT3G02100.1 | UDP-Glycosyltransferase superfamily protein | Chr3:368840-370484 REVERSE LENGTH=464 | 201606
g25416	AT5G27030.1	74.0	1139	264	8	1	1138	1	1108	0.0e+00	1675.2	99.9	AT5G27030.1 | TOPLESS-related 3 | Chr5:9508913-9515263 REVERSE LENGTH=1108 | 201606
g25416	AT5G27030.2	72.4	1165	264	9	1	1138	1	1134	0.0e+00	1661.0	99.9	AT5G27030.2 | TOPLESS-related 3 | Chr5:9508913-9515263 REVERSE LENGTH=1134 | 201606
