ID=g494	AT5G27700.1	84.0	81	13	0	1	81	1	81	2.0e-35	146.0	97.6	AT5G27700.1 | Ribosomal protein S21e | Chr5:9807541-9808048 REVERSE LENGTH=82 | 201606
ID=g494	AT3G53890.1	79.3	82	17	0	1	82	1	82	2.2e-34	142.5	98.8	AT3G53890.1 | Ribosomal protein S21e | Chr3:19955582-19956049 REVERSE LENGTH=82 | 201606
ID=g494	AT3G53890.2	79.3	82	17	0	1	82	1	82	2.2e-34	142.5	98.8	AT3G53890.2 | Ribosomal protein S21e | Chr3:19955582-19956049 REVERSE LENGTH=82 | 201606
ID=g20126	AT5G58770.1	54.9	295	133	0	68	362	14	308	2.2e-91	334.0	81.0	AT5G58770.1 | Undecaprenyl pyrophosphate synthetase family protein | Chr5:23734396-23735495 FORWARD LENGTH=310 | 201606
ID=g33263	AT5G02500.1	87.3	622	79	0	3	624	2	623	2.0e-290	996.5	69.7	AT5G02500.1 | heat shock cognate protein 70-1 | Chr5:554055-556334 REVERSE LENGTH=651 | 201606
ID=g33263	AT3G12580.1	83.0	623	106	0	3	625	2	624	3.7e-289	992.3	69.8	AT3G12580.1 | heat shock protein 70 | Chr3:3991487-3993689 REVERSE LENGTH=650 | 201606
ID=g33263	AT5G02490.1	81.4	618	115	0	3	620	2	619	5.0e-286	981.9	69.3	AT5G02490.1 | Heat shock protein 70 (Hsp 70) family protein | Chr5:550296-552565 REVERSE LENGTH=653 | 201606
ID=g33263	AT3G09440.1	84.9	621	94	0	3	623	2	622	6.1e-284	974.9	69.6	AT3G09440.1 | Heat shock protein 70 (Hsp 70) family protein | Chr3:2903434-2905632 REVERSE LENGTH=649 | 201606
ID=g33263	AT3G09440.2	84.9	621	94	0	3	623	2	622	6.1e-284	974.9	69.6	AT3G09440.2 | Heat shock protein 70 (Hsp 70) family protein | Chr3:2903434-2905632 REVERSE LENGTH=649 | 201606
ID=g33263	AT3G09440.3	84.9	621	94	0	3	623	2	622	6.1e-284	974.9	69.6	AT3G09440.3 | Heat shock protein 70 (Hsp 70) family protein | Chr3:2903434-2905632 REVERSE LENGTH=649 | 201606
ID=g33263	AT3G09440.4	84.9	621	94	0	3	623	2	622	6.1e-284	974.9	69.6	AT3G09440.4 | Heat shock protein 70 (Hsp 70) family protein | Chr3:2903434-2905632 REVERSE LENGTH=649 | 201606
ID=g26870	AT3G02100.1	38.6	464	237	9	6	436	13	461	2.8e-88	323.9	98.6	AT3G02100.1 | UDP-Glycosyltransferase superfamily protein | Chr3:368840-370484 REVERSE LENGTH=464 | 201606
ID=g49380	AT1G01770.1	69.2	639	183	7	1	633	1	631	4.9e-259	891.7	99.7	AT1G01770.1 | propionyl-CoA carboxylase | Chr1:278759-282490 FORWARD LENGTH=632 | 201606
