g37274	AT1G17860.1	40.0	185	84	5	5	164	2	184	1.1e-28	124.8	84.7	AT1G17860.1 | Kunitz family trypsin and protease inhibitor protein | Chr1:6149343-6149933 FORWARD LENGTH=196 | 201606
g2115	AT2G31570.1	75.3	166	41	0	39	204	2	167	1.0e-72	271.2	81.0	AT2G31570.1 | glutathione peroxidase 2 | Chr2:13438211-13439775 REVERSE LENGTH=169 | 201606
g2115	AT2G43350.1	63.9	208	61	3	7	204	3	206	7.2e-71	265.0	96.6	AT2G43350.1 | glutathione peroxidase 3 | Chr2:18009195-18010533 REVERSE LENGTH=206 | 201606
g2115	AT2G43350.2	63.9	208	61	3	7	204	3	206	7.2e-71	265.0	96.6	AT2G43350.2 | glutathione peroxidase 3 | Chr2:18009195-18010533 REVERSE LENGTH=206 | 201606
g15411	AT3G52905.1	37.1	175	97	3	1	175	1	162	7.8e-22	102.8	51.6	AT3G52905.1 | Polynucleotidyl transferase%2C ribonuclease H-like superfamily protein | Chr3:19614142-19615471 REVERSE LENGTH=170 | 201606
g7810	AT5G48760.1	89.8	206	21	0	1	206	1	206	1.3e-104	377.1	99.5	AT5G48760.1 | Ribosomal protein L13 family protein | Chr5:19771315-19772686 REVERSE LENGTH=206 | 201606
g7810	AT5G48760.2	89.8	206	21	0	1	206	1	206	1.3e-104	377.1	99.5	AT5G48760.2 | Ribosomal protein L13 family protein | Chr5:19771315-19772686 REVERSE LENGTH=206 | 201606
g7810	AT4G13170.1	88.8	206	23	0	1	206	1	206	2.5e-103	372.9	99.5	AT4G13170.1 | Ribosomal protein L13 family protein | Chr4:7655133-7656542 REVERSE LENGTH=206 | 201606
g7810	AT3G07110.1	87.4	206	26	0	1	206	1	206	4.2e-103	372.1	99.5	AT3G07110.1 | Ribosomal protein L13 family protein | Chr3:2252092-2253332 FORWARD LENGTH=206 | 201606
g7810	AT3G24830.1	87.4	206	26	0	1	206	1	206	1.2e-102	370.5	99.5	AT3G24830.1 | Ribosomal protein L13 family protein | Chr3:9064613-9065871 FORWARD LENGTH=206 | 201606
g7810	AT3G07110.2	87.0	207	26	1	1	206	1	207	1.0e-101	367.5	99.5	AT3G07110.2 | Ribosomal protein L13 family protein | Chr3:2252092-2253332 FORWARD LENGTH=207 | 201606
