ID=g49223	AT5G24090.1	60.0	290	115	1	12	301	14	302	2.8e-103	373.2	96.0	AT5G24090.1 | chitinase A | Chr5:8143805-8145153 REVERSE LENGTH=302 | 201606
ID=g26018	AT3G22910.1	68.3	940	288	4	23	958	81	1014	0.0e+00	1243.8	95.2	AT3G22910.1 | ATPase E1-E2 type family protein / haloacid dehalogenase-like hydrolase family protein | Chr3:8116335-8119388 REVERSE LENGTH=1017 | 201606
ID=g47014	AT4G34131.1	52.8	470	205	7	1	461	17	478	5.7e-140	495.7	98.5	AT4G34131.1 | UDP-glucosyl transferase 73B3 | Chr4:16343268-16344713 REVERSE LENGTH=481 | 201606
ID=g47014	AT2G15480.1	52.5	472	206	7	1	462	17	480	1.7e-139	494.2	98.7	AT2G15480.1 | UDP-glucosyl transferase 73B5 | Chr2:6758817-6760452 FORWARD LENGTH=484 | 201606
ID=g47014	AT2G15490.3	53.2	472	203	8	1	462	14	477	2.0e-137	487.3	98.7	AT2G15490.3 | UDP-glycosyltransferase 73B4 | Chr2:6761750-6763398 FORWARD LENGTH=481 | 201606
ID=g47014	AT2G15490.1	52.8	475	203	8	1	462	14	480	4.5e-137	486.1	98.7	AT2G15490.1 | UDP-glycosyltransferase 73B4 | Chr2:6761750-6763398 FORWARD LENGTH=484 | 201606
ID=g21568	AT3G16520.3	28.3	466	304	11	4	450	6	460	1.8e-45	181.8	98.2	AT3G16520.3 | UDP-glucosyl transferase 88A1 | Chr3:5619355-5620833 REVERSE LENGTH=462 | 201606
ID=g9724.2	AT5G13170.1	46.5	288	107	6	1	251	1	278	8.6e-56	215.3	93.3	AT5G13170.1 | senescence-associated gene 29 | Chr5:4181331-4183171 REVERSE LENGTH=292 | 201606
ID=g24711	AT1G08980.1	58.9	392	117	6	1	353	1	387	1.5e-124	444.5	74.6	AT1G08980.1 | amidase 1 | Chr1:2884455-2886430 FORWARD LENGTH=425 | 201606
