acsaID=g49223	VIT_16s0050g02220.t01	65.9	290	97	2	12	301	89	376	8.5e-112	400.6	96.0	VIT_16s0050g02220.t01 pep chromosome:12X:16:19180654:19188753:-1 gene:VIT_16s0050g02220 transcript:VIT_16s0050g02220.t01 gene_biotype:protein_coding transcript_biotype:protein_coding
acsaID=g26018	VIT_05s0020g04380.t01	77.6	940	202	4	25	957	75	1012	0.0e+00	1411.7	94.9	VIT_05s0020g04380.t01 pep chromosome:12X:5:6140681:6143903:-1 gene:VIT_05s0020g04380 transcript:VIT_05s0020g04380.t01 gene_biotype:protein_coding transcript_biotype:protein_coding description:Calcium-transporting ATPase [Source:UniProtKB/TrEMBL;Acc:F6HDV5]
acsaID=g47014	VIT_03s0063g00040.t01	59.4	466	183	3	1	464	16	477	1.9e-166	582.8	99.1	VIT_03s0063g00040.t01 pep chromosome:12X:3:3587098:3588547:-1 gene:VIT_03s0063g00040 transcript:VIT_03s0063g00040.t01 gene_biotype:protein_coding transcript_biotype:protein_coding description:Glycosyltransferase [Source:UniProtKB/TrEMBL;Acc:F6HQ86]
acsaID=g21568	VIT_16s0050g01610.t01	35.3	479	267	16	2	449	3	469	9.0e-57	218.4	98.5	VIT_16s0050g01610.t01 pep chromosome:12X:16:18525648:18527276:1 gene:VIT_16s0050g01610 transcript:VIT_16s0050g01610.t01 gene_biotype:protein_coding transcript_biotype:protein_coding description:Glycosyltransferase [Source:UniProtKB/TrEMBL;Acc:F6H6M2]
acsaID=g9724.2	VIT_17s0000g00830.t01	52.4	191	88	1	16	206	51	238	9.4e-46	181.0	71.0	VIT_17s0000g00830.t01 pep chromosome:12X:17:551030:552885:1 gene:VIT_17s0000g00830 transcript:VIT_17s0000g00830.t01 gene_biotype:protein_coding transcript_biotype:protein_coding description:Bidirectional sugar transporter SWEET [Source:UniProtKB/TrEMBL;Acc:D7SH34]
acsaID=g24711	VIT_14s0128g00320.t01	71.1	388	72	3	1	353	1	383	4.3e-155	545.0	74.6	VIT_14s0128g00320.t01 pep chromosome:12X:14:2963279:2966189:1 gene:VIT_14s0128g00320 transcript:VIT_14s0128g00320.t01 gene_biotype:protein_coding transcript_biotype:protein_coding
acsaID=g21825	VIT_10s0071g00450.t01	40.5	353	164	10	3	346	153	468	2.1e-53	206.8	96.4	VIT_10s0071g00450.t01 pep chromosome:12X:10:16817906:16820444:-1 gene:VIT_10s0071g00450 transcript:VIT_10s0071g00450.t01 gene_biotype:protein_coding transcript_biotype:protein_coding