g10417	4	78.1682887185201	6.86144429647447	1.33100849259228	5.15507176299911	2.53533814701485e-07	0.00105622187204639	96.0240322685452	3.60418812707646	2.48378798791152	1.81868207653829	2.80211624046565	2.3527574888569	0	0	0	1121.02026670326	4.00968455573256	1.33886592931116	2.56239011564001	1.93332655605129	4.88466704419434	5.85785440274229	NA	XP_024042308.1	81	121	20	2	1	119	60	179	1e-48	99.2	XP_024042308.1 HVA22-like protein c [Citrus clementina]	citrus clementina	citrus clementina;citrus;aurantioideae;rutaceae;sapindales;malvids;rosids;pentapetalae;gunneridae;eudicotyledons;mesangiospermae;magnoliophyta;spermatophyta;euphyllophyta;tracheophyta;embryophyta;streptophytina;streptophyta;viridiplantae;eukaryota;cellular organisms;root	/home/CAM/smcevoy/acsa/analysis/annotation/entap//similarity_search/DIAMOND/blastp_acsa_structural_annotation_final_complete.out	No	Yes				NA			3847.GLYMA02G11770.1	2.3e-42	176.8		Viridiplantae	virNOG[6]	1BRH0@strNOG,1E3BH@virNOG,COG5052@NOG,KOG1725@euNOG		GO:0006950-response to stress(L=2),GO:0006970-response to osmotic stress(L=3),GO:0006972-hyperosmotic response(L=4),GO:0008150-biological_process(L=0),GO:0009414-response to water deprivation(L=3),GO:0009415-response to water(L=3),GO:0009628-response to abiotic stimulus(L=2),GO:0009651-response to salt stress(L=4),GO:0009719-response to endogenous stimulus(L=2),GO:0009725-response to hormone(L=3),GO:0009737-response to abscisic acid(L=4),GO:0010033-response to organic substance(L=3),GO:0010035-response to inorganic substance(L=3),GO:0033993-response to lipid(L=4),GO:0042221-response to chemical(L=2),GO:0042538-hyperosmotic salinity response(L=5),GO:0050896-response to stimulus(L=1),GO:0097305-response to alcohol(L=4),GO:1901700-response to oxygen-containing compound(L=3),	GO:0005575-cellular_component(L=0),GO:0005911-cell-cell junction(L=2),GO:0009506-plasmodesma(L=3),GO:0016020-membrane(L=1),GO:0016021-integral component of membrane(L=4),GO:0030054-cell junction(L=1),GO:0031224-intrinsic component of membrane(L=3),GO:0044425-membrane part(L=2),GO:0055044-symplast(L=1),		NA
g157	12	188.017203788073	-6.66767461756277	1.54370687304553	-4.31926211768968	1.56551754339111e-05	0.0232926645920262	7.63827529408882	2.70314109530734	3.72568198186728	2.72802311480744	0	19.9984386552837	593.585016638506	2.05322920700727	0	3.1430474767381	0.801936911146511	4.68603075258907	776.404205038924	561.631364532901	994.029743493549	35.1471264164537	NA		NA	NA	NA	NA	NA	NA	NA	NA	NA	NA										NA				NA	NA									NA
g21568	9	10.46812113287	-2.29315261213577	0.514814789808387	-4.45432543418048	8.41573689377619e-06	0.0164057526028928	3.27354655460949	5.40628219061469	3.72568198186728	4.54670519134573	2.80211624046565	5.88189372214225	15.4769099430285	12.3193752420436	18.3331298252529	3.1430474767381	4.00968455573256	5.35546371724465	12.8119505782001	16.433275726436	21.1668905248422	32.8039846553568	NA	sp|A0A0M4KE44|CGT_MANIN	50	458	216	7	3	451	12	465	8.2e-124	98.7	sp|A0A0M4KE44|CGT_MANIN UDP-glycosyltransferase 13 OS=Mangifera indica GN=CGT PE=1 SV=1	mangifera indica	mangifera indica;mangifera;anacardiaceae;sapindales;malvids;rosids;pentapetalae;gunneridae;eudicotyledons;mesangiospermae;magnoliophyta;spermatophyta;euphyllophyta;tracheophyta;embryophyta;streptophytina;streptophyta;viridiplantae;eukaryota;cellular organisms;root	/home/CAM/smcevoy/acsa/analysis/annotation/entap//similarity_search/DIAMOND/blastp_acsa_structural_annotation_final_uniprot_sprot.out	No	Yes			GO:0035251-UDP-glucosyltransferase activity(L=5),GO:0042285-xylosyltransferase activity(L=5),	NA	|EMBL; KT200208; ALD83754.1; -; mRNA.|SMR; A0A0M4KE44; -.|SABIO-RK; A0A0M4KE44; -.|InterPro; IPR002213; UDP_glucos_trans.|InterPro; IPR035595; UDP_glycos_trans_CS.|Pfam; PF00201; UDPGT; 1.|PROSITE; PS00375; UDPGT; 1.	|-!- FUNCTION: Benzophenone C-glycosyltransferase involved in the|    biosynthesis of mangiferin. Exhibits a robust regio- and|    stereospecific C-glycosylation activity toward over 35 substrates|    from 18 structurally different types with UDP-glucose. Also able|    to produce O- and N-glycosides and to use UDP-xylose as sugar|    donor. Generates only C-glycosides with 2,4,6-tri-hydroxy|    acceptors at the A ring, both C- and O- glycosides with 2,4-di-|    hydroxyl acceptors at the A ring, and only O-glycosides with 2- or|    4-mono-hydroxy acceptors at the A ring.|    {ECO:0000269|PubMed:26331569}.|-!- BIOPHYSICOCHEMICAL PROPERTIES:|    Kinetic parameters:|      KM=47.0 uM for maclurin {ECO:0000269|PubMed:26331569};|      KM=159.2 uM for norathyriol {ECO:0000269|PubMed:26331569};|      Note=kcat is 1.6 sec(-1) with maclurin as substrate. kcat is 0.8|      sec(-1) with norathyriol as substrate.|      {ECO:0000269|PubMed:26331569};|    pH dependence:|      Optimum pH is 9.0. {ECO:0000269|PubMed:26331569};|    Temperature dependence:|      Optimum temperature is 45 degrees Celsius.|      {ECO:0000269|PubMed:26331569};|-!- SIMILARITY: Belongs to the UDP-glycosyltransferase family.|    {ECO:0000305}.	3694.POPTR_0004s12460.1	1.9e-150	537.7		Viridiplantae	virNOG[6]	1BDMT@strNOG,1DRJ1@virNOG,COG1819@NOG,KOG1192@euNOG		GO:0006082-organic acid metabolic process(L=3),GO:0006139-nucleobase-containing compound metabolic process(L=3),GO:0006399-tRNA metabolic process(L=7),GO:0006412-translation(L=5),GO:0006418-tRNA aminoacylation for protein translation(L=6),GO:0006426-glycyl-tRNA aminoacylation(L=7),GO:0006520-cellular amino acid metabolic process(L=3),GO:0006725-cellular aromatic compound metabolic process(L=3),GO:0006807-nitrogen compound metabolic process(L=2),GO:0008150-biological_process(L=0),GO:0008152-metabolic process(L=1),GO:0009058-biosynthetic process(L=2),GO:0009059-macromolecule biosynthetic process(L=4),GO:0009987-cellular process(L=1),GO:0010467-gene expression(L=4),GO:0016070-RNA metabolic process(L=4),GO:0019538-protein metabolic process(L=3),GO:0019752-carboxylic acid metabolic process(L=5),GO:0034641-cellular nitrogen compound metabolic process(L=3),GO:0034645-cellular macromolecule biosynthetic process(L=4),GO:0034660-ncRNA metabolic process(L=5),GO:0043038-amino acid activation(L=4),GO:0043039-tRNA aminoacylation(L=5),GO:0043170-macromolecule metabolic process(L=3),GO:0043436-oxoacid metabolic process(L=4),GO:0044237-cellular metabolic process(L=2),GO:0044238-primary metabolic process(L=2),GO:0044249-cellular biosynthetic process(L=3),GO:0044260-cellular macromolecule metabolic process(L=3),GO:0044267-cellular protein metabolic process(L=4),GO:0044281-small molecule metabolic process(L=3),GO:0044710-single-organism metabolic process(L=2),GO:0046483-heterocycle metabolic process(L=3),GO:0071704-organic substance metabolic process(L=2),GO:0090304-nucleic acid metabolic process(L=4),GO:1901360-organic cyclic compound metabolic process(L=3),GO:1901564-organonitrogen compound metabolic process(L=3),GO:1901576-organic substance biosynthetic process(L=3),	GO:0005575-cellular_component(L=0),GO:0005622-intracellular(L=3),GO:0005623-cell(L=1),GO:0005737-cytoplasm(L=4),GO:0044424-intracellular part(L=3),GO:0044464-cell part(L=2),	GO:0000166-nucleotide binding(L=3),GO:0001882-nucleoside binding(L=3),GO:0001883-purine nucleoside binding(L=4),GO:0003674-molecular_function(L=0),GO:0003824-catalytic activity(L=1),GO:0004812-aminoacyl-tRNA ligase activity(L=5),GO:0004820-glycine-tRNA ligase activity(L=6),GO:0005488-binding(L=1),GO:0005524-ATP binding(L=7),GO:0016740-transferase activity(L=2),GO:0016757-transferase activity, transferring glycosyl groups(L=3),GO:0016758-transferase activity, transferring hexosyl groups(L=4),GO:0016874-ligase activity(L=2),GO:0016875-ligase activity, forming carbon-oxygen bonds(L=3),GO:0016876-ligase activity, forming aminoacyl-tRNA and related compounds(L=4),GO:0017076-purine nucleotide binding(L=4),GO:0030554-adenyl nucleotide binding(L=5),GO:0032549-ribonucleoside binding(L=4),GO:0032550-purine ribonucleoside binding(L=5),GO:0032553-ribonucleotide binding(L=3),GO:0032555-purine ribonucleotide binding(L=4),GO:0032559-adenyl ribonucleotide binding(L=6),GO:0035639-purine ribonucleoside triphosphate binding(L=4),GO:0036094-small molecule binding(L=2),GO:0043167-ion binding(L=2),GO:0043168-anion binding(L=3),GO:0097159-organic cyclic compound binding(L=2),GO:1901265-nucleoside phosphate binding(L=3),GO:1901363-heterocyclic compound binding(L=2),	NA
g21825	18	25.443515679932	-3.53003146156418	0.879926514438276	-4.01173439331768	6.02742919071471e-05	0.0697507500236596	0	0.901047031769114	9.93515195164608	30.917595301151	72.8550222521068	0	62.8180462393511	41.0645841401453	37.7446790519913	5.23841246123017	1.60387382229302	16.7358241163895	30.7486813876802	53.1664802914106	29.3080022651661	14.0588505665815	NA	XP_021648749.1	32.4	564	146	11	2	356	331	868	6.5e-54	99.4	XP_021648749.1 G-type lectin S-receptor-like serine/threonine-protein kinase At1g11300 isoform X1 [Hevea brasiliensis]	hevea brasiliensis	hevea brasiliensis;hevea;micrandreae;crotonoideae;euphorbiaceae;malpighiales;fabids;rosids;pentapetalae;gunneridae;eudicotyledons;mesangiospermae;magnoliophyta;spermatophyta;euphyllophyta;tracheophyta;embryophyta;streptophytina;streptophyta;viridiplantae;eukaryota;cellular organisms;root	/home/CAM/smcevoy/acsa/analysis/annotation/entap//similarity_search/DIAMOND/blastp_acsa_structural_annotation_final_complete.out	No	Yes				NA			29760.VIT_19s0014g04050.t01	1.9e-52	211.8		Viridiplantae	virNOG[6]	0J9UU@euNOG,1BWS6@strNOG,1E92E@virNOG,COG0515@NOG		GO:0000003-reproduction(L=1),GO:0006464-cellular protein modification process(L=5),GO:0006468-protein phosphorylation(L=6),GO:0006793-phosphorus metabolic process(L=3),GO:0006796-phosphate-containing compound metabolic process(L=4),GO:0007154-cell communication(L=2),GO:0008037-cell recognition(L=3),GO:0008150-biological_process(L=0),GO:0008152-metabolic process(L=1),GO:0009856-pollination(L=4),GO:0009875-pollen-pistil interaction(L=4),GO:0009987-cellular process(L=1),GO:0016310-phosphorylation(L=5),GO:0019538-protein metabolic process(L=3),GO:0022414-reproductive process(L=2),GO:0032501-multicellular organismal process(L=1),GO:0036211-protein modification process(L=4),GO:0043170-macromolecule metabolic process(L=3),GO:0043412-macromolecule modification(L=4),GO:0044237-cellular metabolic process(L=2),GO:0044238-primary metabolic process(L=2),GO:0044260-cellular macromolecule metabolic process(L=3),GO:0044267-cellular protein metabolic process(L=4),GO:0044699-single-organism process(L=1),GO:0044703-multi-organism reproductive process(L=3),GO:0044706-multi-multicellular organism process(L=2),GO:0044707-single-multicellular organism process(L=2),GO:0044763-single-organism cellular process(L=2),GO:0048544-recognition of pollen(L=3),GO:0048610-obsolete cellular process involved in reproduction(L=),GO:0051704-multi-organism process(L=1),GO:0071704-organic substance metabolic process(L=2),		GO:0000166-nucleotide binding(L=3),GO:0001882-nucleoside binding(L=3),GO:0001883-purine nucleoside binding(L=4),GO:0003674-molecular_function(L=0),GO:0003824-catalytic activity(L=1),GO:0004672-protein kinase activity(L=5),GO:0004674-protein serine/threonine kinase activity(L=6),GO:0005488-binding(L=1),GO:0005524-ATP binding(L=7),GO:0016301-kinase activity(L=4),GO:0016740-transferase activity(L=2),GO:0016772-transferase activity, transferring phosphorus-containing groups(L=3),GO:0016773-phosphotransferase activity, alcohol group as acceptor(L=4),GO:0017076-purine nucleotide binding(L=4),GO:0030554-adenyl nucleotide binding(L=5),GO:0032549-ribonucleoside binding(L=4),GO:0032550-purine ribonucleoside binding(L=5),GO:0032553-ribonucleotide binding(L=3),GO:0032555-purine ribonucleotide binding(L=4),GO:0032559-adenyl ribonucleotide binding(L=6),GO:0035639-purine ribonucleoside triphosphate binding(L=4),GO:0036094-small molecule binding(L=2),GO:0043167-ion binding(L=2),GO:0043168-anion binding(L=3),GO:0097159-organic cyclic compound binding(L=2),GO:1901265-nucleoside phosphate binding(L=3),GO:1901363-heterocyclic compound binding(L=2),	NA
g22247.4	5	492.066001223286	6.02101271167244	1.16403315253167	5.17254401094784	2.30928083211e-07	0.00105622187204639	804.201270249066	43.2502575249175	9.93515195164608	54.5604622961488	2.80211624046565	9.4110299554276	8.19365820513275	17.4524482595618	1.07841940148547	6712.50172782034	29.6716657124209	40.8354108439905	25.6239011564001	36.7332045649746	54.5454486601702	22.2598467304207	NA	sp|Q96386|MT3_CARPA	75.4	65	15	1	1	65	1	64	1.4e-22	95.6	sp|Q96386|MT3_CARPA Metallothionein-like protein type 3 OS=Carica papaya PE=3 SV=1	carica papaya	carica papaya;carica;caricaceae;brassicales;malvids;rosids;pentapetalae;gunneridae;eudicotyledons;mesangiospermae;magnoliophyta;spermatophyta;euphyllophyta;tracheophyta;embryophyta;streptophytina;streptophyta;viridiplantae;eukaryota;cellular organisms;root	/home/CAM/smcevoy/acsa/analysis/annotation/entap//similarity_search/DIAMOND/blastp_acsa_structural_annotation_final_uniprot_sprot.out	No	Yes	GO:0006878-cellular copper ion homeostasis(L=9),	GO:0005623-cell(L=1),	GO:0046872-metal ion binding(L=4),	NA	|EMBL; Y08322; CAA69624.1; -; mRNA.|PIR; T09787; T09787.|UniGene; Cpp.22824; -.|InterPro; IPR038918; MT3.|PANTHER; PTHR33357; PTHR33357; 1.	|-!- FUNCTION: Metallothioneins have a high content of cysteine|    residues that bind various heavy metals.|-!- SIMILARITY: Belongs to the metallothionein superfamily. Type 15|    family. {ECO:0000305}.	29760.VIT_19s0014g02740.t01	1.9e-17	93.2		Viridiplantae	virNOG[6]	0J4WG@euNOG,0YZRT@NOG,1BWEC@strNOG,1E8KG@virNOG		GO:0006873-cellular ion homeostasis(L=5),GO:0006875-cellular metal ion homeostasis(L=7),GO:0006878-cellular copper ion homeostasis(L=9),GO:0008150-biological_process(L=0),GO:0009987-cellular process(L=1),GO:0019725-cellular homeostasis(L=3),GO:0030003-cellular cation homeostasis(L=6),GO:0042592-homeostatic process(L=3),GO:0044699-single-organism process(L=1),GO:0044763-single-organism cellular process(L=2),GO:0046916-cellular transition metal ion homeostasis(L=8),GO:0048878-chemical homeostasis(L=4),GO:0050801-ion homeostasis(L=5),GO:0055065-metal ion homeostasis(L=7),GO:0055070-copper ion homeostasis(L=9),GO:0055076-transition metal ion homeostasis(L=8),GO:0055080-cation homeostasis(L=6),GO:0055082-cellular chemical homeostasis(L=4),GO:0065007-biological regulation(L=1),GO:0065008-regulation of biological quality(L=2),		GO:0003674-molecular_function(L=0),GO:0005488-binding(L=1),GO:0005507-copper ion binding(L=6),GO:0043167-ion binding(L=2),GO:0043169-cation binding(L=3),GO:0046872-metal ion binding(L=4),GO:0046914-transition metal ion binding(L=5),	NA
g22312	13	64.9414239525839	4.90937605093658	1.13550384526087	4.32352217161248	1.53557697804812e-05	0.0232926645920262	218.236436973966	349.606248326416	1.24189399395576	8.18406934442232	53.2402085688473	227.041097674691	2.73121940171092	2.05322920700727	5.39209700742733	102.672884240111	0.801936911146511	47.5297404905463	3.84358517346002	1.93332655605129	12.2116676104859	2.34314176109692	NA	XP_006444663.1	60.3	383	57	4	1	329	1	342	5.5e-126	81.4	XP_006444663.1 cathepsin B-like protease 2 [Citrus clementina]	citrus clementina	citrus clementina;citrus;aurantioideae;rutaceae;sapindales;malvids;rosids;pentapetalae;gunneridae;eudicotyledons;mesangiospermae;magnoliophyta;spermatophyta;euphyllophyta;tracheophyta;embryophyta;streptophytina;streptophyta;viridiplantae;eukaryota;cellular organisms;root	/home/CAM/smcevoy/acsa/analysis/annotation/entap//similarity_search/DIAMOND/blastp_acsa_structural_annotation_final_complete.out	No	Yes				NA			3694.POPTR_0002s18500.1	4.7e-132	476.5	OSI_19406	Eukaryotes	euNOG[57]	COG4870@NOG,KOG1543@euNOG	4142,4612	GO:0006508-proteolysis(L=4),GO:0008150-biological_process(L=0),GO:0008152-metabolic process(L=1),GO:0019222-regulation of metabolic process(L=3),GO:0019538-protein metabolic process(L=3),GO:0043170-macromolecule metabolic process(L=3),GO:0044238-primary metabolic process(L=2),GO:0050789-regulation of biological process(L=2),GO:0050790-regulation of catalytic activity(L=3),GO:0065007-biological regulation(L=1),GO:0065009-regulation of molecular function(L=2),GO:0071704-organic substance metabolic process(L=2),	GO:0005575-cellular_component(L=0),GO:0005622-intracellular(L=3),GO:0005623-cell(L=1),GO:0005737-cytoplasm(L=4),GO:0005773-vacuole(L=5),GO:0005829-cytosol(L=4),GO:0043226-organelle(L=1),GO:0043227-membrane-bounded organelle(L=2),GO:0043229-intracellular organelle(L=3),GO:0043231-intracellular membrane-bounded organelle(L=4),GO:0044424-intracellular part(L=3),GO:0044444-cytoplasmic part(L=4),GO:0044464-cell part(L=2),	GO:0003674-molecular_function(L=0),GO:0003824-catalytic activity(L=1),GO:0004175-endopeptidase activity(L=5),GO:0004197-cysteine-type endopeptidase activity(L=6),GO:0008233-peptidase activity(L=3),GO:0008234-cysteine-type peptidase activity(L=5),GO:0016787-hydrolase activity(L=2),GO:0070011-peptidase activity, acting on L-amino acid peptides(L=4),	NA
g24711	14	365.955295339101	-1.41779628507466	0.327374618668559	-4.33080698449035	1.48563866951095e-05	0.0232926645920262	144.036048402818	97.3130794310644	244.653116809285	517.415050775145	523.995736967076	444.671165393954	366.8938062965	470.189488404664	294.408496605532	172.867611220596	186.049363385991	595.795338543467	221.646745002861	350.89876992331	503.93481672605	720.516091537302	NA	XP_006433295.1	75.3	388	55	4	2	353	3	385	3e-160	74.4	XP_006433295.1 amidase 1 isoform X1 [Citrus clementina]	citrus clementina	citrus clementina;citrus;aurantioideae;rutaceae;sapindales;malvids;rosids;pentapetalae;gunneridae;eudicotyledons;mesangiospermae;magnoliophyta;spermatophyta;euphyllophyta;tracheophyta;embryophyta;streptophytina;streptophyta;viridiplantae;eukaryota;cellular organisms;root	/home/CAM/smcevoy/acsa/analysis/annotation/entap//similarity_search/DIAMOND/blastp_acsa_structural_annotation_final_complete.out	No	Yes				NA			29760.VIT_14s0128g00320.t01	1.3e-152	545	AMI1	Viridiplantae	virNOG[6]	1BJ6H@strNOG,1DX3T@virNOG,COG0154@NOG,KOG1211@euNOG		GO:0006082-organic acid metabolic process(L=3),GO:0006725-cellular aromatic compound metabolic process(L=3),GO:0006807-nitrogen compound metabolic process(L=2),GO:0008150-biological_process(L=0),GO:0008152-metabolic process(L=1),GO:0009058-biosynthetic process(L=2),GO:0009683-indoleacetic acid metabolic process(L=4),GO:0009684-indoleacetic acid biosynthetic process(L=5),GO:0009850-auxin metabolic process(L=3),GO:0009851-auxin biosynthetic process(L=4),GO:0009987-cellular process(L=1),GO:0010817-regulation of hormone levels(L=3),GO:0016053-organic acid biosynthetic process(L=4),GO:0018130-heterocycle biosynthetic process(L=4),GO:0019438-aromatic compound biosynthetic process(L=4),GO:0019752-carboxylic acid metabolic process(L=5),GO:0032787-monocarboxylic acid metabolic process(L=6),GO:0034641-cellular nitrogen compound metabolic process(L=3),GO:0034754-cellular hormone metabolic process(L=3),GO:0042430-indole-containing compound metabolic process(L=4),GO:0042435-indole-containing compound biosynthetic process(L=5),GO:0042445-hormone metabolic process(L=2),GO:0042446-hormone biosynthetic process(L=3),GO:0043436-oxoacid metabolic process(L=4),GO:0044237-cellular metabolic process(L=2),GO:0044249-cellular biosynthetic process(L=3),GO:0044271-cellular nitrogen compound biosynthetic process(L=4),GO:0044281-small molecule metabolic process(L=3),GO:0044283-small molecule biosynthetic process(L=4),GO:0044710-single-organism metabolic process(L=2),GO:0044711-single-organism biosynthetic process(L=3),GO:0046394-carboxylic acid biosynthetic process(L=5),GO:0046483-heterocycle metabolic process(L=3),GO:0065007-biological regulation(L=1),GO:0065008-regulation of biological quality(L=2),GO:0071704-organic substance metabolic process(L=2),GO:0072330-monocarboxylic acid biosynthetic process(L=6),GO:1901360-organic cyclic compound metabolic process(L=3),GO:1901362-organic cyclic compound biosynthetic process(L=4),GO:1901564-organonitrogen compound metabolic process(L=3),GO:1901566-organonitrogen compound biosynthetic process(L=4),GO:1901576-organic substance biosynthetic process(L=3),	GO:0005575-cellular_component(L=0),GO:0005622-intracellular(L=3),GO:0005623-cell(L=1),GO:0005737-cytoplasm(L=4),GO:0005829-cytosol(L=4),GO:0044424-intracellular part(L=3),GO:0044444-cytoplasmic part(L=4),GO:0044464-cell part(L=2),	GO:0003674-molecular_function(L=0),GO:0003824-catalytic activity(L=1),GO:0004040-amidase activity(L=5),GO:0016787-hydrolase activity(L=2),GO:0016810-hydrolase activity, acting on carbon-nitrogen (but not peptide) bonds(L=3),GO:0016811-hydrolase activity, acting on carbon-nitrogen (but not peptide) bonds, in linear amides(L=4),GO:0016874-ligase activity(L=2),GO:0016879-ligase activity, forming carbon-nitrogen bonds(L=3),GO:0016884-carbon-nitrogen ligase activity, with glutamine as amido-N-donor(L=4),GO:0043864-indoleacetamide hydrolase activity(L=5),	NA
g25966	8	79.9906271557919	-5.85312282496614	1.26990419823504	-4.60910581530563	4.04404483621442e-06	0.0105296817422933	1.09118218486983	1.80209406353823	0	130.945109510757	14.9446199491501	0	321.373482934651	8.21291682802907	309.506368226328	12.5721899069524	0	4.01659778793349	44.8418270237003	292.898973241771	129.44367667115	8.20099616383921	NA		NA	NA	NA	NA	NA	NA	NA	NA	NA	NA										NA			3702.AT3G12800.1	4.9e-16	89.7		Viridiplantae	virNOG[6]	0C2HY@braNOG,1BHW2@strNOG,1DT61@virNOG,COG1028@NOG,KOG0725@euNOG	4146	GO:0006082-organic acid metabolic process(L=3),GO:0006629-lipid metabolic process(L=3),GO:0006631-fatty acid metabolic process(L=4),GO:0008150-biological_process(L=0),GO:0008152-metabolic process(L=1),GO:0009987-cellular process(L=1),GO:0019752-carboxylic acid metabolic process(L=5),GO:0032787-monocarboxylic acid metabolic process(L=6),GO:0043436-oxoacid metabolic process(L=4),GO:0044237-cellular metabolic process(L=2),GO:0044238-primary metabolic process(L=2),GO:0044255-cellular lipid metabolic process(L=3),GO:0044281-small molecule metabolic process(L=3),GO:0044710-single-organism metabolic process(L=2),GO:0055114-oxidation-reduction process(L=3),GO:0071704-organic substance metabolic process(L=2),	GO:0005575-cellular_component(L=0),GO:0005622-intracellular(L=3),GO:0005623-cell(L=1),GO:0005737-cytoplasm(L=4),GO:0005773-vacuole(L=5),GO:0005774-vacuolar membrane(L=6),GO:0005777-peroxisome(L=6),GO:0005886-plasma membrane(L=3),GO:0016020-membrane(L=1),GO:0031090-organelle membrane(L=3),GO:0042579-microbody(L=5),GO:0043226-organelle(L=1),GO:0043227-membrane-bounded organelle(L=2),GO:0043229-intracellular organelle(L=3),GO:0043231-intracellular membrane-bounded organelle(L=4),GO:0044422-organelle part(L=2),GO:0044424-intracellular part(L=3),GO:0044437-vacuolar part(L=5),GO:0044444-cytoplasmic part(L=4),GO:0044446-intracellular organelle part(L=3),GO:0044464-cell part(L=2),GO:0071944-cell periphery(L=3),	GO:0000166-nucleotide binding(L=3),GO:0003674-molecular_function(L=0),GO:0003824-catalytic activity(L=1),GO:0005488-binding(L=1),GO:0008670-2,4-dienoyl-CoA reductase (NADPH) activity(L=5),GO:0016491-oxidoreductase activity(L=2),GO:0016627-oxidoreductase activity, acting on the CH-CH group of donors(L=3),GO:0016628-oxidoreductase activity, acting on the CH-CH group of donors, NAD or NADP as acceptor(L=4),GO:0036094-small molecule binding(L=2),GO:0097159-organic cyclic compound binding(L=2),GO:1901265-nucleoside phosphate binding(L=3),GO:1901363-heterocyclic compound binding(L=2),	NA
g26018	1	14.1224422675758	-21.2021758580567	3.34007049987285	-6.34782285549474	2.18383333821134e-10	4.54892484349423e-06	0	0	0	0	134.501579542351	0	18.2081293447395	16.4258336560581	0	0	0	0	0	19.3332655605129	0	37.4902681775507	NA	XP_024044596.1	78.4	951	199	2	19	963	74	1024	0	96.1	XP_024044596.1 LOW QUALITY PROTEIN: putative calcium-transporting ATPase 13, plasma membrane-type [Citrus clementina]	citrus clementina	citrus clementina;citrus;aurantioideae;rutaceae;sapindales;malvids;rosids;pentapetalae;gunneridae;eudicotyledons;mesangiospermae;magnoliophyta;spermatophyta;euphyllophyta;tracheophyta;embryophyta;streptophytina;streptophyta;viridiplantae;eukaryota;cellular organisms;root	/home/CAM/smcevoy/acsa/analysis/annotation/entap//similarity_search/DIAMOND/blastp_acsa_structural_annotation_final_complete.out	No	No				NA			29760.VIT_05s0020g04300.t01	0	1420.2		Viridiplantae	virNOG[6]	0XNNC@NOG,1BGTK@strNOG,1DUQ7@virNOG,KOG0204@euNOG		GO:0006139-nucleobase-containing compound metabolic process(L=3),GO:0006152-purine nucleoside catabolic process(L=7),GO:0006163-purine nucleotide metabolic process(L=5),GO:0006164-purine nucleotide biosynthetic process(L=7),GO:0006195-purine nucleotide catabolic process(L=7),GO:0006200-obsolete ATP catabolic process(L=),GO:0006355-regulation of transcription, DNA-templated(L=7),GO:0006725-cellular aromatic compound metabolic process(L=3),GO:0006753-nucleoside phosphate metabolic process(L=4),GO:0006754-ATP biosynthetic process(L=8),GO:0006793-phosphorus metabolic process(L=3),GO:0006796-phosphate-containing compound metabolic process(L=4),GO:0006807-nitrogen compound metabolic process(L=2),GO:0006810-transport(L=3),GO:0006811-ion transport(L=4),GO:0006812-cation transport(L=5),GO:0006816-calcium ion transport(L=8),GO:0008150-biological_process(L=0),GO:0008152-metabolic process(L=1),GO:0009056-catabolic process(L=2),GO:0009058-biosynthetic process(L=2),GO:0009116-nucleoside metabolic process(L=4),GO:0009117-nucleotide metabolic process(L=5),GO:0009119-ribonucleoside metabolic process(L=5),GO:0009123-nucleoside monophosphate metabolic process(L=5),GO:0009124-nucleoside monophosphate biosynthetic process(L=5),GO:0009125-nucleoside monophosphate catabolic process(L=5),GO:0009126-purine nucleoside monophosphate metabolic process(L=7),GO:0009127-purine nucleoside monophosphate biosynthetic process(L=7),GO:0009128-purine nucleoside monophosphate catabolic process(L=7),GO:0009141-nucleoside triphosphate metabolic process(L=5),GO:0009142-nucleoside triphosphate biosynthetic process(L=5),GO:0009143-nucleoside triphosphate catabolic process(L=5),GO:0009144-purine nucleoside triphosphate metabolic process(L=7),GO:0009145-purine nucleoside triphosphate biosynthetic process(L=7),GO:0009146-purine nucleoside triphosphate catabolic process(L=7),GO:0009150-purine ribonucleotide metabolic process(L=6),GO:0009152-purine ribonucleotide biosynthetic process(L=7),GO:0009154-purine ribonucleotide catabolic process(L=7),GO:0009156-ribonucleoside monophosphate biosynthetic process(L=7),GO:0009158-ribonucleoside monophosphate catabolic process(L=7),GO:0009161-ribonucleoside monophosphate metabolic process(L=7),GO:0009163-nucleoside biosynthetic process(L=5),GO:0009164-nucleoside catabolic process(L=5),GO:0009165-nucleotide biosynthetic process(L=5),GO:0009166-nucleotide catabolic process(L=5),GO:0009167-purine ribonucleoside monophosphate metabolic process(L=7),GO:0009168-purine ribonucleoside monophosphate biosynthetic process(L=8),GO:0009169-purine ribonucleoside monophosphate catabolic process(L=8),GO:0009199-ribonucleoside triphosphate metabolic process(L=7),GO:0009201-ribonucleoside triphosphate biosynthetic process(L=7),GO:0009203-ribonucleoside triphosphate catabolic process(L=7),GO:0009205-purine ribonucleoside triphosphate metabolic process(L=7),GO:0009206-purine ribonucleoside triphosphate biosynthetic process(L=8),GO:0009207-purine ribonucleoside triphosphate catabolic process(L=8),GO:0009259-ribonucleotide metabolic process(L=5),GO:0009260-ribonucleotide biosynthetic process(L=7),GO:0009261-ribonucleotide catabolic process(L=5),GO:0009889-regulation of biosynthetic process(L=4),GO:0009987-cellular process(L=1),GO:0010468-regulation of gene expression(L=5),GO:0010556-regulation of macromolecule biosynthetic process(L=5),GO:0018130-heterocycle biosynthetic process(L=4),GO:0019219-regulation of nucleobase-containing compound metabolic process(L=5),GO:0019222-regulation of metabolic process(L=3),GO:0019438-aromatic compound biosynthetic process(L=4),GO:0019439-aromatic compound catabolic process(L=4),GO:0019637-organophosphate metabolic process(L=3),GO:0019693-ribose phosphate metabolic process(L=4),GO:0030001-metal ion transport(L=6),GO:0031323-regulation of cellular metabolic process(L=4),GO:0031326-regulation of cellular biosynthetic process(L=5),GO:0034220-ion transmembrane transport(L=5),GO:0034641-cellular nitrogen compound metabolic process(L=3),GO:0034654-nucleobase-containing compound biosynthetic process(L=4),GO:0034655-nucleobase-containing compound catabolic process(L=4),GO:0042278-purine nucleoside metabolic process(L=5),GO:0042451-purine nucleoside biosynthetic process(L=7),GO:0042454-ribonucleoside catabolic process(L=7),GO:0042455-ribonucleoside biosynthetic process(L=7),GO:0044237-cellular metabolic process(L=2),GO:0044238-primary metabolic process(L=2),GO:0044248-cellular catabolic process(L=3),GO:0044249-cellular biosynthetic process(L=3),GO:0044270-cellular nitrogen compound catabolic process(L=4),GO:0044271-cellular nitrogen compound biosynthetic process(L=4),GO:0044281-small molecule metabolic process(L=3),GO:0044699-single-organism process(L=1),GO:0044710-single-organism metabolic process(L=2),GO:0044763-single-organism cellular process(L=2),GO:0044765-single-organism transport(L=3),GO:0046034-ATP metabolic process(L=7),GO:0046128-purine ribonucleoside metabolic process(L=7),GO:0046129-purine ribonucleoside biosynthetic process(L=7),GO:0046130-purine ribonucleoside catabolic process(L=7),GO:0046390-ribose phosphate biosynthetic process(L=5),GO:0046434-organophosphate catabolic process(L=4),GO:0046483-heterocycle metabolic process(L=3),GO:0046700-heterocycle catabolic process(L=4),GO:0050789-regulation of biological process(L=2),GO:0050794-regulation of cellular process(L=3),GO:0051171-regulation of nitrogen compound metabolic process(L=4),GO:0051179-localization(L=1),GO:0051234-establishment of localization(L=2),GO:0051252-regulation of RNA metabolic process(L=5),GO:0055085-transmembrane transport(L=4),GO:0055086-nucleobase-containing small molecule metabolic process(L=3),GO:0060255-regulation of macromolecule metabolic process(L=4),GO:0065007-biological regulation(L=1),GO:0070588-calcium ion transmembrane transport(L=8),GO:0070838-divalent metal ion transport(L=7),GO:0071704-organic substance metabolic process(L=2),GO:0072511-divalent inorganic cation transport(L=6),GO:0072521-purine-containing compound metabolic process(L=4),GO:0072522-purine-containing compound biosynthetic process(L=5),GO:0072523-purine-containing compound catabolic process(L=5),GO:0080090-regulation of primary metabolic process(L=4),GO:0090407-organophosphate biosynthetic process(L=4),GO:1901135-carbohydrate derivative metabolic process(L=3),GO:1901136-carbohydrate derivative catabolic process(L=4),GO:1901137-carbohydrate derivative biosynthetic process(L=4),GO:1901292-nucleoside phosphate catabolic process(L=4),GO:1901293-nucleoside phosphate biosynthetic process(L=4),GO:1901360-organic cyclic compound metabolic process(L=3),GO:1901361-organic cyclic compound catabolic process(L=4),GO:1901362-organic cyclic compound biosynthetic process(L=4),GO:1901564-organonitrogen compound metabolic process(L=3),GO:1901565-organonitrogen compound catabolic process(L=4),GO:1901566-organonitrogen compound biosynthetic process(L=4),GO:1901575-organic substance catabolic process(L=3),GO:1901576-organic substance biosynthetic process(L=3),GO:1901657-glycosyl compound metabolic process(L=3),GO:1901658-glycosyl compound catabolic process(L=4),GO:1901659-glycosyl compound biosynthetic process(L=4),GO:2000112-regulation of cellular macromolecule biosynthetic process(L=6),GO:2001141-regulation of RNA biosynthetic process(L=6),	GO:0005575-cellular_component(L=0),GO:0016020-membrane(L=1),GO:0016021-integral component of membrane(L=4),GO:0031224-intrinsic component of membrane(L=3),GO:0044425-membrane part(L=2),	GO:0000166-nucleotide binding(L=3),GO:0001071-nucleic acid binding transcription factor activity(L=1),GO:0001882-nucleoside binding(L=3),GO:0001883-purine nucleoside binding(L=4),GO:0003674-molecular_function(L=0),GO:0003676-nucleic acid binding(L=3),GO:0003677-DNA binding(L=4),GO:0003700-transcription factor activity, sequence-specific DNA binding(L=2),GO:0003824-catalytic activity(L=1),GO:0005215-transporter activity(L=1),GO:0005388-calcium-transporting ATPase activity(L=7),GO:0005488-binding(L=1),GO:0005524-ATP binding(L=7),GO:0008324-cation transmembrane transporter activity(L=5),GO:0015075-ion transmembrane transporter activity(L=4),GO:0015085-calcium ion transmembrane transporter activity(L=8),GO:0015399-primary active transmembrane transporter activity(L=4),GO:0015405-P-P-bond-hydrolysis-driven transmembrane transporter activity(L=5),GO:0015662-ATPase activity, coupled to transmembrane movement of ions, phosphorylative mechanism(L=6),GO:0016462-pyrophosphatase activity(L=5),GO:0016787-hydrolase activity(L=2),GO:0016817-hydrolase activity, acting on acid anhydrides(L=3),GO:0016818-hydrolase activity, acting on acid anhydrides, in phosphorus-containing anhydrides(L=4),GO:0016820-hydrolase activity, acting on acid anhydrides, catalyzing transmembrane movement of substances(L=4),GO:0016887-ATPase activity(L=7),GO:0017076-purine nucleotide binding(L=4),GO:0017111-nucleoside-triphosphatase activity(L=6),GO:0019829-cation-transporting ATPase activity(L=6),GO:0022804-active transmembrane transporter activity(L=3),GO:0022857-transmembrane transporter activity(L=2),GO:0022890-inorganic cation transmembrane transporter activity(L=6),GO:0022891-substrate-specific transmembrane transporter activity(L=3),GO:0022892-substrate-specific transporter activity(L=2),GO:0030554-adenyl nucleotide binding(L=5),GO:0032549-ribonucleoside binding(L=4),GO:0032550-purine ribonucleoside binding(L=5),GO:0032553-ribonucleotide binding(L=3),GO:0032555-purine ribonucleotide binding(L=4),GO:0032559-adenyl ribonucleotide binding(L=6),GO:0035639-purine ribonucleoside triphosphate binding(L=4),GO:0036094-small molecule binding(L=2),GO:0042623-ATPase activity, coupled(L=8),GO:0042625-ATPase coupled ion transmembrane transporter activity(L=5),GO:0042626-ATPase activity, coupled to transmembrane movement of substances(L=5),GO:0043167-ion binding(L=2),GO:0043168-anion binding(L=3),GO:0043169-cation binding(L=3),GO:0043492-ATPase activity, coupled to movement of substances(L=9),GO:0043565-sequence-specific DNA binding(L=5),GO:0046872-metal ion binding(L=4),GO:0046873-metal ion transmembrane transporter activity(L=7),GO:0072509-divalent inorganic cation transmembrane transporter activity(L=7),GO:0097159-organic cyclic compound binding(L=2),GO:1901265-nucleoside phosphate binding(L=3),GO:1901363-heterocyclic compound binding(L=2),	NA
g26062	7	10.5726717798119	6.48529859817933	1.34334594888991	4.82772036759296	1.3810482906216e-06	0.00410960512766398	43.6472873947933	7.20837625415292	1.24189399395576	0	0	2.3527574888569	0	0	1.07841940148547	14.6675548914445	91.4208078707022	4.01659778793349	2.56239011564001	0.966663278025647	0	0	NA	XP_021808324.1	49	459	152	9	1	382	1	454	4.6e-106	99.7	XP_021808324.1 ent-kaurenoic acid oxidase 1-like [Prunus avium]	prunus avium	prunus avium;prunus;amygdaleae;amygdaloideae;rosaceae;rosales;fabids;rosids;pentapetalae;gunneridae;eudicotyledons;mesangiospermae;magnoliophyta;spermatophyta;euphyllophyta;tracheophyta;embryophyta;streptophytina;streptophyta;viridiplantae;eukaryota;cellular organisms;root	/home/CAM/smcevoy/acsa/analysis/annotation/entap//similarity_search/DIAMOND/blastp_acsa_structural_annotation_final_complete.out	No	Yes				NA			3694.POPTR_0012s07300.1	1.1e-106	392.1		Viridiplantae	virNOG[6]	1BHWJ@strNOG,1DVSV@virNOG,COG2124@NOG,KOG0157@euNOG		GO:0008150-biological_process(L=0),GO:0008152-metabolic process(L=1),GO:0044710-single-organism metabolic process(L=2),GO:0055114-oxidation-reduction process(L=3),		GO:0003674-molecular_function(L=0),GO:0003824-catalytic activity(L=1),GO:0004497-monooxygenase activity(L=3),GO:0005488-binding(L=1),GO:0005506-iron ion binding(L=6),GO:0009055-electron carrier activity(L=1),GO:0016491-oxidoreductase activity(L=2),GO:0016705-oxidoreductase activity, acting on paired donors, with incorporation or reduction of molecular oxygen(L=3),GO:0020037-heme binding(L=4),GO:0043167-ion binding(L=2),GO:0043169-cation binding(L=3),GO:0046872-metal ion binding(L=4),GO:0046906-tetrapyrrole binding(L=3),GO:0046914-transition metal ion binding(L=5),GO:0097159-organic cyclic compound binding(L=2),GO:1901363-heterocyclic compound binding(L=2),	NA
g26285	10	45.4485503200205	5.13844635516729	1.15520223411448	4.44809246677588	8.66362355409606e-06	0.0164057526028928	591.420744199449	1.80209406353823	0	10.0027514209606	6.53827122775318	4.7055149777138	1.82081293447395	6.1596876210218	4.31367760594186	71.2424094727303	2.40581073343953	7.36376261121139	8.96836540474005	4.83331639012823	3.25644469612956	2.34314176109692	NA	XP_006444305.1	90.7	129	11	1	1	129	1	128	1.3e-62	60.3	XP_006444305.1 uncharacterized protein OsI_027940 [Citrus clementina]	citrus clementina	citrus clementina;citrus;aurantioideae;rutaceae;sapindales;malvids;rosids;pentapetalae;gunneridae;eudicotyledons;mesangiospermae;magnoliophyta;spermatophyta;euphyllophyta;tracheophyta;embryophyta;streptophytina;streptophyta;viridiplantae;eukaryota;cellular organisms;root	/home/CAM/smcevoy/acsa/analysis/annotation/entap//similarity_search/DIAMOND/blastp_acsa_structural_annotation_final_complete.out	No	No				NA			29760.VIT_07s0005g00250.t01	2.4e-58	230.7		Viridiplantae	virNOG[6]	121RT@NOG,1BRSF@strNOG,1E2ZI@virNOG,KOG3158@euNOG			GO:0005575-cellular_component(L=0),GO:0005623-cell(L=1),GO:0005886-plasma membrane(L=3),GO:0016020-membrane(L=1),GO:0044464-cell part(L=2),GO:0071944-cell periphery(L=3),		NA
g32091	16	17.4306532492681	-3.69569396508438	0.903347726413993	-4.09110894622509	4.29315379408393e-05	0.0558914959567301	3.27354655460949	2.70314109530734	1.24189399395576	11.8214334974989	24.2850074173689	4.7055149777138	37.3266651567159	7.18630222452543	99.2145849366628	0	4.00968455573256	36.818813056057	11.5307555203801	11.5999593363078	3.25644469612956	19.9167049693238	NA		NA	NA	NA	NA	NA	NA	NA	NA	NA	NA										NA			3694.POPTR_0014s04570.1	1.3e-26	124.8		Viridiplantae	virNOG[6]	1BCJP@strNOG,1DQHD@virNOG,COG0474@NOG,KOG0205@euNOG	190	GO:0006139-nucleobase-containing compound metabolic process(L=3),GO:0006152-purine nucleoside catabolic process(L=7),GO:0006163-purine nucleotide metabolic process(L=5),GO:0006164-purine nucleotide biosynthetic process(L=7),GO:0006195-purine nucleotide catabolic process(L=7),GO:0006200-obsolete ATP catabolic process(L=),GO:0006725-cellular aromatic compound metabolic process(L=3),GO:0006753-nucleoside phosphate metabolic process(L=4),GO:0006754-ATP biosynthetic process(L=8),GO:0006793-phosphorus metabolic process(L=3),GO:0006796-phosphate-containing compound metabolic process(L=4),GO:0006807-nitrogen compound metabolic process(L=2),GO:0006810-transport(L=3),GO:0006811-ion transport(L=4),GO:0006812-cation transport(L=5),GO:0006818-hydrogen transport(L=4),GO:0008150-biological_process(L=0),GO:0008152-metabolic process(L=1),GO:0009056-catabolic process(L=2),GO:0009058-biosynthetic process(L=2),GO:0009116-nucleoside metabolic process(L=4),GO:0009117-nucleotide metabolic process(L=5),GO:0009119-ribonucleoside metabolic process(L=5),GO:0009123-nucleoside monophosphate metabolic process(L=5),GO:0009124-nucleoside monophosphate biosynthetic process(L=5),GO:0009125-nucleoside monophosphate catabolic process(L=5),GO:0009126-purine nucleoside monophosphate metabolic process(L=7),GO:0009127-purine nucleoside monophosphate biosynthetic process(L=7),GO:0009128-purine nucleoside monophosphate catabolic process(L=7),GO:0009141-nucleoside triphosphate metabolic process(L=5),GO:0009142-nucleoside triphosphate biosynthetic process(L=5),GO:0009143-nucleoside triphosphate catabolic process(L=5),GO:0009144-purine nucleoside triphosphate metabolic process(L=7),GO:0009145-purine nucleoside triphosphate biosynthetic process(L=7),GO:0009146-purine nucleoside triphosphate catabolic process(L=7),GO:0009150-purine ribonucleotide metabolic process(L=6),GO:0009152-purine ribonucleotide biosynthetic process(L=7),GO:0009154-purine ribonucleotide catabolic process(L=7),GO:0009156-ribonucleoside monophosphate biosynthetic process(L=7),GO:0009158-ribonucleoside monophosphate catabolic process(L=7),GO:0009161-ribonucleoside monophosphate metabolic process(L=7),GO:0009163-nucleoside biosynthetic process(L=5),GO:0009164-nucleoside catabolic process(L=5),GO:0009165-nucleotide biosynthetic process(L=5),GO:0009166-nucleotide catabolic process(L=5),GO:0009167-purine ribonucleoside monophosphate metabolic process(L=7),GO:0009168-purine ribonucleoside monophosphate biosynthetic process(L=8),GO:0009169-purine ribonucleoside monophosphate catabolic process(L=8),GO:0009199-ribonucleoside triphosphate metabolic process(L=7),GO:0009201-ribonucleoside triphosphate biosynthetic process(L=7),GO:0009203-ribonucleoside triphosphate catabolic process(L=7),GO:0009205-purine ribonucleoside triphosphate metabolic process(L=7),GO:0009206-purine ribonucleoside triphosphate biosynthetic process(L=8),GO:0009207-purine ribonucleoside triphosphate catabolic process(L=8),GO:0009259-ribonucleotide metabolic process(L=5),GO:0009260-ribonucleotide biosynthetic process(L=7),GO:0009261-ribonucleotide catabolic process(L=5),GO:0009987-cellular process(L=1),GO:0015672-monovalent inorganic cation transport(L=6),GO:0015992-proton transport(L=7),GO:0018130-heterocycle biosynthetic process(L=4),GO:0019438-aromatic compound biosynthetic process(L=4),GO:0019439-aromatic compound catabolic process(L=4),GO:0019637-organophosphate metabolic process(L=3),GO:0019693-ribose phosphate metabolic process(L=4),GO:0034220-ion transmembrane transport(L=5),GO:0034641-cellular nitrogen compound metabolic process(L=3),GO:0034654-nucleobase-containing compound biosynthetic process(L=4),GO:0034655-nucleobase-containing compound catabolic process(L=4),GO:0042278-purine nucleoside metabolic process(L=5),GO:0042451-purine nucleoside biosynthetic process(L=7),GO:0042454-ribonucleoside catabolic process(L=7),GO:0042455-ribonucleoside biosynthetic process(L=7),GO:0044237-cellular metabolic process(L=2),GO:0044238-primary metabolic process(L=2),GO:0044248-cellular catabolic process(L=3),GO:0044249-cellular biosynthetic process(L=3),GO:0044270-cellular nitrogen compound catabolic process(L=4),GO:0044271-cellular nitrogen compound biosynthetic process(L=4),GO:0044281-small molecule metabolic process(L=3),GO:0044699-single-organism process(L=1),GO:0044710-single-organism metabolic process(L=2),GO:0044763-single-organism cellular process(L=2),GO:0044765-single-organism transport(L=3),GO:0046034-ATP metabolic process(L=7),GO:0046128-purine ribonucleoside metabolic process(L=7),GO:0046129-purine ribonucleoside biosynthetic process(L=7),GO:0046130-purine ribonucleoside catabolic process(L=7),GO:0046390-ribose phosphate biosynthetic process(L=5),GO:0046434-organophosphate catabolic process(L=4),GO:0046483-heterocycle metabolic process(L=3),GO:0046700-heterocycle catabolic process(L=4),GO:0051179-localization(L=1),GO:0051234-establishment of localization(L=2),GO:0055085-transmembrane transport(L=4),GO:0055086-nucleobase-containing small molecule metabolic process(L=3),GO:0071704-organic substance metabolic process(L=2),GO:0072521-purine-containing compound metabolic process(L=4),GO:0072522-purine-containing compound biosynthetic process(L=5),GO:0072523-purine-containing compound catabolic process(L=5),GO:0090407-organophosphate biosynthetic process(L=4),GO:1901135-carbohydrate derivative metabolic process(L=3),GO:1901136-carbohydrate derivative catabolic process(L=4),GO:1901137-carbohydrate derivative biosynthetic process(L=4),GO:1901292-nucleoside phosphate catabolic process(L=4),GO:1901293-nucleoside phosphate biosynthetic process(L=4),GO:1901360-organic cyclic compound metabolic process(L=3),GO:1901361-organic cyclic compound catabolic process(L=4),GO:1901362-organic cyclic compound biosynthetic process(L=4),GO:1901564-organonitrogen compound metabolic process(L=3),GO:1901565-organonitrogen compound catabolic process(L=4),GO:1901566-organonitrogen compound biosynthetic process(L=4),GO:1901575-organic substance catabolic process(L=3),GO:1901576-organic substance biosynthetic process(L=3),GO:1901657-glycosyl compound metabolic process(L=3),GO:1901658-glycosyl compound catabolic process(L=4),GO:1901659-glycosyl compound biosynthetic process(L=4),	GO:0005575-cellular_component(L=0),GO:0005623-cell(L=1),GO:0005886-plasma membrane(L=3),GO:0016020-membrane(L=1),GO:0016021-integral component of membrane(L=4),GO:0031224-intrinsic component of membrane(L=3),GO:0044425-membrane part(L=2),GO:0044464-cell part(L=2),GO:0071944-cell periphery(L=3),	GO:0000166-nucleotide binding(L=3),GO:0001882-nucleoside binding(L=3),GO:0001883-purine nucleoside binding(L=4),GO:0003674-molecular_function(L=0),GO:0003824-catalytic activity(L=1),GO:0005215-transporter activity(L=1),GO:0005488-binding(L=1),GO:0005524-ATP binding(L=7),GO:0008324-cation transmembrane transporter activity(L=5),GO:0008553-hydrogen-exporting ATPase activity, phosphorylative mechanism(L=8),GO:0015075-ion transmembrane transporter activity(L=4),GO:0015077-monovalent inorganic cation transmembrane transporter activity(L=7),GO:0015078-hydrogen ion transmembrane transporter activity(L=8),GO:0015399-primary active transmembrane transporter activity(L=4),GO:0015405-P-P-bond-hydrolysis-driven transmembrane transporter activity(L=5),GO:0015662-ATPase activity, coupled to transmembrane movement of ions, phosphorylative mechanism(L=6),GO:0016462-pyrophosphatase activity(L=5),GO:0016787-hydrolase activity(L=2),GO:0016817-hydrolase activity, acting on acid anhydrides(L=3),GO:0016818-hydrolase activity, acting on acid anhydrides, in phosphorus-containing anhydrides(L=4),GO:0016820-hydrolase activity, acting on acid anhydrides, catalyzing transmembrane movement of substances(L=4),GO:0016887-ATPase activity(L=7),GO:0017076-purine nucleotide binding(L=4),GO:0017111-nucleoside-triphosphatase activity(L=6),GO:0019829-cation-transporting ATPase activity(L=6),GO:0022804-active transmembrane transporter activity(L=3),GO:0022857-transmembrane transporter activity(L=2),GO:0022890-inorganic cation transmembrane transporter activity(L=6),GO:0022891-substrate-specific transmembrane transporter activity(L=3),GO:0022892-substrate-specific transporter activity(L=2),GO:0030554-adenyl nucleotide binding(L=5),GO:0032549-ribonucleoside binding(L=4),GO:0032550-purine ribonucleoside binding(L=5),GO:0032553-ribonucleotide binding(L=3),GO:0032555-purine ribonucleotide binding(L=4),GO:0032559-adenyl ribonucleotide binding(L=6),GO:0035639-purine ribonucleoside triphosphate binding(L=4),GO:0036094-small molecule binding(L=2),GO:0042623-ATPase activity, coupled(L=8),GO:0042625-ATPase coupled ion transmembrane transporter activity(L=5),GO:0042626-ATPase activity, coupled to transmembrane movement of substances(L=5),GO:0043167-ion binding(L=2),GO:0043168-anion binding(L=3),GO:0043169-cation binding(L=3),GO:0043492-ATPase activity, coupled to movement of substances(L=9),GO:0046872-metal ion binding(L=4),GO:0097159-organic cyclic compound binding(L=2),GO:1901265-nucleoside phosphate binding(L=3),GO:1901363-heterocyclic compound binding(L=2),	NA
g35128	20	49.429278026915	9.73807418049491	2.45713793107524	3.96317766997864	7.39586979525264e-05	0.0770279839175562	302.257465208943	2.70314109530734	0	0	0.934038746821882	0	0	0	0	264.015988046001	206.8997230758	14.0580922577672	0	0	0	0	NA		NA	NA	NA	NA	NA	NA	NA	NA	NA	NA										NA			4113.PGSC0003DMT400000283	1.6e-15	87.4		Viridiplantae	virNOG[6]	0IE8C@euNOG,0XQH0@NOG,1BCE1@strNOG,1DQC3@virNOG	4075	GO:0000302-response to reactive oxygen species(L=4),GO:0002218-activation of innate immune response(L=6),GO:0002252-immune effector process(L=2),GO:0002253-activation of immune response(L=4),GO:0002376-immune system process(L=1),GO:0002682-regulation of immune system process(L=3),GO:0002684-positive regulation of immune system process(L=4),GO:0006082-organic acid metabolic process(L=3),GO:0006950-response to stress(L=2),GO:0006952-defense response(L=3),GO:0006955-immune response(L=2),GO:0006979-response to oxidative stress(L=3),GO:0007154-cell communication(L=2),GO:0007165-signal transduction(L=3),GO:0007275-multicellular organism development(L=3),GO:0007602-phototransduction(L=4),GO:0008150-biological_process(L=0),GO:0008152-metabolic process(L=1),GO:0009314-response to radiation(L=3),GO:0009411-response to UV(L=5),GO:0009416-response to light stimulus(L=4),GO:0009581-detection of external stimulus(L=3),GO:0009582-detection of abiotic stimulus(L=3),GO:0009583-detection of light stimulus(L=4),GO:0009585-red, far-red light phototransduction(L=4),GO:0009605-response to external stimulus(L=2),GO:0009607-response to biotic stimulus(L=2),GO:0009611-response to wounding(L=3),GO:0009617-response to bacterium(L=5),GO:0009627-systemic acquired resistance(L=5),GO:0009628-response to abiotic stimulus(L=2),GO:0009636-response to toxic substance(L=3),GO:0009639-response to red or far red light(L=5),GO:0009640-photomorphogenesis(L=5),GO:0009682-induced systemic resistance(L=4),GO:0009694-jasmonic acid metabolic process(L=7),GO:0009719-response to endogenous stimulus(L=2),GO:0009725-response to hormone(L=3),GO:0009733-response to auxin(L=4),GO:0009753-response to jasmonic acid(L=4),GO:0009755-hormone-mediated signaling pathway(L=5),GO:0009791-post-embryonic development(L=4),GO:0009814-defense response, incompatible interaction(L=4),GO:0009861-jasmonic acid and ethylene-dependent systemic resistance(L=4),GO:0009864-induced systemic resistance, jasmonic acid mediated signaling pathway(L=7),GO:0009867-jasmonic acid mediated signaling pathway(L=6),GO:0009987-cellular process(L=1),GO:0010017-red or far-red light signaling pathway(L=4),GO:0010033-response to organic substance(L=3),GO:0010035-response to inorganic substance(L=3),GO:0010046-response to mycotoxin(L=4),GO:0010119-regulation of stomatal movement(L=4),GO:0010193-response to ozone(L=4),GO:0010224-response to UV-B(L=6),GO:0019752-carboxylic acid metabolic process(L=5),GO:0023052-signaling(L=1),GO:0031347-regulation of defense response(L=5),GO:0031348-negative regulation of defense response(L=5),GO:0031349-positive regulation of defense response(L=5),GO:0032501-multicellular organismal process(L=1),GO:0032502-developmental process(L=1),GO:0032787-monocarboxylic acid metabolic process(L=6),GO:0032870-cellular response to hormone stimulus(L=4),GO:0042221-response to chemical(L=2),GO:0042742-defense response to bacterium(L=5),GO:0043436-oxoacid metabolic process(L=4),GO:0044237-cellular metabolic process(L=2),GO:0044281-small molecule metabolic process(L=3),GO:0044699-single-organism process(L=1),GO:0044700-single organism signaling(L=2),GO:0044707-single-multicellular organism process(L=2),GO:0044710-single-organism metabolic process(L=2),GO:0044763-single-organism cellular process(L=2),GO:0045087-innate immune response(L=3),GO:0045088-regulation of innate immune response(L=5),GO:0045089-positive regulation of innate immune response(L=6),GO:0048518-positive regulation of biological process(L=3),GO:0048519-negative regulation of biological process(L=3),GO:0048583-regulation of response to stimulus(L=3),GO:0048584-positive regulation of response to stimulus(L=4),GO:0048585-negative regulation of response to stimulus(L=4),GO:0050776-regulation of immune response(L=4),GO:0050778-positive regulation of immune response(L=5),GO:0050789-regulation of biological process(L=2),GO:0050794-regulation of cellular process(L=3),GO:0050896-response to stimulus(L=1),GO:0051606-detection of stimulus(L=2),GO:0051704-multi-organism process(L=1),GO:0051707-response to other organism(L=4),GO:0051716-cellular response to stimulus(L=2),GO:0065007-biological regulation(L=1),GO:0070887-cellular response to chemical stimulus(L=3),GO:0071214-cellular response to abiotic stimulus(L=3),GO:0071310-cellular response to organic substance(L=4),GO:0071365-cellular response to auxin stimulus(L=5),GO:0071395-cellular response to jasmonic acid stimulus(L=5),GO:0071478-cellular response to radiation(L=4),GO:0071482-cellular response to light stimulus(L=5),GO:0071489-cellular response to red or far red light(L=6),GO:0071495-cellular response to endogenous stimulus(L=3),GO:0071704-organic substance metabolic process(L=2),GO:0080134-regulation of response to stress(L=4),GO:1901700-response to oxygen-containing compound(L=3),GO:1901701-cellular response to oxygen-containing compound(L=4),GO:2000030-regulation of response to red or far red light(L=6),	GO:0005575-cellular_component(L=0),GO:0005622-intracellular(L=3),GO:0005623-cell(L=1),GO:0005737-cytoplasm(L=4),GO:0005773-vacuole(L=5),GO:0009507-chloroplast(L=6),GO:0009536-plastid(L=5),GO:0043226-organelle(L=1),GO:0043227-membrane-bounded organelle(L=2),GO:0043229-intracellular organelle(L=3),GO:0043231-intracellular membrane-bounded organelle(L=4),GO:0044424-intracellular part(L=3),GO:0044444-cytoplasmic part(L=4),GO:0044464-cell part(L=2),	GO:0003674-molecular_function(L=0),GO:0003824-catalytic activity(L=1),GO:0016740-transferase activity(L=2),GO:0016772-transferase activity, transferring phosphorus-containing groups(L=3),GO:0016779-nucleotidyltransferase activity(L=4),GO:0016874-ligase activity(L=2),GO:0016879-ligase activity, forming carbon-nitrogen bonds(L=3),GO:0016881-acid-amino acid ligase activity(L=4),GO:0070566-adenylyltransferase activity(L=5),GO:0080123-jasmonate-amino synthetase activity(L=5),	NA
g35802.2	2	34.2527173072756	-22.1602322494497	3.61302762505585	-6.13342452622602	8.6007231323207e-10	8.957653142312e-06	0	0	0	0	167.192935681117	0	132.919344216598	0	0	0	0	0	190.898063615181	57.0331334035131	0	0	NA		NA	NA	NA	NA	NA	NA	NA	NA	NA	NA										NA			29760.VIT_11s0016g05230.t01	6.8e-154	550.1	OSI_23614	Viridiplantae	virNOG[6]	1BHJA@strNOG,1DVF8@virNOG,COG2130@NOG,KOG1196@euNOG		GO:0008150-biological_process(L=0),GO:0008152-metabolic process(L=1),GO:0044710-single-organism metabolic process(L=2),GO:0055114-oxidation-reduction process(L=3),		GO:0003674-molecular_function(L=0),GO:0003824-catalytic activity(L=1),GO:0005488-binding(L=1),GO:0008270-zinc ion binding(L=6),GO:0016491-oxidoreductase activity(L=2),GO:0043167-ion binding(L=2),GO:0043169-cation binding(L=3),GO:0046872-metal ion binding(L=4),GO:0046914-transition metal ion binding(L=5),	NA
g3821	15	47.3096873050683	5.70204076056459	1.35805643311285	4.19867733146755	2.68478561670047e-05	0.0372827229305805	3.27354655460949	3.60418812707646	0	2.72802311480744	0.934038746821882	1.17637874442845	0	1.02661460350363	0	516.507468677295	198.880353964335	5.35546371724465	7.68717034692004	6.76664294617953	0.814111174032391	8.20099616383921	NA	XP_006452110.1	94.1	203	12	0	1	203	1	203	7.1e-106	99.5	XP_006452110.1 probable NAD(P)H dehydrogenase (quinone) FQR1-like 1 [Citrus clementina]	citrus clementina	citrus clementina;citrus;aurantioideae;rutaceae;sapindales;malvids;rosids;pentapetalae;gunneridae;eudicotyledons;mesangiospermae;magnoliophyta;spermatophyta;euphyllophyta;tracheophyta;embryophyta;streptophytina;streptophyta;viridiplantae;eukaryota;cellular organisms;root	/home/CAM/smcevoy/acsa/analysis/annotation/entap//similarity_search/DIAMOND/blastp_acsa_structural_annotation_final_complete.out	No	Yes				NA			3694.POPTR_0001s43940.1	2.5e-105	386.7		Viridiplantae	virNOG[6]	1BDYT@strNOG,1DRWG@virNOG,COG0655@NOG,KOG3135@euNOG		GO:0006355-regulation of transcription, DNA-templated(L=7),GO:0008150-biological_process(L=0),GO:0008152-metabolic process(L=1),GO:0009719-response to endogenous stimulus(L=2),GO:0009725-response to hormone(L=3),GO:0009733-response to auxin(L=4),GO:0009889-regulation of biosynthetic process(L=4),GO:0009890-negative regulation of biosynthetic process(L=5),GO:0009892-negative regulation of metabolic process(L=4),GO:0010033-response to organic substance(L=3),GO:0010468-regulation of gene expression(L=5),GO:0010556-regulation of macromolecule biosynthetic process(L=5),GO:0010558-negative regulation of macromolecule biosynthetic process(L=6),GO:0010605-negative regulation of macromolecule metabolic process(L=5),GO:0010629-negative regulation of gene expression(L=6),GO:0019219-regulation of nucleobase-containing compound metabolic process(L=5),GO:0019222-regulation of metabolic process(L=3),GO:0031323-regulation of cellular metabolic process(L=4),GO:0031324-negative regulation of cellular metabolic process(L=5),GO:0031326-regulation of cellular biosynthetic process(L=5),GO:0031327-negative regulation of cellular biosynthetic process(L=6),GO:0042221-response to chemical(L=2),GO:0044710-single-organism metabolic process(L=2),GO:0045892-negative regulation of transcription, DNA-templated(L=8),GO:0045934-negative regulation of nucleobase-containing compound metabolic process(L=6),GO:0048519-negative regulation of biological process(L=3),GO:0048523-negative regulation of cellular process(L=4),GO:0050789-regulation of biological process(L=2),GO:0050794-regulation of cellular process(L=3),GO:0050896-response to stimulus(L=1),GO:0051171-regulation of nitrogen compound metabolic process(L=4),GO:0051172-negative regulation of nitrogen compound metabolic process(L=5),GO:0051252-regulation of RNA metabolic process(L=5),GO:0051253-negative regulation of RNA metabolic process(L=6),GO:0055114-oxidation-reduction process(L=3),GO:0060255-regulation of macromolecule metabolic process(L=4),GO:0065007-biological regulation(L=1),GO:0080090-regulation of primary metabolic process(L=4),GO:2000112-regulation of cellular macromolecule biosynthetic process(L=6),GO:2000113-negative regulation of cellular macromolecule biosynthetic process(L=7),GO:2001141-regulation of RNA biosynthetic process(L=6),	GO:0005575-cellular_component(L=0),GO:0005622-intracellular(L=3),GO:0005623-cell(L=1),GO:0005737-cytoplasm(L=4),GO:0005773-vacuole(L=5),GO:0005886-plasma membrane(L=3),GO:0005911-cell-cell junction(L=2),GO:0009506-plasmodesma(L=3),GO:0016020-membrane(L=1),GO:0030054-cell junction(L=1),GO:0043226-organelle(L=1),GO:0043227-membrane-bounded organelle(L=2),GO:0043229-intracellular organelle(L=3),GO:0043231-intracellular membrane-bounded organelle(L=4),GO:0044424-intracellular part(L=3),GO:0044444-cytoplasmic part(L=4),GO:0044464-cell part(L=2),GO:0055044-symplast(L=1),GO:0071944-cell periphery(L=3),	GO:0000166-nucleotide binding(L=3),GO:0003674-molecular_function(L=0),GO:0003824-catalytic activity(L=1),GO:0005488-binding(L=1),GO:0010181-FMN binding(L=3),GO:0016491-oxidoreductase activity(L=2),GO:0016651-oxidoreductase activity, acting on NAD(P)H(L=3),GO:0016655-oxidoreductase activity, acting on NAD(P)H, quinone or similar compound as acceptor(L=4),GO:0032553-ribonucleotide binding(L=3),GO:0036094-small molecule binding(L=2),GO:0043167-ion binding(L=2),GO:0043168-anion binding(L=3),GO:0048037-cofactor binding(L=2),GO:0050662-coenzyme binding(L=3),GO:0097159-organic cyclic compound binding(L=2),GO:1901265-nucleoside phosphate binding(L=3),GO:1901363-heterocyclic compound binding(L=2),	NA
g3823	6	34.3033201693903	5.81923981903688	1.16184374510366	5.0086251645807	5.48202196995923e-07	0.00190317529390418	53.4679270586217	31.536646111919	32.2892438428497	28.1895721863436	22.4169299237252	1.17637874442845	4.55203233618486	0	0	359.35509484039	6.41549528917209	2.67773185862232	1.28119505782001	3.86665311210259	1.62822234806478	0	NA	XP_002871315.1	99.3	142	1	0	1	142	1	142	1.7e-77	99.3	XP_002871315.1 thioredoxin-like protein YLS8 [Arabidopsis lyrata subsp. lyrata]	arabidopsis lyrata subsp. lyrata	arabidopsis lyrata subsp. lyrata;arabidopsis lyrata;arabidopsis;camelineae;brassicaceae;brassicales;malvids;rosids;pentapetalae;gunneridae;eudicotyledons;mesangiospermae;magnoliophyta;spermatophyta;euphyllophyta;tracheophyta;embryophyta;streptophytina;streptophyta;viridiplantae;eukaryota;cellular organisms;root	/home/CAM/smcevoy/acsa/analysis/annotation/entap//similarity_search/DIAMOND/blastp_acsa_structural_annotation_final_complete.out	No	Yes				NA			3694.POPTR_0007s07660.1	2.3e-78	296.6									NA
g40050	3	467.52385492549	4.99178844257554	0.93125732375378	5.36026758152545	8.30987743942192e-08	0.000576982490210528	4323.26381645427	20.7240817306896	1431.90377503099	10.0027514209606	8.40634872139694	3.52913623328535	11.8352840740806	20.5322920700727	12.9410328178256	359.35509484039	939.870059863711	71.6293272181472	44.8418270237003	120.832909753206	37.44911400549	63.2648275496167	NA	XP_024044442.1	79.9	373	66	1	1	373	1	364	3.6e-148	99.7	XP_024044442.1 E2F transcription factor-like E2FE [Citrus clementina]	citrus clementina	citrus clementina;citrus;aurantioideae;rutaceae;sapindales;malvids;rosids;pentapetalae;gunneridae;eudicotyledons;mesangiospermae;magnoliophyta;spermatophyta;euphyllophyta;tracheophyta;embryophyta;streptophytina;streptophyta;viridiplantae;eukaryota;cellular organisms;root	/home/CAM/smcevoy/acsa/analysis/annotation/entap//similarity_search/DIAMOND/blastp_acsa_structural_annotation_final_complete.out	No	Yes				NA			3694.POPTR_0012s07700.1	1.1e-111	408.7	DEL1	Viridiplantae	virNOG[6]	11IGY@NOG,1BBS6@strNOG,1DPQX@virNOG,KOG2578@euNOG		GO:0006139-nucleobase-containing compound metabolic process(L=3),GO:0006259-DNA metabolic process(L=4),GO:0006260-DNA replication(L=5),GO:0006261-DNA-dependent DNA replication(L=7),GO:0006275-regulation of DNA replication(L=7),GO:0006351-transcription, DNA-templated(L=5),GO:0006355-regulation of transcription, DNA-templated(L=7),GO:0006725-cellular aromatic compound metabolic process(L=3),GO:0006807-nitrogen compound metabolic process(L=2),GO:0007049-cell cycle(L=3),GO:0008150-biological_process(L=0),GO:0008152-metabolic process(L=1),GO:0008156-negative regulation of DNA replication(L=8),GO:0009058-biosynthetic process(L=2),GO:0009059-macromolecule biosynthetic process(L=4),GO:0009889-regulation of biosynthetic process(L=4),GO:0009890-negative regulation of biosynthetic process(L=5),GO:0009892-negative regulation of metabolic process(L=4),GO:0009987-cellular process(L=1),GO:0010467-gene expression(L=4),GO:0010468-regulation of gene expression(L=5),GO:0010556-regulation of macromolecule biosynthetic process(L=5),GO:0010558-negative regulation of macromolecule biosynthetic process(L=6),GO:0010564-regulation of cell cycle process(L=5),GO:0010605-negative regulation of macromolecule metabolic process(L=5),GO:0010948-negative regulation of cell cycle process(L=6),GO:0016070-RNA metabolic process(L=4),GO:0018130-heterocycle biosynthetic process(L=4),GO:0019219-regulation of nucleobase-containing compound metabolic process(L=5),GO:0019222-regulation of metabolic process(L=3),GO:0019438-aromatic compound biosynthetic process(L=4),GO:0022402-cell cycle process(L=4),GO:0031323-regulation of cellular metabolic process(L=4),GO:0031324-negative regulation of cellular metabolic process(L=5),GO:0031326-regulation of cellular biosynthetic process(L=5),GO:0031327-negative regulation of cellular biosynthetic process(L=6),GO:0032774-RNA biosynthetic process(L=5),GO:0032875-regulation of DNA endoreduplication(L=6),GO:0032876-negative regulation of DNA endoreduplication(L=7),GO:0034641-cellular nitrogen compound metabolic process(L=3),GO:0034645-cellular macromolecule biosynthetic process(L=4),GO:0034654-nucleobase-containing compound biosynthetic process(L=4),GO:0042023-DNA endoreduplication(L=6),GO:0043170-macromolecule metabolic process(L=3),GO:0044237-cellular metabolic process(L=2),GO:0044238-primary metabolic process(L=2),GO:0044249-cellular biosynthetic process(L=3),GO:0044260-cellular macromolecule metabolic process(L=3),GO:0044271-cellular nitrogen compound biosynthetic process(L=4),GO:0044699-single-organism process(L=1),GO:0044763-single-organism cellular process(L=2),GO:0044786-cell cycle DNA replication(L=4),GO:0045934-negative regulation of nucleobase-containing compound metabolic process(L=6),GO:0046483-heterocycle metabolic process(L=3),GO:0048519-negative regulation of biological process(L=3),GO:0048523-negative regulation of cellular process(L=4),GO:0050789-regulation of biological process(L=2),GO:0050794-regulation of cellular process(L=3),GO:0051052-regulation of DNA metabolic process(L=5),GO:0051053-negative regulation of DNA metabolic process(L=6),GO:0051171-regulation of nitrogen compound metabolic process(L=4),GO:0051172-negative regulation of nitrogen compound metabolic process(L=5),GO:0051252-regulation of RNA metabolic process(L=5),GO:0051726-regulation of cell cycle(L=4),GO:0060255-regulation of macromolecule metabolic process(L=4),GO:0065007-biological regulation(L=1),GO:0071704-organic substance metabolic process(L=2),GO:0080090-regulation of primary metabolic process(L=4),GO:0090304-nucleic acid metabolic process(L=4),GO:0090329-regulation of DNA-dependent DNA replication(L=8),GO:1901360-organic cyclic compound metabolic process(L=3),GO:1901362-organic cyclic compound biosynthetic process(L=4),GO:1901576-organic substance biosynthetic process(L=3),GO:2000104-negative regulation of DNA-dependent DNA replication(L=8),GO:2000112-regulation of cellular macromolecule biosynthetic process(L=6),GO:2000113-negative regulation of cellular macromolecule biosynthetic process(L=7),GO:2001141-regulation of RNA biosynthetic process(L=6),	GO:0005575-cellular_component(L=0),GO:0005622-intracellular(L=3),GO:0005623-cell(L=1),GO:0005634-nucleus(L=5),GO:0005654-nucleoplasm(L=5),GO:0005667-transcription factor complex(L=4),GO:0031974-membrane-enclosed lumen(L=1),GO:0031981-nuclear lumen(L=6),GO:0032991-macromolecular complex(L=1),GO:0043226-organelle(L=1),GO:0043227-membrane-bounded organelle(L=2),GO:0043229-intracellular organelle(L=3),GO:0043231-intracellular membrane-bounded organelle(L=4),GO:0043233-organelle lumen(L=2),GO:0043234-protein complex(L=2),GO:0044422-organelle part(L=2),GO:0044424-intracellular part(L=3),GO:0044428-nuclear part(L=5),GO:0044446-intracellular organelle part(L=3),GO:0044451-nucleoplasm part(L=5),GO:0044464-cell part(L=2),GO:0070013-intracellular organelle lumen(L=3),	GO:0001071-nucleic acid binding transcription factor activity(L=1),GO:0003674-molecular_function(L=0),GO:0003676-nucleic acid binding(L=3),GO:0003677-DNA binding(L=4),GO:0003700-transcription factor activity, sequence-specific DNA binding(L=2),GO:0005488-binding(L=1),GO:0097159-organic cyclic compound binding(L=2),GO:1901363-heterocyclic compound binding(L=2),	NA
g47014	11	63.6428951312501	-1.83655463450574	0.410380224593595	-4.47525130219055	7.6321490668047e-06	0.0164057526028928	16.3677327730475	45.0523515884557	36.014925824717	31.8269363394201	60.7125185434223	88.2284058321338	174.798041709499	133.459898455472	77.6461969069535	16.7629198759365	26.4639180678349	61.5878327483135	32.0298764455002	72.4997458519235	75.7123391850123	69.122681952359	NA	XP_022762350.1	67.2	466	150	3	2	466	17	480	1.1e-183	99.4	XP_022762350.1 scopoletin glucosyltransferase-like [Durio zibethinus]	durio zibethinus	durio zibethinus;durio;helicteroideae;malvaceae;malvales;malvids;rosids;pentapetalae;gunneridae;eudicotyledons;mesangiospermae;magnoliophyta;spermatophyta;euphyllophyta;tracheophyta;embryophyta;streptophytina;streptophyta;viridiplantae;eukaryota;cellular organisms;root	/home/CAM/smcevoy/acsa/analysis/annotation/entap//similarity_search/DIAMOND/blastp_acsa_structural_annotation_final_complete.out	No	Yes				NA			3694.POPTR_0009s10120.1	1.8e-183	647.5	UGT73B5	Viridiplantae	virNOG[6]	1BHEQ@strNOG,1DVAV@virNOG,COG1819@NOG,KOG1192@euNOG		GO:0006810-transport(L=3),GO:0006950-response to stress(L=2),GO:0006952-defense response(L=3),GO:0008150-biological_process(L=0),GO:0008152-metabolic process(L=1),GO:0009058-biosynthetic process(L=2),GO:0009607-response to biotic stimulus(L=2),GO:0009636-response to toxic substance(L=3),GO:0009812-flavonoid metabolic process(L=3),GO:0009813-flavonoid biosynthetic process(L=4),GO:0009987-cellular process(L=1),GO:0032940-secretion by cell(L=3),GO:0042221-response to chemical(L=2),GO:0042440-pigment metabolic process(L=3),GO:0044699-single-organism process(L=1),GO:0044710-single-organism metabolic process(L=2),GO:0044763-single-organism cellular process(L=2),GO:0044765-single-organism transport(L=3),GO:0046148-pigment biosynthetic process(L=4),GO:0046903-secretion(L=4),GO:0050896-response to stimulus(L=1),GO:0051179-localization(L=1),GO:0051234-establishment of localization(L=2),GO:0051552-flavone metabolic process(L=4),GO:0051553-flavone biosynthetic process(L=4),GO:0051554-flavonol metabolic process(L=4),GO:0051555-flavonol biosynthetic process(L=5),GO:0051641-cellular localization(L=2),GO:0051649-establishment of localization in cell(L=3),GO:0051704-multi-organism process(L=1),GO:0051707-response to other organism(L=4),GO:0071704-organic substance metabolic process(L=2),GO:1901576-organic substance biosynthetic process(L=3),GO:1901615-organic hydroxy compound metabolic process(L=3),GO:1901617-organic hydroxy compound biosynthetic process(L=4),	GO:0005575-cellular_component(L=0),GO:0005622-intracellular(L=3),GO:0005623-cell(L=1),GO:0005737-cytoplasm(L=4),GO:0005829-cytosol(L=4),GO:0031410-cytoplasmic vesicle(L=4),GO:0031982-vesicle(L=3),GO:0043226-organelle(L=1),GO:0043227-membrane-bounded organelle(L=2),GO:0043229-intracellular organelle(L=3),GO:0043231-intracellular membrane-bounded organelle(L=4),GO:0044424-intracellular part(L=3),GO:0044444-cytoplasmic part(L=4),GO:0044464-cell part(L=2),	GO:0003674-molecular_function(L=0),GO:0003824-catalytic activity(L=1),GO:0008194-UDP-glycosyltransferase activity(L=4),GO:0010294-abscisic acid glucosyltransferase activity(L=6),GO:0016740-transferase activity(L=2),GO:0016757-transferase activity, transferring glycosyl groups(L=3),GO:0016758-transferase activity, transferring hexosyl groups(L=4),GO:0035251-UDP-glucosyltransferase activity(L=5),GO:0046527-glucosyltransferase activity(L=5),GO:0047893-flavonol 3-O-glucosyltransferase activity(L=6),GO:0080043-quercetin 3-O-glucosyltransferase activity(L=6),GO:0080044-quercetin 7-O-glucosyltransferase activity(L=6),	NA
g49223	17	24.6223031437113	-5.13306190620295	1.27478719129322	-4.02660298225595	5.6588461305445e-05	0.0693375087642599	2.18236436973966	5.40628219061469	0	17.2774797271138	1.86807749364376	2.3527574888569	0.910406467236973	8.21291682802907	175.782362442131	0	0.801936911146511	4.01659778793349	0	20.2999288385386	4.88466704419434	149.961072710203	NA	XP_021612629.1	70.8	301	85	2	1	301	7	304	1.8e-121	99.7	XP_021612629.1 basic endochitinase-like [Manihot esculenta]	manihot esculenta	manihot esculenta;manihot;manihoteae;crotonoideae;euphorbiaceae;malpighiales;fabids;rosids;pentapetalae;gunneridae;eudicotyledons;mesangiospermae;magnoliophyta;spermatophyta;euphyllophyta;tracheophyta;embryophyta;streptophytina;streptophyta;viridiplantae;eukaryota;cellular organisms;root	/home/CAM/smcevoy/acsa/analysis/annotation/entap//similarity_search/DIAMOND/blastp_acsa_structural_annotation_final_complete.out	No	Yes				NA			3694.POPTR_0014s08850.1	2e-119	434.1		Viridiplantae	virNOG[6]	11GPA@NOG,1BYCV@strNOG,1E9JY@virNOG,KOG4701@euNOG	520,1110	GO:0005975-carbohydrate metabolic process(L=3),GO:0008150-biological_process(L=0),GO:0008152-metabolic process(L=1),GO:0044238-primary metabolic process(L=2),GO:0071704-organic substance metabolic process(L=2),		GO:0003674-molecular_function(L=0),GO:0003824-catalytic activity(L=1),GO:0004553-hydrolase activity, hydrolyzing O-glycosyl compounds(L=4),GO:0016787-hydrolase activity(L=2),GO:0016798-hydrolase activity, acting on glycosyl bonds(L=3),	NA
g8686	19	4.9130197843114	5.87285643556619	1.47401985721952	3.98424512858619	6.76949677368818e-05	0.0742150619978552	18.5500971427871	0	2.48378798791152	1.81868207653829	0	1.17637874442845	0	0	0	17.8106023681826	35.2852240904465	0.669432964655581	0	0	0.814111174032391	0	NA	XP_006473465.1	73.9	318	66	3	1	305	1	314	7.3e-127	87.6	XP_006473465.1 lysophospholipid acyltransferase LPEAT1 isoform X1 [Citrus sinensis]	citrus sinensis	citrus sinensis;citrus;aurantioideae;rutaceae;sapindales;malvids;rosids;pentapetalae;gunneridae;eudicotyledons;mesangiospermae;magnoliophyta;spermatophyta;euphyllophyta;tracheophyta;embryophyta;streptophytina;streptophyta;viridiplantae;eukaryota;cellular organisms;root	/home/CAM/smcevoy/acsa/analysis/annotation/entap//similarity_search/DIAMOND/blastp_acsa_structural_annotation_final_complete.out	No	Yes				NA			3847.GLYMA04G03590.1	1.3e-122	444.9		Viridiplantae	virNOG[6]	0XSIQ@NOG,1BH28@strNOG,1DSQU@virNOG,KOG4666@euNOG	564,565,1100	GO:0008150-biological_process(L=0),GO:0008152-metabolic process(L=1),	GO:0005575-cellular_component(L=0),GO:0005622-intracellular(L=3),GO:0005623-cell(L=1),GO:0005634-nucleus(L=5),GO:0005737-cytoplasm(L=4),GO:0005783-endoplasmic reticulum(L=4),GO:0043226-organelle(L=1),GO:0043227-membrane-bounded organelle(L=2),GO:0043229-intracellular organelle(L=3),GO:0043231-intracellular membrane-bounded organelle(L=4),GO:0044424-intracellular part(L=3),GO:0044444-cytoplasmic part(L=4),GO:0044464-cell part(L=2),	GO:0003674-molecular_function(L=0),GO:0003824-catalytic activity(L=1),GO:0016740-transferase activity(L=2),GO:0016746-transferase activity, transferring acyl groups(L=3),	NA
g9724.2	21	16.8621804008525	-5.04899431804495	1.29723291742192	-3.89212627141714	9.93695004106625e-05	0.0985650806454333	0	5.40628219061469	0	0.909341038269147	0.934038746821882	1.17637874442845	8.19365820513275	6.1596876210218	0	0	0.801936911146511	0.669432964655581	3.84358517346002	14.4999491703847	122.930787278891	104.269808368813	NA	XP_022725026.1	52.8	252	110	4	17	268	185	427	5.9e-60	93.7	XP_022725026.1 bidirectional sugar transporter SWEET15-like [Durio zibethinus]	durio zibethinus	durio zibethinus;durio;helicteroideae;malvaceae;malvales;malvids;rosids;pentapetalae;gunneridae;eudicotyledons;mesangiospermae;magnoliophyta;spermatophyta;euphyllophyta;tracheophyta;embryophyta;streptophytina;streptophyta;viridiplantae;eukaryota;cellular organisms;root	/home/CAM/smcevoy/acsa/analysis/annotation/entap//similarity_search/DIAMOND/blastp_acsa_structural_annotation_final_complete.out	No	Yes				NA			3694.POPTR_0003s16520.1	3.5e-59	233.8	SWEET14	Viridiplantae	virNOG[6]	11M4R@NOG,1BBVR@strNOG,1DRRF@virNOG,KOG1623@euNOG		GO:0006810-transport(L=3),GO:0006950-response to stress(L=2),GO:0006970-response to osmotic stress(L=3),GO:0007275-multicellular organism development(L=3),GO:0007568-aging(L=3),GO:0008150-biological_process(L=0),GO:0008643-carbohydrate transport(L=4),GO:0009628-response to abiotic stimulus(L=2),GO:0009719-response to endogenous stimulus(L=2),GO:0009725-response to hormone(L=3),GO:0009737-response to abscisic acid(L=4),GO:0009751-response to salicylic acid(L=4),GO:0009987-cellular process(L=1),GO:0010033-response to organic substance(L=3),GO:0010150-leaf senescence(L=6),GO:0010260-animal organ senescence(L=4),GO:0014070-response to organic cyclic compound(L=4),GO:0015766-disaccharide transport(L=7),GO:0015770-sucrose transport(L=7),GO:0015772-oligosaccharide transport(L=6),GO:0032501-multicellular organismal process(L=1),GO:0032502-developmental process(L=1),GO:0032870-cellular response to hormone stimulus(L=4),GO:0033554-cellular response to stress(L=3),GO:0033993-response to lipid(L=4),GO:0034219-carbohydrate transmembrane transport(L=5),GO:0042221-response to chemical(L=2),GO:0044699-single-organism process(L=1),GO:0044707-single-multicellular organism process(L=2),GO:0044763-single-organism cellular process(L=2),GO:0044765-single-organism transport(L=3),GO:0044767-single-organism developmental process(L=2),GO:0048366-leaf development(L=7),GO:0048367-shoot system development(L=5),GO:0048513-animal organ development(L=4),GO:0048731-system development(L=4),GO:0048827-phyllome development(L=4),GO:0048856-anatomical structure development(L=2),GO:0050896-response to stimulus(L=1),GO:0051179-localization(L=1),GO:0051234-establishment of localization(L=2),GO:0051716-cellular response to stimulus(L=2),GO:0055085-transmembrane transport(L=4),GO:0070887-cellular response to chemical stimulus(L=3),GO:0071214-cellular response to abiotic stimulus(L=3),GO:0071215-cellular response to abscisic acid stimulus(L=5),GO:0071310-cellular response to organic substance(L=4),GO:0071396-cellular response to lipid(L=5),GO:0071407-cellular response to organic cyclic compound(L=5),GO:0071446-cellular response to salicylic acid stimulus(L=5),GO:0071470-cellular response to osmotic stress(L=4),GO:0071495-cellular response to endogenous stimulus(L=3),GO:0071702-organic substance transport(L=4),GO:0097305-response to alcohol(L=4),GO:0097306-cellular response to alcohol(L=5),GO:1901700-response to oxygen-containing compound(L=3),GO:1901701-cellular response to oxygen-containing compound(L=4),	GO:0005575-cellular_component(L=0),GO:0005623-cell(L=1),GO:0005886-plasma membrane(L=3),GO:0005887-integral component of plasma membrane(L=4),GO:0016020-membrane(L=1),GO:0016021-integral component of membrane(L=4),GO:0031224-intrinsic component of membrane(L=3),GO:0031226-intrinsic component of plasma membrane(L=3),GO:0044425-membrane part(L=2),GO:0044459-plasma membrane part(L=3),GO:0044464-cell part(L=2),GO:0071944-cell periphery(L=3),	GO:0003674-molecular_function(L=0),GO:0005215-transporter activity(L=1),GO:0008515-sucrose transmembrane transporter activity(L=6),GO:0015144-carbohydrate transmembrane transporter activity(L=3),GO:0015154-disaccharide transmembrane transporter activity(L=5),GO:0015157-oligosaccharide transmembrane transporter activity(L=4),GO:0022857-transmembrane transporter activity(L=2),GO:0022891-substrate-specific transmembrane transporter activity(L=3),GO:0022892-substrate-specific transporter activity(L=2),GO:0051119-sugar transmembrane transporter activity(L=4),GO:1901476-carbohydrate transporter activity(L=2),	NA
