acneID=g12821	3750.XP_008375089.1	1.90E-104	387.5	Streptophyta													Viridiplantae	"37TIF@33090,3G9IZ@35493,KOG1075@1,KOG1075@2759"	NA|NA|NA	L	ribonuclease H protein
acneID=g29860	28532.XP_010526678.1	1.70E-139	503.8	Streptophyta													Viridiplantae	"37RIF@33090,3GBWZ@35493,COG2801@1,KOG0017@2759"	NA|NA|NA	L	cysteine-rich RLK (RECEPTOR-like protein kinase) 8
acsaID=g10430	3750.XP_008338531.1	2.70E-129	469.9	fabids													Viridiplantae	"29CIJ@1,2RJNC@2759,37THD@33090,3GEBB@35493,4JTMA@91835"	NA|NA|NA	S	MULE transposase domain
acsaID=g31108	90675.XP_010451516.1	0	1208.4	Brassicales													Viridiplantae	"37SNQ@33090,3GHRQ@35493,3HVU8@3699,COG2801@1,KOG0017@2759"	NA|NA|NA	L	GAG-pre-integrase domain
acsaID=g21959	3641.EOY13026	1.50E-294	1020	Streptophyta		"GO:0005575,GO:0005623,GO:0005886,GO:0007154,GO:0007165,GO:0008150,GO:0009987,GO:0016020,GO:0023052,GO:0044464,GO:0050789,GO:0050794,GO:0050896,GO:0051716,GO:0065007,GO:0071944"		ko:K13459	"ko04626,map04626"				"ko00000,ko00001"				Viridiplantae	"37T06@33090,3GEKP@35493,KOG4658@1,KOG4658@2759"	NA|NA|NA	T	Belongs to the disease resistance NB-LRR family
acsaID=g11880	2711.XP_006486503.1	0	1335.5	Streptophyta		"GO:0000943,GO:0003674,GO:0003676,GO:0003723,GO:0003824,GO:0003887,GO:0003964,GO:0004518,GO:0004540,GO:0005488,GO:0005575,GO:0005622,GO:0005623,GO:0005634,GO:0006139,GO:0006259,GO:0006278,GO:0006508,GO:0006725,GO:0006807,GO:0008150,GO:0008152,GO:0008233,GO:0009058,GO:0009059,GO:0009987,GO:0016070,GO:0016740,GO:0016772,GO:0016779,GO:0016787,GO:0016788,GO:0018130,GO:0019438,GO:0019538,GO:0032196,GO:0032197,GO:0034061,GO:0034641,GO:0034645,GO:0034654,GO:0043170,GO:0043226,GO:0043227,GO:0043229,GO:0043231,GO:0044237,GO:0044238,GO:0044249,GO:0044260,GO:0044271,GO:0044422,GO:0044424,GO:0044428,GO:0044446,GO:0044464,GO:0046483,GO:0071704,GO:0071897,GO:0090304,GO:0090305,GO:0090501,GO:0097159,GO:0140096,GO:0140097,GO:0140098,GO:1901360,GO:1901362,GO:1901363,GO:1901564,GO:1901576"											Viridiplantae	"37R6P@33090,3G8BW@35493,COG2801@1,KOG0017@2759"	NA|NA|NA	E	Uncharacterized protein K02A2.6-like
acsaID=g19324.2	29760.VIT_06s0061g01010.t01	1.30E-227	797	Streptophyta													Viridiplantae	"37ME9@33090,3GFCY@35493,KOG2183@1,KOG2183@2759"	NA|NA|NA	O	Lysosomal Pro-X carboxypeptidase-like
acsaID=g36676.2	90675.XP_010418873.1	1.20E-223	783.1	Brassicales													Viridiplantae	"37Y5M@33090,3GN8P@35493,3HTAU@3699,COG2801@1,KOG0017@2759"	NA|NA|NA	L	"transposition, RNA-mediated"
acsaID=g37493	3711.Bra017917.1-P	2.00E-192	679.5	Brassicales													Viridiplantae	"383N4@33090,3GUZA@35493,3HWMQ@3699,COG2801@1,KOG0017@2759"	NA|NA|NA	L	Retroviral aspartyl protease
acsaID=g36668	3750.XP_008357937.1	3.50E-198	698.7	Streptophyta													Viridiplantae	"37TIF@33090,3G9IZ@35493,KOG1075@1,KOG1075@2759"	NA|NA|NA	L	ribonuclease H protein
Acyan01G0306900.1	3659.XP_004147934.1	1.40E-115	423.7	fabids		"GO:0001101,GO:0003674,GO:0003824,GO:0004364,GO:0005575,GO:0005622,GO:0005623,GO:0005737,GO:0006518,GO:0006575,GO:0006749,GO:0006790,GO:0006807,GO:0006950,GO:0008150,GO:0008152,GO:0009056,GO:0009266,GO:0009404,GO:0009407,GO:0009408,GO:0009628,GO:0009636,GO:0009719,GO:0009725,GO:0009733,GO:0009735,GO:0009737,GO:0009739,GO:0009987,GO:0010033,GO:0010035,GO:0010038,GO:0016740,GO:0016765,GO:0019748,GO:0033993,GO:0034641,GO:0042221,GO:0043603,GO:0044237,GO:0044248,GO:0044424,GO:0044464,GO:0046686,GO:0050896,GO:0051186,GO:0071704,GO:0097305,GO:0098754,GO:1901564,GO:1901700"	2.5.1.18	ko:K00799	"ko00480,ko00980,ko00982,ko00983,ko01524,ko05200,ko05204,ko05225,ko05418,map00480,map00980,map00982,map00983,map01524,map05200,map05204,map05225,map05418"		"R03522,R07002,R07003,R07004,R07023,R07024,R07025,R07026,R07069,R07070,R07083,R07084,R07091,R07092,R07093,R07094,R07100,R07113,R07116,R08280,R09409,R11905"	"RC00004,RC00069,RC00840,RC00948,RC01704,RC01705,RC01706,RC01758,RC01759,RC01765,RC01767,RC01769,RC02243,RC02527,RC02939,RC02940,RC02942,RC02943,RC02944"	"ko00000,ko00001,ko01000,ko02000"	"1.A.12.2.2,1.A.12.3.2"			Viridiplantae	"37J10@33090,3GECC@35493,4JSG7@91835,KOG0406@1,KOG0406@2759"	NA|NA|NA	O	Belongs to the GST superfamily
Acyan04G0199600.1	3659.XP_004137110.1	0	1118.6	fabids	UGT73B1	"GO:0003674,GO:0003824,GO:0005575,GO:0005622,GO:0005623,GO:0005737,GO:0005829,GO:0008150,GO:0008152,GO:0008194,GO:0009058,GO:0009605,GO:0009607,GO:0009812,GO:0009813,GO:0016740,GO:0016757,GO:0016758,GO:0035251,GO:0042440,GO:0043207,GO:0043226,GO:0043227,GO:0043229,GO:0043231,GO:0044424,GO:0044444,GO:0044464,GO:0046148,GO:0046527,GO:0047893,GO:0050896,GO:0051552,GO:0051553,GO:0051554,GO:0051555,GO:0051704,GO:0051707,GO:0071704,GO:0080043,GO:0080044,GO:1901576,GO:1901615,GO:1901617"		ko:K13496	"ko01110,map01110"		R08076	"RC00005,RC00059"	"ko00000,ko01000,ko01003"		GT1		Viridiplantae	"37J9T@33090,3GE9Z@35493,4JRZ6@91835,KOG1192@1,KOG1192@2759"	NA|NA|NA	CG	Belongs to the UDP-glycosyltransferase family
Acyan04G0042200.1	3880.AES80102	4.60E-236	825.1	Streptophyta			1.1.1.208	ko:K15095	"ko00902,ko01110,map00902,map01110"		R02548	RC00154	"ko00000,ko00001,ko01000"				Viridiplantae	"37QB9@33090,3GAD2@35493,COG1028@1,KOG1208@2759"	NA|NA|NA	Q	Belongs to the short-chain dehydrogenases reductases (SDR) family
Bpev01.c0516.g0018.m0001	3760.EMJ04651	2.00E-280	973.4	Streptophyta													Viridiplantae	"37TIF@33090,3G9IZ@35493,KOG1075@1,KOG1075@2759"	NA|NA|NA	L	ribonuclease H protein
evm.model.supercontig_77.36	3649.evm.model.supercontig_77.36	9.10E-81	307.4	Brassicales		"GO:0002376,GO:0002682,GO:0003674,GO:0003824,GO:0004672,GO:0004674,GO:0005575,GO:0005623,GO:0005886,GO:0005911,GO:0006464,GO:0006468,GO:0006793,GO:0006796,GO:0006807,GO:0006950,GO:0006952,GO:0006955,GO:0008150,GO:0008152,GO:0009506,GO:0009605,GO:0009607,GO:0009611,GO:0009814,GO:0009861,GO:0009987,GO:0016020,GO:0016301,GO:0016310,GO:0016740,GO:0016772,GO:0016773,GO:0019538,GO:0030054,GO:0031347,GO:0036211,GO:0043170,GO:0043207,GO:0043412,GO:0044237,GO:0044238,GO:0044260,GO:0044267,GO:0044464,GO:0045087,GO:0045088,GO:0048583,GO:0050776,GO:0050789,GO:0050896,GO:0051704,GO:0051707,GO:0055044,GO:0065007,GO:0071704,GO:0071944,GO:0080134,GO:0098542,GO:0140096,GO:1901564"											Viridiplantae	"2QVI9@2759,37Q00@33090,3GDP6@35493,3HVA5@3699,COG4886@1"	NA|NA|NA	T	leucine-rich repeat receptor-like serine threonine-protein kinase At3g14840
GWHPAAYW016246	71139.XP_010068882.1	2.10E-67	264.6	Streptophyta													Viridiplantae	"37V5Q@33090,3GFFK@35493,COG2801@1,KOG0017@2759"	NA|NA|NA	L	lipid metabolic process
GWHPAAYW021827	28532.XP_010541181.1	9.20E-274	951.8	Brassicales													Viridiplantae	"37NRU@33090,3GGV0@35493,3HXPF@3699,COG2801@1,KOG0017@2759"	NA|NA|NA	I	3-hydroxyisobutyryl-CoA hydrolase activity
GWHPAAYW022553	981085.XP_010113352.1	0	1112.8	fabids	TRRAP		2.7.11.1	"ko:K08852,ko:K08874"	"ko04140,ko04141,ko04210,ko04932,ko05010,ko05166,map04140,map04141,map04210,map04932,map05010,map05166"				"ko00000,ko00001,ko01000,ko01001,ko03021,ko03036"				Viridiplantae	"37KZ4@33090,3GEXY@35493,4JJF8@91835,COG2801@1,COG5032@1,KOG0017@2759,KOG0889@2759"	NA|NA|NA	BDLT	Belongs to the PI3 PI4-kinase family
GWHPAAYW005174	3750.XP_008388858.1	3.60E-53	218.8	fabids		"GO:0008150,GO:0009888,GO:0010073,GO:0032501,GO:0032502,GO:0048507,GO:0048856"											Viridiplantae	"37J1Y@33090,3GFFF@35493,4JRSV@91835,COG4886@1,KOG0619@2759"	NA|NA|NA	S	Leucine rich repeat N-terminal domain
GWHPAAYW026078	4096.XP_009796879.1	5.20E-178	632.5	asterids													Viridiplantae	"37THH@33090,3GG2K@35493,44UC5@71274,COG2801@1,KOG0017@2759"	NA|NA|NA	L	Mitochondrial protein
QL09p034431	3659.XP_004166886.1	2.30E-45	190.7	fabids			2.3.2.27	"ko:K11982,ko:K22378"					"ko00000,ko01000,ko04121,ko04131"				Viridiplantae	"37WV3@33090,3GKU8@35493,4JR0H@91835,KOG0800@1,KOG0800@2759"	NA|NA|NA	O	E3 ubiquitin-protein ligase
QL06p009534	90675.XP_010507719.1	1.50E-187	664.1	Streptophyta													Viridiplantae	"2CU6P@1,2RJJK@2759,37T0A@33090,3GFI7@35493"	NA|NA|NA		
QL09p003378	29760.VIT_00s0487g00030.t01	5.00E-266	925.6	Streptophyta													Viridiplantae	"2D1WH@1,2SJIN@2759,37ZHY@33090,3GP8I@35493"	NA|NA|NA	U	Belongs to the disease resistance NB-LRR family
QL02p054759	225117.XP_009344908.1	4.60E-30	139.8	fabids													Viridiplantae	"37T71@33090,3GHK2@35493,4JS3R@91835,KOG1075@1,KOG1075@2759"	NA|NA|NA	S	acid phosphatase activity
QL02p026579	4113.PGSC0003DMT400037229	1.20E-119	438.7	asterids													Viridiplantae	"387FV@33090,3GV0P@35493,44MP1@71274,KOG1075@1,KOG1075@2759"	NA|NA|NA	S	Reverse transcriptase (RNA-dependent DNA polymerase)